data/2013_05_10/Capa/C110mVCapa00017.txt

"Record Length",25002,"Points",-2.51008e-006,-0.00205955
"Sample Interval",2e-010,s,-2.50988e-006,-0.00124261
"Trigger Point",12550,"Samples",-2.50968e-006,-0.00110333
"Trigger Time",0.419835,s,-2.50948e-006,-0.00174028
,,,-2.50928e-006,0.00199069
"Horizontal Offset",-2.51008e-006,s,-2.50908e-006,-0.000798152
,,,-2.50888e-006,-0.00495324
,,,-2.50868e-006,0.000519581
,,,-2.50848e-006,0.00262138
,,,-2.50828e-006,-0.00584372
,,,-2.50808e-006,-0.00230838
,,,-2.50788e-006,0.00246175
,,,-2.50768e-006,-0.000989083
,,,-2.50748e-006,-0.00373253
,,,-2.50728e-006,-0.00142415
,,,-2.50708e-006,-0.000364646
,,,-2.50688e-006,0.00312375
,,,-2.50668e-006,-0.00160882
,,,-2.50648e-006,-0.00621776
,,,-2.50628e-006,0.000226926
,,,-2.50608e-006,0.00370906
,,,-2.50588e-006,-0.00160882
,,,-2.50568e-006,-0.00323643
,,,-2.50548e-006,-0.000644782
,,,-2.50528e-006,-0.000596267
,,,-2.50508e-006,-0.00404397
,,,-2.50488e-006,0.000539926
,,,-2.50468e-006,0.00626941
,,,-2.50448e-006,-0.00417387
,,,-2.50428e-006,-0.0104198
,,,-2.50408e-006,0.00359325
,,,-2.50388e-006,0.00770921
,,,-2.50368e-006,-0.00417387
,,,-2.50348e-006,-0.00502366
,,,-2.50328e-006,-0.00198599
,,,-2.50308e-006,-0.00336163
,,,-2.50288e-006,0.00225361
,,,-2.50268e-006,0.00212997
,,,-2.50248e-006,-0.00409562
,,,-2.50228e-006,-0.00600336
,,,-2.50208e-006,0.00199069
,,,-2.50188e-006,0.00212997
,,,-2.50168e-006,-0.00323643
,,,-2.50148e-006,-0.00210493
,,,-2.50128e-006,0.00107985
,,,-2.50108e-006,-0.00246801
,,,-2.50088e-006,-0.00281075
,,,-2.50068e-006,-0.00103603
,,,-2.50048e-006,0.00312375
,,,-2.50028e-006,0.00258069
,,,-2.50008e-006,-0.00621776
,,,-2.49988e-006,-0.00767791
,,,-2.49968e-006,0.00754332
,,,-2.49948e-006,0.00611917
,,,-2.49928e-006,-0.00889392
,,,-2.49908e-006,-0.00453225
,,,-2.49888e-006,0.00312375
,,,-2.49868e-006,-0.00287335
,,,-2.49848e-006,-0.000200321
,,,-2.49828e-006,0.00380296
,,,-2.49808e-006,-0.00248836
,,,-2.49788e-006,-0.00584372
,,,-2.49768e-006,-0.000629132
,,,-2.49748e-006,0.00330529
,,,-2.49728e-006,0.000608787
,,,-2.49708e-006,-0.00584372
,,,-2.49688e-006,-0.00110333
,,,-2.49668e-006,0.00149301
,,,-2.49648e-006,-0.00248836
,,,-2.49628e-006,0.00132399
,,,-2.49608e-006,0.00176845
,,,-2.49588e-006,-0.00600336
,,,-2.49568e-006,-0.00417387
,,,-2.49548e-006,0.00502679
,,,-2.49528e-006,0.00127861
,,,-2.49508e-006,-0.00600336
,,,-2.49488e-006,-0.00417387
,,,-2.49468e-006,0.000838842
,,,-2.49448e-006,0.00320356
,,,-2.49428e-006,-0.00103603
,,,-2.49408e-006,-0.00417387
,,,-2.49388e-006,-0.0053977
,,,-2.49368e-006,0.00359325
,,,-2.49348e-006,0.00626941
,,,-2.49328e-006,-0.00523963
,,,-2.49308e-006,-0.00887357
,,,-2.49288e-006,0.00538831
,,,-2.49268e-006,0.00560584
,,,-2.49248e-006,-0.00499706
,,,-2.49228e-006,-0.0053977
,,,-2.49208e-006,0.000123635
,,,-2.49188e-006,0.00288117
,,,-2.49168e-006,0.00147736
,,,-2.49148e-006,-0.00502366
,,,-2.49128e-006,-0.00323643
,,,-2.49108e-006,0.00185609
,,,-2.49088e-006,0.000214406
,,,-2.49068e-006,-0.000798152
,,,-2.49048e-006,-0.00230838
,,,-2.49028e-006,-0.00370436
,,,-2.49008e-006,0.00147736
,,,-2.48988e-006,0.000622872
,,,-2.48968e-006,-0.00281075
,,,-2.48948e-006,-0.00103603
,,,-2.48928e-006,-0.00335224
,,,-2.48908e-006,-0.00124261
,,,-2.48888e-006,0.0061223
,,,-2.48868e-006,-0.00287178
,,,-2.48848e-006,-0.00572009
,,,-2.48828e-006,0.00329903
,,,-2.48808e-006,0.000539926
,,,-2.48788e-006,-0.0025713
,,,-2.48768e-006,0.00107985
,,,-2.48748e-006,5.16451e-005
,,,-2.48728e-006,-0.00409562
,,,-2.48708e-006,0.000519581
,,,-2.48688e-006,0.00107985
,,,-2.48668e-006,-0.00287335
,,,-2.48648e-006,-0.00323643
,,,-2.48628e-006,0.00246175
,,,-2.48608e-006,0.00370906
,,,-2.48588e-006,-0.00502366
,,,-2.48568e-006,-0.00701435
,,,-2.48548e-006,0.00421612
,,,-2.48528e-006,0.00501427
,,,-2.48508e-006,-0.00626628
,,,-2.48488e-006,-0.00701435
,,,-2.48468e-006,0.00380296
,,,-2.48448e-006,0.00225361
,,,-2.48428e-006,-0.00404397
,,,-2.48408e-006,-0.000200321
,,,-2.48388e-006,-0.00103603
,,,-2.48368e-006,-0.00460111
,,,-2.48348e-006,0.000838842
,,,-2.48328e-006,0.00456981
,,,-2.48308e-006,-0.00767791
,,,-2.48288e-006,-0.00804725
,,,-2.48268e-006,0.0068688
,,,-2.48248e-006,0.00359325
,,,-2.48228e-006,-0.00767791
,,,-2.48208e-006,-0.00460111
,,,-2.48188e-006,0.000838842
,,,-2.48168e-006,0.00277006
,,,-2.48148e-006,0.00185609
,,,-2.48128e-006,-0.00572009
,,,-2.48108e-006,-0.00820375
,,,-2.48088e-006,0.00501897
,,,-2.48068e-006,0.0047044
,,,-2.48048e-006,-0.00460111
,,,-2.48028e-006,-0.00373253
,,,-2.48008e-006,0.000539926
,,,-2.47988e-006,-0.000644782
,,,-2.47968e-006,-0.00205955
,,,-2.47948e-006,-0.00199382
,,,-2.47928e-006,0.00245706
,,,-2.47908e-006,0.00149301
,,,-2.47888e-006,-0.00893148
,,,-2.47868e-006,-0.00373253
,,,-2.47848e-006,0.00664501
,,,-2.47828e-006,0.00246175
,,,-2.47808e-006,-0.00572009
,,,-2.47788e-006,-0.00462146
,,,-2.47768e-006,-0.000200321
,,,-2.47748e-006,0.00185609
,,,-2.47728e-006,0.00370906
,,,-2.47708e-006,-0.00462146
,,,-2.47688e-006,-0.00725536
,,,-2.47668e-006,0.000226926
,,,-2.47648e-006,0.00636174
,,,-2.47628e-006,-0.00124261
,,,-2.47608e-006,-0.00463241
,,,-2.47588e-006,0.000519581
,,,-2.47568e-006,-0.00205955
,,,-2.47548e-006,-0.000798152
,,,-2.47528e-006,0.0061223
,,,-2.47508e-006,-0.00174028
,,,-2.47488e-006,-0.00924917
,,,-2.47468e-006,5.16451e-005
,,,-2.47448e-006,0.00664501
,,,-2.47428e-006,0.00246175
,,,-2.47408e-006,-0.00417387
,,,-2.47388e-006,-0.0086623
,,,-2.47368e-006,0.00277006
,,,-2.47348e-006,0.0090066
,,,-2.47328e-006,-0.00335224
,,,-2.47308e-006,-0.0086623
,,,-2.47288e-006,0.00127861
,,,-2.47268e-006,0.00149301
,,,-2.47248e-006,-0.00176376
,,,-2.47228e-006,0.00292343
,,,-2.47208e-006,-0.00281075
,,,-2.47188e-006,-0.0068688
,,,-2.47168e-006,0.00262138
,,,-2.47148e-006,0.00329903
,,,-2.47128e-006,-0.00142415
,,,-2.47108e-006,-0.0012567
,,,-2.47088e-006,-0.00248836
,,,-2.47068e-006,-0.00373253
,,,-2.47048e-006,0.00359325
,,,-2.47028e-006,0.00421612
,,,-2.47008e-006,-0.00417387
,,,-2.46988e-006,-0.0086623
,,,-2.46968e-006,0.00207989
,,,-2.46948e-006,0.00520677
,,,-2.46928e-006,-0.00205955
,,,-2.46908e-006,-0.0053977
,,,-2.46888e-006,-0.00323643
,,,-2.46868e-006,0.000226926
,,,-2.46848e-006,0.00405336
,,,-2.46828e-006,-0.00246801
,,,-2.46808e-006,-0.00409562
,,,-2.46788e-006,0.00106733
,,,-2.46768e-006,0.00147736
,,,-2.46748e-006,-0.00160882
,,,-2.46728e-006,-0.00110333
,,,-2.46708e-006,0.000226926
,,,-2.46688e-006,0.00107985
,,,-2.46668e-006,-0.00287335
,,,-2.46648e-006,-0.00198599
,,,-2.46628e-006,0.00520677
,,,-2.46608e-006,-0.00572009
,,,-2.46588e-006,-0.00404397
,,,-2.46568e-006,0.00842755
,,,-2.46548e-006,-0.0041457
,,,-2.46528e-006,-0.00804725
,,,-2.46508e-006,0.00650729
,,,-2.46488e-006,0.00127861
,,,-2.46468e-006,-0.00811298
,,,-2.46448e-006,0.000608787
,,,-2.46428e-006,0.00132399
,,,-2.46408e-006,-0.00409562
,,,-2.46388e-006,-0.0012567
,,,-2.46368e-006,-0.00176376
,,,-2.46348e-006,0.000622872
,,,-2.46328e-006,0.00277006
,,,-2.46308e-006,-0.00516921
,,,-2.46288e-006,-0.00683907
,,,-2.46268e-006,0.00459642
,,,-2.46248e-006,0.00456981
,,,-2.46228e-006,-0.00516921
,,,-2.46208e-006,-0.00364646
,,,-2.46188e-006,-0.000798152
,,,-2.46168e-006,0.000123635
,,,-2.46148e-006,0.00421612
,,,-2.46128e-006,-0.00364646
,,,-2.46108e-006,-0.00626628
,,,-2.46088e-006,0.00501897
,,,-2.46068e-006,-8.13802e-005
,,,-2.46048e-006,-0.00759809
,,,-2.46028e-006,-0.000433506
,,,-2.46008e-006,0.00456981
,,,-2.45988e-006,0.00330529
,,,-2.45968e-006,-0.00683907
,,,-2.45948e-006,-0.00933838
,,,-2.45928e-006,0.00842755
,,,-2.45908e-006,0.00931803
,,,-2.45888e-006,-0.0118486
,,,-2.45868e-006,-0.00739308
,,,-2.45848e-006,0.00664501
,,,-2.45828e-006,0.00149301
,,,-2.45808e-006,-0.0001878
,,,-2.45788e-006,-0.00199382
,,,-2.45768e-006,-0.00621776
,,,-2.45748e-006,0.00421612
,,,-2.45728e-006,0.00463398
,,,-2.45708e-006,-0.00820375
,,,-2.45688e-006,-0.00409562
,,,-2.45668e-006,0.00560584
,,,-2.45648e-006,0.00199069
,,,-2.45628e-006,-0.00739308
,,,-2.45608e-006,-0.00230838
,,,-2.45588e-006,0.00421612
,,,-2.45568e-006,0.000608787
,,,-2.45548e-006,-0.00373253
,,,-2.45528e-006,-0.000200321
,,,-2.45508e-006,0.000226926
,,,-2.45488e-006,-0.00297507
,,,-2.45468e-006,-0.000433506
,,,-2.45448e-006,0.00456981
,,,-2.45428e-006,-0.00174028
,,,-2.45408e-006,-0.00650885
,,,-2.45388e-006,0.000838842
,,,-2.45368e-006,0.00456981
,,,-2.45348e-006,-0.00210493
,,,-2.45328e-006,-0.00335224
,,,-2.45308e-006,-0.000433506
,,,-2.45288e-006,0.000123635
,,,-2.45268e-006,0.00185609
,,,-2.45248e-006,-0.00335224
,,,-2.45228e-006,-0.00314409
,,,-2.45208e-006,0.00207989
,,,-2.45188e-006,-0.000364646
,,,-2.45168e-006,-0.00460111
,,,-2.45148e-006,-0.000433506
,,,-2.45128e-006,0.00127861
,,,-2.45108e-006,-0.000364646
,,,-2.45088e-006,-0.00297507
,,,-2.45068e-006,-0.00246801
,,,-2.45048e-006,0.000539926
,,,-2.45028e-006,0.00185609
,,,-2.45008e-006,-0.00133025
,,,-2.44988e-006,-0.00373253
,,,-2.44968e-006,-0.00230838
,,,-2.44948e-006,0.00185609
,,,-2.44928e-006,0.000214406
,,,-2.44908e-006,-0.00287335
,,,-2.44888e-006,-0.000629132
,,,-2.44868e-006,-0.00103603
,,,-2.44848e-006,-0.00335224
,,,-2.44828e-006,0.000838842
,,,-2.44808e-006,0.00277006
,,,-2.44788e-006,-0.0041457
,,,-2.44768e-006,-0.00335224
,,,-2.44748e-006,0.00212997
,,,-2.44728e-006,-0.000200321
,,,-2.44708e-006,-0.00287178
,,,-2.44688e-006,-0.000596267
,,,-2.44668e-006,-0.00314409
,,,-2.44648e-006,-0.00110333
,,,-2.44628e-006,0.00149301
,,,-2.44608e-006,-0.000989083
,,,-2.44588e-006,-0.00160882
,,,-2.44568e-006,-0.000629132
,,,-2.44548e-006,-0.00287178
,,,-2.44528e-006,-0.00176376
,,,-2.44508e-006,0.00329903
,,,-2.44488e-006,0.000123635
,,,-2.44468e-006,-0.00516921
,,,-2.44448e-006,-0.00417387
,,,-2.44428e-006,0.000838842
,,,-2.44408e-006,0.00456981
,,,-2.44388e-006,-0.000644782
,,,-2.44368e-006,-0.00839625
,,,-2.44348e-006,-0.00462146
,,,-2.44328e-006,0.00664501
,,,-2.44308e-006,0.00330529
,,,-2.44288e-006,-0.00572009
,,,-2.44268e-006,-0.0078078
,,,-2.44248e-006,0.00207989
,,,-2.44228e-006,0.00520677
,,,-2.44208e-006,-0.000596267
,,,-2.44188e-006,-0.00462146
,,,-2.44168e-006,-0.00409562
,,,-2.44148e-006,-8.13802e-005
,,,-2.44128e-006,0.00370906
,,,-2.44108e-006,-0.000798152
,,,-2.44088e-006,-0.00370749
,,,-2.44068e-006,-0.00174028
,,,-2.44048e-006,-0.0001878
,,,-2.44028e-006,-0.000433506
,,,-2.44008e-006,-0.00198599
,,,-2.43988e-006,-0.00370436
,,,-2.43968e-006,0.000608787
,,,-2.43948e-006,0.00212997
,,,-2.43928e-006,-0.00409562
,,,-2.43908e-006,-0.00516921
,,,-2.43888e-006,0.000608787
,,,-2.43868e-006,0.00385304
,,,-2.43848e-006,-0.000200321
,,,-2.43828e-006,-0.00336163
,,,-2.43808e-006,-0.00572009
,,,-2.43788e-006,-0.00160882
,,,-2.43768e-006,0.00736178
,,,-2.43748e-006,0.00106733
,,,-2.43728e-006,-0.0103071
,,,-2.43708e-006,-0.00246801
,,,-2.43688e-006,0.00245706
,,,-2.43668e-006,-0.000644782
,,,-2.43648e-006,0.00147736
,,,-2.43628e-006,0.00019093
,,,-2.43608e-006,-0.00540239
,,,-2.43588e-006,-0.0041457
,,,-2.43568e-006,0.00199069
,,,-2.43548e-006,0.00502679
,,,-2.43528e-006,-0.000629132
,,,-2.43508e-006,-0.00767791
,,,-2.43488e-006,-0.00364646
,,,-2.43468e-006,0.00292343
,,,-2.43448e-006,0.00320356
,,,-2.43428e-006,-0.00174028
,,,-2.43408e-006,-0.00335224
,,,-2.43388e-006,-0.00287335
,,,-2.43368e-006,0.00127861
,,,-2.43348e-006,0.00149301
,,,-2.43328e-006,-0.00176376
,,,-2.43308e-006,-0.000433506
,,,-2.43288e-006,0.00127861
,,,-2.43268e-006,-0.00370436
,,,-2.43248e-006,-0.00417387
,,,-2.43228e-006,0.00459642
,,,-2.43208e-006,0.00207989
,,,-2.43188e-006,-0.00767791
,,,-2.43168e-006,-0.00297507
,,,-2.43148e-006,0.00409562
,,,-2.43128e-006,0.000539926
,,,-2.43108e-006,-0.00336163
,,,-2.43088e-006,-0.00176376
,,,-2.43068e-006,-0.000798152
,,,-2.43048e-006,0.00176845
,,,-2.43028e-006,-0.00287178
,,,-2.43008e-006,-0.000989083
,,,-2.42988e-006,0.00385304
,,,-2.42968e-006,-0.00281075
,,,-2.42948e-006,-0.00979067
,,,-2.42928e-006,0.00405336
,,,-2.42908e-006,0.0068688
,,,-2.42888e-006,-0.00583433
,,,-2.42868e-006,-0.00767791
,,,-2.42848e-006,0.00312375
,,,-2.42828e-006,0.00173559
,,,-2.42808e-006,-0.00110333
,,,-2.42788e-006,-0.00174028
,,,-2.42768e-006,-0.00248836
,,,-2.42748e-006,-0.00124261
,,,-2.42728e-006,0.00127861
,,,-2.42708e-006,0.00246175
,,,-2.42688e-006,-0.00176376
,,,-2.42668e-006,-0.0067123
,,,-2.42648e-006,0.00127861
,,,-2.42628e-006,0.00330529
,,,-2.42608e-006,-0.0001878
,,,-2.42588e-006,-0.00373253
,,,-2.42568e-006,-0.00323643
,,,-2.42548e-006,-0.000364646
,,,-2.42528e-006,0.00405336
,,,-2.42508e-006,-0.00287335
,,,-2.42488e-006,-0.00370749
,,,-2.42468e-006,0.00149301
,,,-2.42448e-006,-0.0001878
,,,-2.42428e-006,-0.00287335
,,,-2.42408e-006,-0.00110333
,,,-2.42388e-006,0.00185609
,,,-2.42368e-006,-0.000596267
,,,-2.42348e-006,-0.00584372
,,,-2.42328e-006,-0.000200321
,,,-2.42308e-006,0.00666848
,,,-2.42288e-006,-0.00248836
,,,-2.42268e-006,-0.00708947
,,,-2.42248e-006,-0.00110333
,,,-2.42228e-006,0.00246175
,,,-2.42208e-006,0.000608787
,,,-2.42188e-006,-0.00314409
,,,-2.42168e-006,-0.00281075
,,,-2.42148e-006,0.00106733
,,,-2.42128e-006,0.00199069
,,,-2.42108e-006,-0.00373253
,,,-2.42088e-006,0.000123635
,,,-2.42068e-006,0.000519581
,,,-2.42048e-006,-0.00460111
,,,-2.42028e-006,-0.000433506
,,,-2.42008e-006,0.00245706
,,,-2.41988e-006,-0.00210493
,,,-2.41968e-006,-0.000989083
,,,-2.41948e-006,-0.00124261
,,,-2.41928e-006,-0.00323643
,,,-2.41908e-006,-8.13802e-005
,,,-2.41888e-006,0.00262138
,,,-2.41868e-006,-0.00199382
,,,-2.41848e-006,-0.000200321
,,,-2.41828e-006,-0.00103603
,,,-2.41808e-006,-0.00499706
,,,-2.41788e-006,0.00173559
,,,-2.41768e-006,0.00501897
,,,-2.41748e-006,-0.00370436
,,,-2.41728e-006,-0.0060863
,,,-2.41708e-006,0.000838842
,,,-2.41688e-006,-0.000200321
,,,-2.41668e-006,-0.00174028
,,,-2.41648e-006,0.00312375
,,,-2.41628e-006,-0.00124261
,,,-2.41608e-006,-0.00767321
,,,-2.41588e-006,-0.00287178
,,,-2.41568e-006,0.00716928
,,,-2.41548e-006,0.00292343
,,,-2.41528e-006,-0.00725536
,,,-2.41508e-006,-0.00453225
,,,-2.41488e-006,0.00199069
,,,-2.41468e-006,0.000838842
,,,-2.41448e-006,-0.00110333
,,,-2.41428e-006,0.00106733
,,,-2.41408e-006,-0.00297507
,,,-2.41388e-006,-0.00502366
,,,-2.41368e-006,0.00127861
,,,-2.41348e-006,0.00288117
,,,-2.41328e-006,-0.00297507
,,,-2.41308e-006,-0.00160882
,,,-2.41288e-006,-0.000629132
,,,-2.41268e-006,-0.00287178
,,,-2.41248e-006,0.000608787
,,,-2.41228e-006,0.00173559
,,,-2.41208e-006,-0.00198599
,,,-2.41188e-006,-0.00336163
,,,-2.41168e-006,-0.0001878
,,,-2.41148e-006,0.00132399
,,,-2.41128e-006,-0.00230838
,,,-2.41108e-006,0.00106733
,,,-2.41088e-006,0.00312375
,,,-2.41068e-006,-0.0067123
,,,-2.41048e-006,-0.00540239
,,,-2.41028e-006,0.00520677
,,,-2.41008e-006,0.00551977
,,,-2.40988e-006,-0.00502366
,,,-2.40968e-006,-0.00974371
,,,-2.40948e-006,-8.13802e-005
,,,-2.40928e-006,0.00891426
,,,-2.40908e-006,0.00132399
,,,-2.40888e-006,-0.00889392
,,,-2.40868e-006,-0.00453225
,,,-2.40848e-006,0.00463398
,,,-2.40828e-006,0.000622872
,,,-2.40808e-006,0.000123635
,,,-2.40788e-006,0.000519581
,,,-2.40768e-006,-0.00804725
,,,-2.40748e-006,-0.00373253
,,,-2.40728e-006,0.00986422
,,,-2.40708e-006,0.000519581
,,,-2.40688e-006,-0.00924917
,,,-2.40668e-006,-0.00373253
,,,-2.40648e-006,0.00405023
,,,-2.40628e-006,0.0047044
,,,-2.40608e-006,-0.00460111
,,,-2.40588e-006,-0.00626628
,,,-2.40568e-006,0.00245706
,,,-2.40548e-006,-0.00103603
,,,-2.40528e-006,-0.000989083
,,,-2.40508e-006,0.00385304
,,,-2.40488e-006,-0.00621776
,,,-2.40468e-006,-0.00905824
,,,-2.40448e-006,0.00754332
,,,-2.40428e-006,0.00329903
,,,-2.40408e-006,-0.0110912
,,,-2.40388e-006,0.00149301
,,,-2.40368e-006,0.00312375
,,,-2.40348e-006,-0.0078078
,,,-2.40328e-006,-0.00198599
,,,-2.40308e-006,0.0047044
,,,-2.40288e-006,-0.0001878
,,,-2.40268e-006,-0.0053977
,,,-2.40248e-006,-0.00409562
,,,-2.40228e-006,0.00246175
,,,-2.40208e-006,0.00370906
,,,-2.40188e-006,-0.00462146
,,,-2.40168e-006,-0.00463241
,,,-2.40148e-006,0.00330529
,,,-2.40128e-006,0.00405336
,,,-2.40108e-006,-0.00462146
,,,-2.40088e-006,-0.00621776
,,,-2.40068e-006,0.00421612
,,,-2.40048e-006,0.00501427
,,,-2.40028e-006,-0.0078078
,,,-2.40008e-006,-0.00583433
,,,-2.39988e-006,0.00862943
,,,-2.39968e-006,-0.000596267
,,,-2.39948e-006,-0.0067123
,,,-2.39928e-006,0.00207989
,,,-2.39908e-006,-0.00103603
,,,-2.39888e-006,-0.00523963
,,,-2.39868e-006,0.00791736
,,,-2.39848e-006,-0.00142415
,,,-2.39828e-006,-0.0125482
,,,-2.39808e-006,0.00501427
,,,-2.39788e-006,0.00611917
,,,-2.39768e-006,-0.00767321
,,,-2.39748e-006,-8.13802e-005
,,,-2.39728e-006,0.000608787
,,,-2.39708e-006,-0.00626628
,,,-2.39688e-006,0.00207989
,,,-2.39668e-006,0.00288117
,,,-2.39648e-006,-0.00417387
,,,-2.39628e-006,0.000622872
,,,-2.39608e-006,-0.00110333
,,,-2.39588e-006,-0.00516921
,,,-2.39568e-006,0.00551977
,,,-2.39548e-006,0.00385304
,,,-2.39528e-006,-0.00540239
,,,-2.39508e-006,-0.00453225
,,,-2.39488e-006,0.00107985
,,,-2.39468e-006,0.00385304
,,,-2.39448e-006,-0.000200321
,,,-2.39428e-006,-0.0068688
,,,-2.39408e-006,-0.00133025
,,,-2.39388e-006,0.00292343
,,,-2.39368e-006,-0.000629132
,,,-2.39348e-006,-0.00210493
,,,-2.39328e-006,0.000608787
,,,-2.39308e-006,-0.000798152
,,,-2.39288e-006,-0.00198599
,,,-2.39268e-006,-0.000364646
,,,-2.39248e-006,-0.000989083
,,,-2.39228e-006,-0.00160882
,,,-2.39208e-006,-0.000629132
,,,-2.39188e-006,-0.00287178
,,,-2.39168e-006,0.00147736
,,,-2.39148e-006,-0.00160882
,,,-2.39128e-006,-0.00621776
,,,-2.39108e-006,0.00560584
,,,-2.39088e-006,0.00672482
,,,-2.39068e-006,-0.0086623
,,,-2.39048e-006,-0.00767321
,,,-2.39028e-006,0.00520677
,,,-2.39008e-006,0.00716928
,,,-2.38988e-006,-0.00287335
,,,-2.38968e-006,-0.00932429
,,,-2.38948e-006,-0.00103603
,,,-2.38928e-006,0.00405336
,,,-2.38908e-006,0.000838842
,,,-2.38888e-006,-0.00198599
,,,-2.38868e-006,-0.00516921
,,,-2.38848e-006,0.000214406
,,,-2.38828e-006,0.00292343
,,,-2.38808e-006,-0.00281075
,,,-2.38788e-006,-0.00103603
,,,-2.38768e-006,0.00147736
,,,-2.38748e-006,-0.00404397
,,,-2.38728e-006,-0.000629132
,,,-2.38708e-006,0.00380296
,,,-2.38688e-006,-0.00297507
,,,-2.38668e-006,-0.00462146
,,,-2.38648e-006,-0.000200321
,,,-2.38628e-006,-0.00103603
,,,-2.38608e-006,0.000608787
,,,-2.38588e-006,-0.00124261
,,,-2.38568e-006,-0.00583433
,,,-2.38548e-006,0.00149301
,,,-2.38528e-006,0.00405336
,,,-2.38508e-006,-0.00462146
,,,-2.38488e-006,-0.00281075
,,,-2.38468e-006,0.000226926
,,,-2.38448e-006,-0.000989083
,,,-2.38428e-006,0.00173559
,,,-2.38408e-006,-0.000629132
,,,-2.38388e-006,-0.00600336
,,,-2.38368e-006,0.000608787
,,,-2.38348e-006,0.00212997
,,,-2.38328e-006,0.000123635
,,,-2.38308e-006,-0.000364646
,,,-2.38288e-006,-0.00499706
,,,-2.38268e-006,-0.00287335
,,,-2.38248e-006,0.00456981
,,,-2.38228e-006,-8.13802e-005
,,,-2.38208e-006,-0.00572009
,,,-2.38188e-006,-0.00124261
,,,-2.38168e-006,-0.00110333
,,,-2.38148e-006,-0.00336163
,,,-2.38128e-006,0.00405336
,,,-2.38108e-006,0.00132399
,,,-2.38088e-006,-0.00767321
,,,-2.38068e-006,-0.00516921
,,,-2.38048e-006,0.00405336
,,,-2.38028e-006,0.00409562
,,,-2.38008e-006,-0.00323643
,,,-2.37988e-006,-0.0068688
,,,-2.37968e-006,0.00107985
,,,-2.37948e-006,0.00132399
,,,-2.37928e-006,-0.000629132
,,,-2.37908e-006,-0.00103603
,,,-2.37888e-006,-0.000596267
,,,-2.37868e-006,5.16451e-005
,,,-2.37848e-006,-0.00281075
,,,-2.37828e-006,-0.00720528
,,,-2.37808e-006,0.00587659
,,,-2.37788e-006,0.00724127
,,,-2.37768e-006,-0.00889392
,,,-2.37748e-006,-0.00979067
,,,-2.37728e-006,0.00312375
,,,-2.37708e-006,0.00576547
,,,-2.37688e-006,0.00277006
,,,-2.37668e-006,-0.00370436
,,,-2.37648e-006,-0.0118486
,,,-2.37628e-006,-0.00124261
,,,-2.37608e-006,0.0127876
,,,-2.37588e-006,0.00185609
,,,-2.37568e-006,-0.0118486
,,,-2.37548e-006,-0.00626628
,,,-2.37528e-006,0.00456981
,,,-2.37508e-006,0.00185609
,,,-2.37488e-006,-0.0001878
,,,-2.37468e-006,-0.00373253
,,,-2.37448e-006,-0.00540239
,,,-2.37428e-006,0.00106733
,,,-2.37408e-006,0.00312375
,,,-2.37388e-006,-0.00462146
,,,-2.37368e-006,-0.00110333
,,,-2.37348e-006,0.00106733
,,,-2.37328e-006,-0.00133025
,,,-2.37308e-006,-0.00246801
,,,-2.37288e-006,-0.000629132
,,,-2.37268e-006,-0.00103603
,,,-2.37248e-006,0.00107985
,,,-2.37228e-006,-0.000433506
,,,-2.37208e-006,-0.00409562
