data/2013_05_10/Capa/C110mVCapa00014.txt

"Record Length",25002,"Points",-2.51011e-006,-0.00889392
"Sample Interval",2e-010,s,-2.50991e-006,0.00246175
"Trigger Point",12550,"Samples",-2.50971e-006,0.00225361
"Trigger Time",0.568143,s,-2.50951e-006,-0.00373253
,,,-2.50931e-006,-0.00230838
"Horizontal Offset",-2.51011e-006,s,-2.50911e-006,-0.000644782
,,,-2.50891e-006,0.00107985
,,,-2.50871e-006,-0.00124261
,,,-2.50851e-006,-0.00230838
,,,-2.50831e-006,-0.00174028
,,,-2.50811e-006,0.00147736
,,,-2.50791e-006,0.00173559
,,,-2.50771e-006,-0.00230838
,,,-2.50751e-006,-0.00638678
,,,-2.50731e-006,0.00147736
,,,-2.50711e-006,0.00611917
,,,-2.50691e-006,-0.00323643
,,,-2.50671e-006,-0.00720528
,,,-2.50651e-006,-0.000596267
,,,-2.50631e-006,0.00258069
,,,-2.50611e-006,-0.00281075
,,,-2.50591e-006,-0.000644782
,,,-2.50571e-006,-0.0001878
,,,-2.50551e-006,-0.00404397
,,,-2.50531e-006,-0.00281075
,,,-2.50511e-006,0.00330529
,,,-2.50491e-006,0.00262138
,,,-2.50471e-006,-0.00246801
,,,-2.50451e-006,-0.00370749
,,,-2.50431e-006,-8.13802e-005
,,,-2.50411e-006,0.00107985
,,,-2.50391e-006,0.00019093
,,,-2.50371e-006,-0.00110333
,,,-2.50351e-006,-0.00174028
,,,-2.50331e-006,-0.00297507
,,,-2.50311e-006,-0.00199382
,,,-2.50291e-006,0.00207989
,,,-2.50271e-006,-0.00103603
,,,-2.50251e-006,-0.00133025
,,,-2.50231e-006,-0.00160882
,,,-2.50211e-006,-0.00230838
,,,-2.50191e-006,-0.000644782
,,,-2.50171e-006,0.00147736
,,,-2.50151e-006,-0.00124261
,,,-2.50131e-006,-0.00198599
,,,-2.50111e-006,-0.00287178
,,,-2.50091e-006,-0.00248836
,,,-2.50071e-006,-0.000433506
,,,-2.50051e-006,0.000123635
,,,-2.50031e-006,0.00185609
,,,-2.50011e-006,-0.00133025
,,,-2.49991e-006,-0.0067123
,,,-2.49971e-006,-0.00110333
,,,-2.49951e-006,0.00520677
,,,-2.49931e-006,0.00107985
,,,-2.49911e-006,-0.00626628
,,,-2.49891e-006,-0.00495324
,,,-2.49871e-006,0.00288117
,,,-2.49851e-006,0.00312375
,,,-2.49831e-006,-0.00462146
,,,-2.49811e-006,-0.00370749
,,,-2.49791e-006,0.00106733
,,,-2.49771e-006,-0.00205955
,,,-2.49751e-006,0.00019093
,,,-2.49731e-006,0.000539926
,,,-2.49711e-006,-0.00336163
,,,-2.49691e-006,-0.00205955
,,,-2.49671e-006,0.00258069
,,,-2.49651e-006,0.000539926
,,,-2.49631e-006,-0.00336163
,,,-2.49611e-006,-0.00417387
,,,-2.49591e-006,0.000838842
,,,-2.49571e-006,0.0061223
,,,-2.49551e-006,-0.0025713
,,,-2.49531e-006,-0.00804725
,,,-2.49511e-006,0.00329903
,,,-2.49491e-006,0.00405023
,,,-2.49471e-006,-0.00287178
,,,-2.49451e-006,-0.00248836
,,,-2.49431e-006,-0.00287335
,,,-2.49411e-006,-0.00198599
,,,-2.49391e-006,0.00288117
,,,-2.49371e-006,-0.000596267
,,,-2.49351e-006,-0.000798152
,,,-2.49331e-006,-0.00110333
,,,-2.49311e-006,-0.00600336
,,,-2.49291e-006,0.000608787
,,,-2.49271e-006,0.0068688
,,,-2.49251e-006,-0.00198599
,,,-2.49231e-006,-0.00767791
,,,-2.49211e-006,-0.000989083
,,,-2.49191e-006,0.00292343
,,,-2.49171e-006,-0.000200321
,,,-2.49151e-006,-0.000644782
,,,-2.49131e-006,-0.00297507
,,,-2.49111e-006,-0.00739308
,,,-2.49091e-006,0.00245706
,,,-2.49071e-006,0.00560584
,,,-2.49051e-006,-0.00499706
,,,-2.49031e-006,-0.00502366
,,,-2.49011e-006,0.00277006
,,,-2.48991e-006,-0.000644782
,,,-2.48971e-006,-0.00248836
,,,-2.48951e-006,0.00019093
,,,-2.48931e-006,0.00127861
,,,-2.48911e-006,-0.0041457
,,,-2.48891e-006,-0.00364646
,,,-2.48871e-006,0.00212997
,,,-2.48851e-006,0.000976563
,,,-2.48831e-006,-0.0041457
,,,-2.48811e-006,0.000214406
,,,-2.48791e-006,0.000838842
,,,-2.48771e-006,-0.00495324
,,,-2.48751e-006,-0.000644782
,,,-2.48731e-006,0.00312375
,,,-2.48711e-006,-0.00246801
,,,-2.48691e-006,-0.00230838
,,,-2.48671e-006,-0.00174028
,,,-2.48651e-006,-0.00205955
,,,-2.48631e-006,0.00132399
,,,-2.48611e-006,0.00207989
,,,-2.48591e-006,-0.00453225
,,,-2.48571e-006,-0.00417387
,,,-2.48551e-006,-0.00199382
,,,-2.48531e-006,0.00277006
,,,-2.48511e-006,0.00380296
,,,-2.48491e-006,-0.00335224
,,,-2.48471e-006,-0.0053977
,,,-2.48451e-006,-0.000629132
,,,-2.48431e-006,0.000519581
,,,-2.48411e-006,0.00463398
,,,-2.48391e-006,0.00019093
,,,-2.48371e-006,-0.00974371
,,,-2.48351e-006,-0.00210493
,,,-2.48331e-006,0.00672482
,,,-2.48311e-006,-0.00404397
,,,-2.48291e-006,-0.00323643
,,,-2.48271e-006,0.00288117
,,,-2.48251e-006,-0.00804725
,,,-2.48231e-006,-0.00373253
,,,-2.48211e-006,0.00986422
,,,-2.48191e-006,-0.0025713
,,,-2.48171e-006,-0.00924917
,,,-2.48151e-006,0.00212997
,,,-2.48131e-006,0.00320356
,,,-2.48111e-006,-0.00287178
,,,-2.48091e-006,-0.0001878
,,,-2.48071e-006,-0.00246801
,,,-2.48051e-006,-0.00198599
,,,-2.48031e-006,0.000519581
,,,-2.48011e-006,-0.000989083
,,,-2.47991e-006,-0.00124261
,,,-2.47971e-006,-0.00230838
,,,-2.47951e-006,-0.0041457
,,,-2.47931e-006,0.00370906
,,,-2.47911e-006,0.00173559
,,,-2.47891e-006,-0.00370749
,,,-2.47871e-006,-0.00174028
,,,-2.47851e-006,-0.00176376
,,,-2.47831e-006,-0.00124261
,,,-2.47811e-006,0.00245706
,,,-2.47791e-006,-0.00370436
,,,-2.47771e-006,-0.00417387
,,,-2.47751e-006,0.00132399
,,,-2.47731e-006,-0.00230838
,,,-2.47711e-006,-0.00174028
,,,-2.47691e-006,0.00225361
,,,-2.47671e-006,-0.00373253
,,,-2.47651e-006,-0.00370749
,,,-2.47631e-006,0.00149301
,,,-2.47611e-006,0.000608787
,,,-2.47591e-006,-0.00502366
,,,-2.47571e-006,-0.00142415
,,,-2.47551e-006,0.00185609
,,,-2.47531e-006,0.000608787
,,,-2.47511e-006,-0.00373253
,,,-2.47491e-006,-0.00281075
,,,-2.47471e-006,0.000519581
,,,-2.47451e-006,0.00147736
,,,-2.47431e-006,-0.000798152
,,,-2.47411e-006,-0.00621776
,,,-2.47391e-006,-0.00453225
,,,-2.47371e-006,0.00312375
,,,-2.47351e-006,0.000838842
,,,-2.47331e-006,-0.00281075
,,,-2.47311e-006,-0.00174028
,,,-2.47291e-006,-0.0001878
,,,-2.47271e-006,-0.00626628
,,,-2.47251e-006,0.00127861
,,,-2.47231e-006,0.00560584
,,,-2.47211e-006,-0.00248836
,,,-2.47191e-006,-0.0078078
,,,-2.47171e-006,0.00176845
,,,-2.47151e-006,0.000226926
,,,-2.47131e-006,-0.00176376
,,,-2.47111e-006,0.00292343
,,,-2.47091e-006,-0.00370749
,,,-2.47071e-006,-0.00811298
,,,-2.47051e-006,0.00199069
,,,-2.47031e-006,0.00292343
,,,-2.47011e-006,-0.00198599
,,,-2.46991e-006,-0.0012567
,,,-2.46971e-006,-0.00176376
,,,-2.46951e-006,-0.00626628
,,,-2.46931e-006,0.00127861
,,,-2.46911e-006,0.0047044
,,,-2.46891e-006,-0.00297507
,,,-2.46871e-006,-0.00462146
,,,-2.46851e-006,-0.00281075
,,,-2.46831e-006,-0.0041457
,,,-2.46811e-006,0.00463398
,,,-2.46791e-006,0.00611917
,,,-2.46771e-006,-0.0102555
,,,-2.46751e-006,-0.00861065
,,,-2.46731e-006,0.00587659
,,,-2.46711e-006,0.00409562
,,,-2.46691e-006,-0.00110333
,,,-2.46671e-006,-0.00453225
,,,-2.46651e-006,-0.0072757
,,,-2.46631e-006,0.00173559
,,,-2.46611e-006,0.00842755
,,,-2.46591e-006,-0.00336163
,,,-2.46571e-006,-0.011459
,,,-2.46551e-006,0.00132399
,,,-2.46531e-006,0.0061223
,,,-2.46511e-006,-0.00103603
,,,-2.46491e-006,-0.00499706
,,,-2.46471e-006,-0.00462146
,,,-2.46451e-006,0.000976563
,,,-2.46431e-006,0.00288117
,,,-2.46411e-006,-0.000989083
,,,-2.46391e-006,-0.0053977
,,,-2.46371e-006,-0.00495324
,,,-2.46351e-006,0.00246175
,,,-2.46331e-006,0.00501427
,,,-2.46311e-006,-0.0067123
,,,-2.46291e-006,-0.00540239
,,,-2.46271e-006,0.00600179
,,,-2.46251e-006,-0.00176376
,,,-2.46231e-006,-0.00404397
,,,-2.46211e-006,0.00501897
,,,-2.46191e-006,-0.0041457
,,,-2.46171e-006,-0.0060863
,,,-2.46151e-006,0.00329903
,,,-2.46131e-006,-0.000200321
,,,-2.46111e-006,-0.00287178
,,,-2.46091e-006,0.000214406
,,,-2.46071e-006,-0.00462146
,,,-2.46051e-006,-0.00409562
,,,-2.46031e-006,0.00520677
,,,-2.46011e-006,0.00312375
,,,-2.45991e-006,-0.00708947
,,,-2.45971e-006,-0.00540239
,,,-2.45951e-006,0.00185609
,,,-2.45931e-006,0.00370906
,,,-2.45911e-006,-0.000433506
,,,-2.45891e-006,-0.00583433
,,,-2.45871e-006,-0.00516921
,,,-2.45851e-006,0.00405336
,,,-2.45831e-006,0.00329903
,,,-2.45811e-006,-0.00495324
,,,-2.45791e-006,-0.00336163
,,,-2.45771e-006,0.00107985
,,,-2.45751e-006,-0.00160882
,,,-2.45731e-006,0.000539926
,,,-2.45711e-006,-0.00174028
,,,-2.45691e-006,-0.00364646
,,,-2.45671e-006,0.00329903
,,,-2.45651e-006,-0.00370749
,,,-2.45631e-006,-0.00905824
,,,-2.45611e-006,0.00636174
,,,-2.45591e-006,0.00459642
,,,-2.45571e-006,-0.00974371
,,,-2.45551e-006,-0.0041457
,,,-2.45531e-006,0.00262138
,,,-2.45511e-006,-0.00124261
,,,-2.45491e-006,0.000539926
,,,-2.45471e-006,0.000226926
,,,-2.45451e-006,-0.00804725
,,,-2.45431e-006,-0.00199382
,,,-2.45411e-006,0.00664501
,,,-2.45391e-006,-0.00174028
,,,-2.45371e-006,-0.00364646
,,,-2.45351e-006,-0.000798152
,,,-2.45331e-006,-0.00621776
,,,-2.45311e-006,0.000519581
,,,-2.45291e-006,0.00716928
,,,-2.45271e-006,-0.00502366
,,,-2.45251e-006,-0.00932429
,,,-2.45231e-006,0.00149301
,,,-2.45211e-006,0.00312375
,,,-2.45191e-006,-0.000433506
,,,-2.45171e-006,-0.00198599
,,,-2.45151e-006,-0.00600336
,,,-2.45131e-006,-0.00335224
,,,-2.45111e-006,0.00576547
,,,-2.45091e-006,0.000539926
,,,-2.45071e-006,-0.00638678
,,,-2.45051e-006,-0.00176376
,,,-2.45031e-006,-0.00124261
,,,-2.45011e-006,-0.000629132
,,,-2.44991e-006,0.000226926
,,,-2.44971e-006,-0.00297507
,,,-2.44951e-006,-0.000433506
,,,-2.44931e-006,0.00127861
,,,-2.44911e-006,-0.00638678
,,,-2.44891e-006,-0.00205955
,,,-2.44871e-006,0.0068688
,,,-2.44851e-006,0.00176845
,,,-2.44831e-006,-0.00600336
,,,-2.44811e-006,-0.00839625
,,,-2.44791e-006,0.00132399
,,,-2.44771e-006,0.012423
,,,-2.44751e-006,0.000226926
,,,-2.44731e-006,-0.0138565
,,,-2.44711e-006,-0.00287335
,,,-2.44691e-006,0.00697366
,,,-2.44671e-006,-8.13802e-005
,,,-2.44651e-006,-0.00133025
,,,-2.44631e-006,0.00019093
,,,-2.44611e-006,-0.00889392
,,,-2.44591e-006,-0.00516921
,,,-2.44571e-006,0.0116389
,,,-2.44551e-006,0.00329903
,,,-2.44531e-006,-0.0119926
,,,-2.44511e-006,-0.0068688
,,,-2.44491e-006,0.00463398
,,,-2.44471e-006,0.00611917
,,,-2.44451e-006,-0.00281075
,,,-2.44431e-006,-0.00720528
,,,-2.44411e-006,-0.00364646
,,,-2.44391e-006,0.00019093
,,,-2.44371e-006,0.00538831
,,,-2.44351e-006,0.00185609
,,,-2.44331e-006,-0.00893148
,,,-2.44311e-006,-0.00462146
,,,-2.44291e-006,0.00585938
,,,-2.44271e-006,0.00185609
,,,-2.44251e-006,-0.00460111
,,,-2.44231e-006,-0.00246801
,,,-2.44211e-006,0.00127861
,,,-2.44191e-006,-0.00174028
,,,-2.44171e-006,-0.000989083
,,,-2.44151e-006,-0.000798152
,,,-2.44131e-006,-0.000629132
,,,-2.44111e-006,0.000226926
,,,-2.44091e-006,-0.0001878
,,,-2.44071e-006,-0.00502366
,,,-2.44051e-006,0.000539926
,,,-2.44031e-006,0.00246175
,,,-2.44011e-006,-0.00248836
,,,-2.43991e-006,-0.00160882
,,,-2.43971e-006,0.000539926
,,,-2.43951e-006,-0.00516921
,,,-2.43931e-006,-0.00133025
,,,-2.43911e-006,0.00576547
,,,-2.43891e-006,-0.00110333
,,,-2.43871e-006,-0.00767791
,,,-2.43851e-006,-0.00205955
,,,-2.43831e-006,0.00329903
,,,-2.43811e-006,0.00127861
,,,-2.43791e-006,-0.00516921
,,,-2.43771e-006,-0.000596267
,,,-2.43751e-006,0.00212997
,,,-2.43731e-006,-0.00495324
,,,-2.43711e-006,-0.00336163
,,,-2.43691e-006,0.00754332
,,,-2.43671e-006,-0.000433506
,,,-2.43651e-006,-0.0106389
,,,-2.43631e-006,-0.00103603
,,,-2.43611e-006,0.00501427
,,,-2.43591e-006,-0.00199382
,,,-2.43571e-006,-0.00540239
,,,-2.43551e-006,0.00380296
,,,-2.43531e-006,0.000608787
,,,-2.43511e-006,-0.00933838
,,,-2.43491e-006,-0.000200321
,,,-2.43471e-006,0.00770921
,,,-2.43451e-006,-0.00460111
,,,-2.43431e-006,-0.00584372
,,,-2.43411e-006,0.00277006
,,,-2.43391e-006,-0.00638678
,,,-2.43371e-006,-0.00176376
,,,-2.43351e-006,0.00972024
,,,-2.43331e-006,-0.00230838
,,,-2.43311e-006,-0.0136985
,,,-2.43291e-006,-0.00133025
,,,-2.43271e-006,0.00791736
,,,-2.43251e-006,0.00277006
,,,-2.43231e-006,-0.0041457
,,,-2.43211e-006,-0.00650885
,,,-2.43191e-006,-0.00199382
,,,-2.43171e-006,0.00320356
,,,-2.43151e-006,0.000519581
,,,-2.43131e-006,-0.00205955
,,,-2.43111e-006,-0.00584372
,,,-2.43091e-006,-0.00370749
,,,-2.43071e-006,0.00380296
,,,-2.43051e-006,0.00312375
,,,-2.43031e-006,-0.00626628
,,,-2.43011e-006,-0.00495324
,,,-2.42991e-006,0.00380296
,,,-2.42971e-006,0.00262138
,,,-2.42951e-006,-0.00584372
,,,-2.42931e-006,-0.00281075
,,,-2.42911e-006,0.00288117
,,,-2.42891e-006,0.000214406
,,,-2.42871e-006,-0.00124261
,,,-2.42851e-006,-0.00230838
,,,-2.42831e-006,-0.00336163
,,,-2.42811e-006,0.00405336
,,,-2.42791e-006,0.00409562
,,,-2.42771e-006,-0.0084072
,,,-2.42751e-006,-0.0041457
,,,-2.42731e-006,0.00463398
,,,-2.42711e-006,-0.00124261
,,,-2.42691e-006,-0.00198599
,,,-2.42671e-006,0.000519581
,,,-2.42651e-006,-0.00297507
,,,-2.42631e-006,-0.00124261
,,,-2.42611e-006,0.00320356
,,,-2.42591e-006,-0.00336163
,,,-2.42571e-006,-0.00297507
,,,-2.42551e-006,0.00258069
,,,-2.42531e-006,-0.00281075
,,,-2.42511e-006,-0.00453225
,,,-2.42491e-006,0.00405336
,,,-2.42471e-006,-0.00124261
,,,-2.42451e-006,-0.00583433
,,,-2.42431e-006,0.00288117
,,,-2.42411e-006,0.00147736
,,,-2.42391e-006,-0.00887357
,,,-2.42371e-006,0.00245706
,,,-2.42351e-006,0.0090066
,,,-2.42331e-006,-0.00572009
,,,-2.42311e-006,-0.00820375
,,,-2.42291e-006,0.00320356
,,,-2.42271e-006,0.00185609
,,,-2.42251e-006,0.000608787
,,,-2.42231e-006,0.00173559
,,,-2.42211e-006,-0.00540239
,,,-2.42191e-006,-0.00516921
,,,-2.42171e-006,0.00501427
,,,-2.42151e-006,0.00459642
,,,-2.42131e-006,-0.00281075
,,,-2.42111e-006,-0.0068688
,,,-2.42091e-006,-0.00417387
,,,-2.42071e-006,0.00258069
,,,-2.42051e-006,0.00456981
,,,-2.42031e-006,-0.00103603
,,,-2.42011e-006,-0.00650885
,,,-2.41991e-006,-0.00373253
,,,-2.41971e-006,0.00176845
,,,-2.41951e-006,0.00185609
,,,-2.41931e-006,-0.000989083
,,,-2.41911e-006,-0.00287335
,,,-2.41891e-006,-0.00198599
,,,-2.41871e-006,0.0047044
,,,-2.41851e-006,0.00199069
,,,-2.41831e-006,-0.0067123
,,,-2.41811e-006,-0.00230838
,,,-2.41791e-006,0.00600179
,,,-2.41771e-006,-0.000596267
,,,-2.41751e-006,-0.00404397
,,,-2.41731e-006,-0.000629132
,,,-2.41711e-006,-0.0041457
,,,-2.41691e-006,0.00107985
,,,-2.41671e-006,0.0068688
,,,-2.41651e-006,-0.00463241
,,,-2.41631e-006,-0.0112805
,,,-2.41611e-006,0.000608787
,,,-2.41591e-006,0.00545717
,,,-2.41571e-006,0.00127861
,,,-2.41551e-006,-0.0025713
,,,-2.41531e-006,-0.00683907
,,,-2.41511e-006,-0.00287335
,,,-2.41491e-006,0.00207989
,,,-2.41471e-006,0.00246175
,,,-2.41451e-006,0.00262138
,,,-2.41431e-006,-0.0067123
,,,-2.41411e-006,-0.00799874
,,,-2.41391e-006,0.0047044
,,,-2.41371e-006,0.00551977
,,,-2.41351e-006,-0.00287335
,,,-2.41331e-006,-0.00370749
,,,-2.41311e-006,-0.00370436
,,,-2.41291e-006,0.000214406
,,,-2.41271e-006,0.00258069
,,,-2.41251e-006,0.00127861
,,,-2.41231e-006,-0.00336163
,,,-2.41211e-006,-0.00417387
,,,-2.41191e-006,0.00019093
,,,-2.41171e-006,0.00207989
,,,-2.41151e-006,-0.000644782
,,,-2.41131e-006,-0.0001878
,,,-2.41111e-006,0.000838842
,,,-2.41091e-006,-0.00323643
,,,-2.41071e-006,-0.00600336
,,,-2.41051e-006,0.00199069
,,,-2.41031e-006,0.0068688
,,,-2.41011e-006,-0.00409562
,,,-2.40991e-006,-0.00938846
,,,-2.40971e-006,-0.000989083
,,,-2.40951e-006,0.00545717
,,,-2.40931e-006,0.00320356
,,,-2.40911e-006,-0.00453225
,,,-2.40891e-006,-0.0072757
,,,-2.40871e-006,0.00019093
,,,-2.40851e-006,0.0061223
,,,-2.40831e-006,0.000519581
,,,-2.40811e-006,-0.00499706
,,,-2.40791e-006,-0.00584372
,,,-2.40771e-006,-0.00198599
,,,-2.40751e-006,0.0047044
,,,-2.40731e-006,0.00716928
,,,-2.40711e-006,-0.00584372
,,,-2.40691e-006,-0.0158989
,,,-2.40671e-006,0.00330529
,,,-2.40651e-006,0.0155655
,,,-2.40631e-006,-0.00626628
,,,-2.40611e-006,-0.0151555
,,,-2.40591e-006,0.000519581
,,,-2.40571e-006,0.00993778
,,,-2.40551e-006,-0.000433506
,,,-2.40531e-006,-0.00799874
,,,-2.40511e-006,-0.00551977
,,,-2.40491e-006,0.00405336
,,,-2.40471e-006,0.00292343
,,,-2.40451e-006,-0.00323643
,,,-2.40431e-006,-0.00370436
,,,-2.40411e-006,-0.000989083
,,,-2.40391e-006,0.00019093
,,,-2.40371e-006,0.000539926
,,,-2.40351e-006,-0.0012567
,,,-2.40331e-006,-0.00248836
,,,-2.40311e-006,-0.00199382
,,,-2.40291e-006,0.00127861
,,,-2.40271e-006,0.000519581
,,,-2.40251e-006,-0.00335224
,,,-2.40231e-006,-0.00246801
,,,-2.40211e-006,0.000539926
,,,-2.40191e-006,-0.000644782
,,,-2.40171e-006,0.000608787
,,,-2.40151e-006,-0.00246801
,,,-2.40131e-006,-0.00540239
,,,-2.40111e-006,0.00288117
,,,-2.40091e-006,0.00405336
,,,-2.40071e-006,-0.00584372
,,,-2.40051e-006,-0.00495324
,,,-2.40031e-006,0.00185609
,,,-2.40011e-006,0.00312375
,,,-2.39991e-006,-0.00246801
,,,-2.39971e-006,-0.00725536
,,,-2.39951e-006,0.00106733
,,,-2.39931e-006,0.00312375
,,,-2.39911e-006,-0.0053977
,,,-2.39891e-006,-0.000629132
,,,-2.39871e-006,0.00520677
,,,-2.39851e-006,-0.00523963
,,,-2.39831e-006,-0.00462146
,,,-2.39811e-006,0.00405023
,,,-2.39791e-006,0.000519581
,,,-2.39771e-006,-0.00248836
,,,-2.39751e-006,-0.000798152
,,,-2.39731e-006,-0.00198599
,,,-2.39711e-006,-0.00210493
,,,-2.39691e-006,0.00199069
,,,-2.39671e-006,0.00292343
,,,-2.39651e-006,-0.00281075
,,,-2.39631e-006,-0.0068688
,,,-2.39611e-006,-0.0001878
,,,-2.39591e-006,0.00292343
,,,-2.39571e-006,-0.00198599
,,,-2.39551e-006,-0.00287178
,,,-2.39531e-006,0.00147736
,,,-2.39511e-006,-0.00160882
,,,-2.39491e-006,-0.00540239
,,,-2.39471e-006,0.00185609
,,,-2.39451e-006,0.00262138
,,,-2.39431e-006,-0.00462146
,,,-2.39411e-006,-0.000629132
,,,-2.39391e-006,0.00246175
,,,-2.39371e-006,-0.00572009
,,,-2.39351e-006,-0.00287335
,,,-2.39331e-006,0.0061223
,,,-2.39311e-006,-0.000364646
,,,-2.39291e-006,-0.00460111
,,,-2.39271e-006,-0.00373253
,,,-2.39251e-006,0.000976563
,,,-2.39231e-006,0.000519581
,,,-2.39211e-006,0.00501427
,,,-2.39191e-006,-0.000433506
,,,-2.39171e-006,-0.011448
,,,-2.39151e-006,-8.13802e-005
,,,-2.39131e-006,0.0104088
,,,-2.39111e-006,-0.00246801
,,,-2.39091e-006,-0.00409562
,,,-2.39071e-006,-0.000364646
,,,-2.39051e-006,-0.00417387
,,,-2.39031e-006,0.000838842
,,,-2.39011e-006,0.00405023
,,,-2.38991e-006,-0.00336163
,,,-2.38971e-006,-0.00297507
,,,-2.38951e-006,-0.00246801
,,,-2.38931e-006,0.000976563
,,,-2.38911e-006,0.0047044
,,,-2.38891e-006,-0.00499706
,,,-2.38871e-006,-0.0067123
,,,-2.38851e-006,0.00697366
,,,-2.38831e-006,0.00246175
,,,-2.38811e-006,-0.00650885
,,,-2.38791e-006,-0.000798152
,,,-2.38771e-006,0.000123635
,,,-2.38751e-006,-0.000644782
,,,-2.38731e-006,0.00262138
,,,-2.38711e-006,-0.00462146
,,,-2.38691e-006,-0.00583433
,,,-2.38671e-006,0.00330529
,,,-2.38651e-006,0.00107985
,,,-2.38631e-006,-0.00124261
,,,-2.38611e-006,0.00127861
,,,-2.38591e-006,-0.00600336
,,,-2.38571e-006,-0.00417387
,,,-2.38551e-006,0.0075574
,,,-2.38531e-006,0.00207989
,,,-2.38511e-006,-0.00905824
,,,-2.38491e-006,-0.00248836
,,,-2.38471e-006,0.00019093
,,,-2.38451e-006,0.000539926
,,,-2.38431e-006,0.00185609
,,,-2.38411e-006,-0.00205955
,,,-2.38391e-006,-0.0067123
,,,-2.38371e-006,-0.00110333
,,,-2.38351e-006,0.00330529
,,,-2.38331e-006,-0.00176376
,,,-2.38311e-006,-0.00124261
,,,-2.38291e-006,-0.00198599
,,,-2.38271e-006,-0.0041457
,,,-2.38251e-006,0.000214406
,,,-2.38231e-006,0.00292343
,,,-2.38211e-006,-0.00142415
,,,-2.38191e-006,-0.00210493
,,,-2.38171e-006,-0.000596267
,,,-2.38151e-006,-0.00160882
,,,-2.38131e-006,-0.00198599
,,,-2.38111e-006,0.0047044
,,,-2.38091e-006,0.000608787
,,,-2.38071e-006,-0.00968111
,,,-2.38051e-006,0.000976563
,,,-2.38031e-006,0.00600179
,,,-2.38011e-006,-0.00460111
,,,-2.37991e-006,-0.000433506
,,,-2.37971e-006,0.00207989
,,,-2.37951e-006,-0.00811298
,,,-2.37931e-006,-0.00248836
,,,-2.37911e-006,0.00791736
,,,-2.37891e-006,0.000123635
,,,-2.37871e-006,-0.00767791
,,,-2.37851e-006,-0.00460111
,,,-2.37831e-006,0.00212997
,,,-2.37811e-006,0.00245706
,,,-2.37791e-006,0.000519581
,,,-2.37771e-006,-0.00335224
,,,-2.37751e-006,-0.00626628
,,,-2.37731e-006,0.00320356
,,,-2.37711e-006,0.00560584
,,,-2.37691e-006,-0.0060863
,,,-2.37671e-006,-0.00404397
,,,-2.37651e-006,0.00538831
,,,-2.37631e-006,-0.0025713
,,,-2.37611e-006,-0.0060863
,,,-2.37591e-006,0.00576547
,,,-2.37571e-006,0.00277006
,,,-2.37551e-006,-0.00811298
,,,-2.37531e-006,-0.00248836
,,,-2.37511e-006,0.00292343
,,,-2.37491e-006,0.000123635
,,,-2.37471e-006,0.000519581
,,,-2.37451e-006,-0.00364646
,,,-2.37431e-006,-0.00502366
,,,-2.37411e-006,0.00585938
,,,-2.37391e-006,0.00106733
,,,-2.37371e-006,-0.00499706
,,,-2.37351e-006,-0.000433506
,,,-2.37331e-006,0.000539926
,,,-2.37311e-006,-0.0025713
,,,-2.37291e-006,0.00199069
,,,-2.37271e-006,0.000838842
,,,-2.37251e-006,-0.00583433
,,,-2.37231e-006,-0.0041457
,,,-2.37211e-006,0.00463398
,,,-2.37191e-006,0.00545717
,,,-2.37171e-006,-0.00198599
