data/2013_03_25/calib_board/C2pdboard200mV00021.txt

"Record Length",25001,"Points",-2.51009e-006,-0.897964
"Sample Interval",2e-010,s,-2.50989e-006,-0.898352
"Trigger Point",12550,"Samples",-2.50969e-006,-0.89924
"Trigger Time",0.427794,s,-2.50949e-006,-0.903901
,,,-2.50929e-006,-0.92002
"Horizontal Offset",-2.51009e-006,s,-2.50909e-006,-0.936333
,,,-2.50889e-006,-0.937664
,,,-2.50869e-006,-0.927677
,,,-2.50849e-006,-0.927316
,,,-2.50829e-006,-0.925707
,,,-2.50809e-006,-0.930285
,,,-2.50789e-006,-0.941548
,,,-2.50769e-006,-0.933198
,,,-2.50749e-006,-0.936333
,,,-2.50729e-006,-0.937664
,,,-2.50709e-006,-0.932809
,,,-2.50689e-006,-0.92002
,,,-2.50669e-006,-0.907063
,,,-2.50649e-006,-0.905399
,,,-2.50629e-006,-0.898491
,,,-2.50609e-006,-0.897964
,,,-2.50589e-006,-0.891222
,,,-2.50569e-006,-0.87932
,,,-2.50549e-006,-0.876546
,,,-2.50529e-006,-0.867446
,,,-2.50509e-006,-0.870248
,,,-2.50489e-006,-0.846389
,,,-2.50469e-006,-0.840924
,,,-2.50449e-006,-0.857958
,,,-2.50429e-006,-0.848165
,,,-2.50409e-006,-0.846389
,,,-2.50389e-006,-0.814318
,,,-2.50369e-006,-0.831297
,,,-2.50349e-006,-0.811849
,,,-2.50329e-006,-0.804774
,,,-2.50309e-006,-0.799974
,,,-2.50289e-006,-0.818091
,,,-2.50269e-006,-0.795868
,,,-2.50249e-006,-0.813985
,,,-2.50229e-006,-0.792733
,,,-2.50209e-006,-0.789293
,,,-2.50189e-006,-0.803637
,,,-2.50169e-006,-0.797256
,,,-2.50149e-006,-0.799974
,,,-2.50129e-006,-0.773979
,,,-2.50109e-006,-0.780637
,,,-2.50089e-006,-0.782385
,,,-2.50069e-006,-0.792733
,,,-2.50049e-006,-0.789293
,,,-2.50029e-006,-0.786297
,,,-2.50009e-006,-0.789349
,,,-2.49989e-006,-0.784882
,,,-2.49969e-006,-0.773979
,,,-2.49949e-006,-0.77606
,,,-2.49929e-006,-0.782385
,,,-2.49909e-006,-0.776615
,,,-2.49889e-006,-0.781747
,,,-2.49869e-006,-0.76094
,,,-2.49849e-006,-0.774922
,,,-2.49829e-006,-0.776615
,,,-2.49809e-006,-0.789293
,,,-2.49789e-006,-0.780637
,,,-2.49769e-006,-0.774922
,,,-2.49749e-006,-0.792733
,,,-2.49729e-006,-0.789293
,,,-2.49709e-006,-0.780637
,,,-2.49689e-006,-0.789349
,,,-2.49669e-006,-0.792733
,,,-2.49649e-006,-0.789293
,,,-2.49629e-006,-0.803637
,,,-2.49609e-006,-0.804774
,,,-2.49589e-006,-0.806244
,,,-2.49569e-006,-0.818091
,,,-2.49549e-006,-0.811849
,,,-2.49529e-006,-0.827163
,,,-2.49509e-006,-0.814318
,,,-2.49489e-006,-0.831297
,,,-2.49469e-006,-0.826303
,,,-2.49449e-006,-0.840313
,,,-2.49429e-006,-0.832822
,,,-2.49409e-006,-0.857958
,,,-2.49389e-006,-0.870248
,,,-2.49369e-006,-0.87932
,,,-2.49349e-006,-0.871719
,,,-2.49329e-006,-0.882039
,,,-2.49309e-006,-0.884258
,,,-2.49289e-006,-0.892332
,,,-2.49269e-006,-0.903901
,,,-2.49249e-006,-0.903956
,,,-2.49229e-006,-0.898352
,,,-2.49209e-006,-0.912113
,,,-2.49189e-006,-0.91153
,,,-2.49169e-006,-0.903956
,,,-2.49149e-006,-0.919187
,,,-2.49129e-006,-0.912113
,,,-2.49109e-006,-0.903901
,,,-2.49089e-006,-0.911641
,,,-2.49069e-006,-0.898352
,,,-2.49049e-006,-0.89924
,,,-2.49029e-006,-0.898491
,,,-2.49009e-006,-0.897964
,,,-2.48989e-006,-0.884258
,,,-2.48969e-006,-0.892332
,,,-2.48949e-006,-0.876546
,,,-2.48929e-006,-0.867446
,,,-2.48909e-006,-0.86395
,,,-2.48889e-006,-0.857237
,,,-2.48869e-006,-0.840924
,,,-2.48849e-006,-0.839647
,,,-2.48829e-006,-0.819117
,,,-2.48809e-006,-0.827163
,,,-2.48789e-006,-0.799974
,,,-2.48769e-006,-0.795036
,,,-2.48749e-006,-0.786297
,,,-2.48729e-006,-0.813985
,,,-2.48709e-006,-0.784882
,,,-2.48689e-006,-0.789293
,,,-2.48669e-006,-0.795868
,,,-2.48649e-006,-0.789349
,,,-2.48629e-006,-0.792733
,,,-2.48609e-006,-0.789293
,,,-2.48589e-006,-0.803637
,,,-2.48569e-006,-0.804774
,,,-2.48549e-006,-0.792733
,,,-2.48529e-006,-0.805273
,,,-2.48509e-006,-0.811849
,,,-2.48489e-006,-0.840313
,,,-2.48469e-006,-0.840924
,,,-2.48449e-006,-0.857958
,,,-2.48429e-006,-0.834681
,,,-2.48409e-006,-0.863728
,,,-2.48389e-006,-0.847582
,,,-2.48369e-006,-0.857958
,,,-2.48349e-006,-0.856266
,,,-2.48329e-006,-0.87932
,,,-2.48309e-006,-0.871719
,,,-2.48289e-006,-0.849025
,,,-2.48269e-006,-0.870248
,,,-2.48249e-006,-0.87932
,,,-2.48229e-006,-0.871719
,,,-2.48209e-006,-0.857958
,,,-2.48189e-006,-0.870248
,,,-2.48169e-006,-0.873355
,,,-2.48149e-006,-0.871719
,,,-2.48129e-006,-0.867446
,,,-2.48109e-006,-0.86395
,,,-2.48089e-006,-0.873355
,,,-2.48069e-006,-0.871719
,,,-2.48049e-006,-0.857958
,,,-2.48029e-006,-0.86395
,,,-2.48009e-006,-0.857237
,,,-2.47989e-006,-0.864117
,,,-2.47969e-006,-0.857958
,,,-2.47949e-006,-0.878543
,,,-2.47929e-006,-0.873355
,,,-2.47909e-006,-0.886533
,,,-2.47889e-006,-0.911641
,,,-2.47869e-006,-0.925707
,,,-2.47849e-006,-0.917828
,,,-2.47829e-006,-0.948151
,,,-2.47809e-006,-0.956224
,,,-2.47789e-006,-0.981526
,,,-2.47769e-006,-1.00078
,,,-2.47749e-006,-1.00927
,,,-2.47729e-006,-1.02966
,,,-2.47709e-006,-1.02894
,,,-2.47689e-006,-1.05588
,,,-2.47669e-006,-1.05338
,,,-2.47649e-006,-1.07141
,,,-2.47629e-006,-1.09178
,,,-2.47609e-006,-1.09103
,,,-2.47589e-006,-1.09211
,,,-2.47569e-006,-1.11242
,,,-2.47549e-006,-1.10748
,,,-2.47529e-006,-1.10989
,,,-2.47509e-006,-1.12182
,,,-2.47489e-006,-1.13006
,,,-2.47469e-006,-1.12943
,,,-2.47449e-006,-1.15648
,,,-2.47429e-006,-1.14222
,,,-2.47409e-006,-1.15317
,,,-2.47389e-006,-1.15129
,,,-2.47369e-006,-1.16533
,,,-2.47349e-006,-1.14973
,,,-2.47329e-006,-1.15317
,,,-2.47309e-006,-1.15129
,,,-2.47289e-006,-1.15648
,,,-2.47269e-006,-1.14222
,,,-2.47249e-006,-1.15317
,,,-2.47229e-006,-1.13894
,,,-2.47209e-006,-1.15023
,,,-2.47189e-006,-1.13456
,,,-2.47169e-006,-1.13006
,,,-2.47149e-006,-1.12943
,,,-2.47129e-006,-1.12349
,,,-2.47109e-006,-1.11586
,,,-2.47089e-006,-1.11242
,,,-2.47069e-006,-1.10748
,,,-2.47049e-006,-1.09968
,,,-2.47029e-006,-1.10005
,,,-2.47009e-006,-1.08767
,,,-2.46989e-006,-1.09178
,,,-2.46969e-006,-1.09968
,,,-2.46949e-006,-1.10005
,,,-2.46929e-006,-1.08767
,,,-2.46909e-006,-1.09178
,,,-2.46889e-006,-1.09968
,,,-2.46869e-006,-1.09211
,,,-2.46849e-006,-1.08767
,,,-2.46829e-006,-1.10748
,,,-2.46809e-006,-1.10515
,,,-2.46789e-006,-1.10005
,,,-2.46769e-006,-1.08767
,,,-2.46749e-006,-1.10748
,,,-2.46729e-006,-1.11702
,,,-2.46709e-006,-1.10005
,,,-2.46689e-006,-1.11242
,,,-2.46669e-006,-1.11367
,,,-2.46649e-006,-1.12926
,,,-2.46629e-006,-1.12182
,,,-2.46609e-006,-1.12044
,,,-2.46589e-006,-1.12155
,,,-2.46569e-006,-1.12926
,,,-2.46549e-006,-1.12182
,,,-2.46529e-006,-1.13006
,,,-2.46509e-006,-1.12155
,,,-2.46489e-006,-1.12349
,,,-2.46469e-006,-1.12182
,,,-2.46449e-006,-1.11242
,,,-2.46429e-006,-1.0986
,,,-2.46409e-006,-1.10515
,,,-2.46389e-006,-1.11586
,,,-2.46369e-006,-1.0971
,,,-2.46349e-006,-1.10748
,,,-2.46329e-006,-1.07455
,,,-2.46309e-006,-1.07477
,,,-2.46289e-006,-1.05896
,,,-2.46269e-006,-1.04905
,,,-2.46249e-006,-1.04267
,,,-2.46229e-006,-1.02439
,,,-2.46209e-006,-1.00683
,,,-2.46189e-006,-0.989627
,,,-2.46169e-006,-0.996286
,,,-2.46149e-006,-0.96194
,,,-2.46129e-006,-0.947818
,,,-2.46109e-006,-0.950815
,,,-2.46089e-006,-0.930285
,,,-2.46069e-006,-0.898491
,,,-2.46049e-006,-0.911641
,,,-2.46029e-006,-0.878543
,,,-2.46009e-006,-0.873355
,,,-2.45989e-006,-0.864117
,,,-2.45969e-006,-0.867446
,,,-2.45949e-006,-0.834681
,,,-2.45929e-006,-0.827163
,,,-2.45909e-006,-0.806244
,,,-2.45889e-006,-0.818091
,,,-2.45869e-006,-0.811849
,,,-2.45849e-006,-0.813985
,,,-2.45829e-006,-0.784882
,,,-2.45809e-006,-0.795036
,,,-2.45789e-006,-0.795868
,,,-2.45769e-006,-0.782385
,,,-2.45749e-006,-0.784882
,,,-2.45729e-006,-0.781747
,,,-2.45709e-006,-0.77606
,,,-2.45689e-006,-0.797256
,,,-2.45669e-006,-0.776615
,,,-2.45649e-006,-0.781747
,,,-2.45629e-006,-0.751895
,,,-2.45609e-006,-0.760274
,,,-2.45589e-006,-0.758221
,,,-2.45569e-006,-0.767626
,,,-2.45549e-006,-0.751895
,,,-2.45529e-006,-0.760274
,,,-2.45509e-006,-0.764657
,,,-2.45489e-006,-0.767626
,,,-2.45469e-006,-0.743989
,,,-2.45449e-006,-0.770927
,,,-2.45429e-006,-0.758221
,,,-2.45409e-006,-0.773979
,,,-2.45389e-006,-0.76671
,,,-2.45369e-006,-0.789349
,,,-2.45349e-006,-0.784882
,,,-2.45329e-006,-0.789293
,,,-2.45309e-006,-0.795868
,,,-2.45289e-006,-0.789349
,,,-2.45269e-006,-0.806244
,,,-2.45249e-006,-0.810822
,,,-2.45229e-006,-0.834681
,,,-2.45209e-006,-0.833017
,,,-2.45189e-006,-0.855544
,,,-2.45169e-006,-0.857958
,,,-2.45149e-006,-0.856266
,,,-2.45129e-006,-0.87932
,,,-2.45109e-006,-0.886533
,,,-2.45089e-006,-0.903956
,,,-2.45069e-006,-0.907063
,,,-2.45049e-006,-0.924708
,,,-2.45029e-006,-0.941548
,,,-2.45009e-006,-0.969181
,,,-2.44989e-006,-0.967239
,,,-2.44969e-006,-0.98541
,,,-2.44949e-006,-0.990154
,,,-2.44929e-006,-1.00683
,,,-2.44909e-006,-1.02014
,,,-2.44889e-006,-1.04267
,,,-2.44869e-006,-1.04581
,,,-2.44849e-006,-1.08767
,,,-2.44829e-006,-1.0834
,,,-2.44809e-006,-1.08509
,,,-2.44789e-006,-1.11586
,,,-2.44769e-006,-1.11242
,,,-2.44749e-006,-1.12155
,,,-2.44729e-006,-1.12349
,,,-2.44709e-006,-1.12873
,,,-2.44689e-006,-1.14435
,,,-2.44669e-006,-1.13894
,,,-2.44649e-006,-1.136
,,,-2.44629e-006,-1.14973
,,,-2.44609e-006,-1.15317
,,,-2.44589e-006,-1.14344
,,,-2.44569e-006,-1.15648
,,,-2.44549e-006,-1.13456
,,,-2.44529e-006,-1.17573
,,,-2.44509e-006,-1.1577
,,,-2.44489e-006,-1.15023
,,,-2.44469e-006,-1.15847
,,,-2.44449e-006,-1.16083
,,,-2.44429e-006,-1.15129
,,,-2.44409e-006,-1.16533
,,,-2.44389e-006,-1.17218
,,,-2.44369e-006,-1.16083
,,,-2.44349e-006,-1.16802
,,,-2.44329e-006,-1.17196
,,,-2.44309e-006,-1.17218
,,,-2.44289e-006,-1.17573
,,,-2.44269e-006,-1.17259
,,,-2.44249e-006,-1.16533
,,,-2.44229e-006,-1.15847
,,,-2.44209e-006,-1.16682
,,,-2.44189e-006,-1.1577
,,,-2.44169e-006,-1.16533
,,,-2.44149e-006,-1.15847
,,,-2.44129e-006,-1.15317
,,,-2.44109e-006,-1.14344
,,,-2.44089e-006,-1.15023
,,,-2.44069e-006,-1.14222
,,,-2.44049e-006,-1.13006
,,,-2.44029e-006,-1.13894
,,,-2.44009e-006,-1.12926
,,,-2.43989e-006,-1.12182
,,,-2.43969e-006,-1.12044
,,,-2.43949e-006,-1.11367
,,,-2.43929e-006,-1.10515
,,,-2.43909e-006,-1.11586
,,,-2.43889e-006,-1.11242
,,,-2.43869e-006,-1.0986
,,,-2.43849e-006,-1.09103
,,,-2.43829e-006,-1.07477
,,,-2.43809e-006,-1.08767
,,,-2.43789e-006,-1.07535
,,,-2.43769e-006,-1.07455
,,,-2.43749e-006,-1.08315
,,,-2.43729e-006,-1.08767
,,,-2.43709e-006,-1.06298
,,,-2.43689e-006,-1.07455
,,,-2.43669e-006,-1.07477
,,,-2.43649e-006,-1.05896
,,,-2.43629e-006,-1.06298
,,,-2.43609e-006,-1.06872
,,,-2.43589e-006,-1.06747
,,,-2.43569e-006,-1.06434
,,,-2.43549e-006,-1.04905
,,,-2.43529e-006,-1.04808
,,,-2.43509e-006,-1.04581
,,,-2.43489e-006,-1.04392
,,,-2.43469e-006,-1.03551
,,,-2.43449e-006,-1.04808
,,,-2.43429e-006,-1.04581
,,,-2.43409e-006,-1.04842
,,,-2.43389e-006,-1.03551
,,,-2.43369e-006,-1.025
,,,-2.43349e-006,-1.02439
,,,-2.43329e-006,-1.00683
,,,-2.43309e-006,-1.03551
,,,-2.43289e-006,-1.025
,,,-2.43269e-006,-1.02439
,,,-2.43249e-006,-1.02966
,,,-2.43229e-006,-1.02014
,,,-2.43209e-006,-1.03296
,,,-2.43189e-006,-1.00927
,,,-2.43169e-006,-1.0139
,,,-2.43149e-006,-1.01118
,,,-2.43129e-006,-1.025
,,,-2.43109e-006,-1.00927
,,,-2.43089e-006,-1.02966
,,,-2.43069e-006,-1.01515
,,,-2.43049e-006,-1.04267
,,,-2.43029e-006,-1.03937
,,,-2.43009e-006,-1.05896
,,,-2.42989e-006,-1.04905
,,,-2.42969e-006,-1.08509
,,,-2.42949e-006,-1.08315
,,,-2.42929e-006,-1.0971
,,,-2.42909e-006,-1.09178
,,,-2.42889e-006,-1.11702
,,,-2.42869e-006,-1.12182
,,,-2.42849e-006,-1.13006
,,,-2.42829e-006,-1.13894
,,,-2.42809e-006,-1.15648
,,,-2.42789e-006,-1.16344
,,,-2.42769e-006,-1.19035
,,,-2.42749e-006,-1.17259
,,,-2.42729e-006,-1.18821
,,,-2.42709e-006,-1.19185
,,,-2.42689e-006,-1.19598
,,,-2.42669e-006,-1.19487
,,,-2.42649e-006,-1.19387
,,,-2.42629e-006,-1.19956
,,,-2.42609e-006,-1.20314
,,,-2.42589e-006,-1.19487
,,,-2.42569e-006,-1.19387
,,,-2.42549e-006,-1.20467
,,,-2.42529e-006,-1.20314
,,,-2.42509e-006,-1.17259
,,,-2.42489e-006,-1.18821
,,,-2.42469e-006,-1.17218
,,,-2.42449e-006,-1.19035
,,,-2.42429e-006,-1.17259
,,,-2.42409e-006,-1.17196
,,,-2.42389e-006,-1.15847
,,,-2.42369e-006,-1.16083
,,,-2.42349e-006,-1.16802
,,,-2.42329e-006,-1.17196
,,,-2.42309e-006,-1.17218
,,,-2.42289e-006,-1.17573
,,,-2.42269e-006,-1.17259
,,,-2.42249e-006,-1.20233
,,,-2.42229e-006,-1.17873
,,,-2.42209e-006,-1.19598
,,,-2.42189e-006,-1.18783
,,,-2.42169e-006,-1.21063
,,,-2.42149e-006,-1.19185
,,,-2.42129e-006,-1.19035
,,,-2.42109e-006,-1.19487
,,,-2.42089e-006,-1.22614
,,,-2.42069e-006,-1.21304
,,,-2.42049e-006,-1.22569
,,,-2.42029e-006,-1.22564
,,,-2.42009e-006,-1.22614
,,,-2.41989e-006,-1.21859
,,,-2.41969e-006,-1.23338
,,,-2.41949e-006,-1.22564
,,,-2.41929e-006,-1.21596
,,,-2.41909e-006,-1.21304
,,,-2.41889e-006,-1.23338
,,,-2.41869e-006,-1.24045
,,,-2.41849e-006,-1.23762
,,,-2.41829e-006,-1.22348
,,,-2.41809e-006,-1.23338
,,,-2.41789e-006,-1.24045
,,,-2.41769e-006,-1.23762
,,,-2.41749e-006,-1.25138
,,,-2.41729e-006,-1.246
,,,-2.41709e-006,-1.26057
,,,-2.41689e-006,-1.25918
,,,-2.41669e-006,-1.25138
,,,-2.41649e-006,-1.26209
,,,-2.41629e-006,-1.25086
,,,-2.41609e-006,-1.27253
,,,-2.41589e-006,-1.27924
,,,-2.41569e-006,-1.28143
,,,-2.41549e-006,-1.26817
,,,-2.41529e-006,-1.27253
,,,-2.41509e-006,-1.25138
,,,-2.41489e-006,-1.27655
,,,-2.41469e-006,-1.26817
,,,-2.41449e-006,-1.26773
,,,-2.41429e-006,-1.25738
,,,-2.41409e-006,-1.28143
,,,-2.41389e-006,-1.27602
,,,-2.41369e-006,-1.25205
,,,-2.41349e-006,-1.25738
,,,-2.41329e-006,-1.26209
,,,-2.41309e-006,-1.26057
,,,-2.41289e-006,-1.25205
,,,-2.41269e-006,-1.23663
,,,-2.41249e-006,-1.246
,,,-2.41229e-006,-1.24045
,,,-2.41209e-006,-1.22614
,,,-2.41189e-006,-1.21859
,,,-2.41169e-006,-1.20946
,,,-2.41149e-006,-1.20866
,,,-2.41129e-006,-1.20233
,,,-2.41109e-006,-1.18552
,,,-2.41089e-006,-1.19035
,,,-2.41069e-006,-1.19487
,,,-2.41049e-006,-1.18821
,,,-2.41029e-006,-1.17218
,,,-2.41009e-006,-1.17573
,,,-2.40989e-006,-1.16802
,,,-2.40969e-006,-1.15023
,,,-2.40949e-006,-1.15847
,,,-2.40929e-006,-1.15317
,,,-2.40909e-006,-1.13894
,,,-2.40889e-006,-1.12349
,,,-2.40869e-006,-1.12182
,,,-2.40849e-006,-1.13006
,,,-2.40829e-006,-1.12155
,,,-2.40809e-006,-1.11702
,,,-2.40789e-006,-1.12182
,,,-2.40769e-006,-1.13006
,,,-2.40749e-006,-1.12155
,,,-2.40729e-006,-1.12349
,,,-2.40709e-006,-1.12182
,,,-2.40689e-006,-1.13006
,,,-2.40669e-006,-1.12155
,,,-2.40649e-006,-1.11702
,,,-2.40629e-006,-1.11586
,,,-2.40609e-006,-1.13006
,,,-2.40589e-006,-1.12155
,,,-2.40569e-006,-1.12349
,,,-2.40549e-006,-1.12182
,,,-2.40529e-006,-1.12044
,,,-2.40509e-006,-1.12155
,,,-2.40489e-006,-1.11702
,,,-2.40469e-006,-1.11586
,,,-2.40449e-006,-1.12044
,,,-2.40429e-006,-1.12155
,,,-2.40409e-006,-1.12349
,,,-2.40389e-006,-1.11586
,,,-2.40369e-006,-1.11242
,,,-2.40349e-006,-1.10748
,,,-2.40329e-006,-1.12349
,,,-2.40309e-006,-1.12182
,,,-2.40289e-006,-1.11242
,,,-2.40269e-006,-1.12155
,,,-2.40249e-006,-1.12926
,,,-2.40229e-006,-1.12873
,,,-2.40209e-006,-1.14435
,,,-2.40189e-006,-1.13894
,,,-2.40169e-006,-1.15023
,,,-2.40149e-006,-1.14222
,,,-2.40129e-006,-1.16083
,,,-2.40109e-006,-1.17259
,,,-2.40089e-006,-1.16533
,,,-2.40069e-006,-1.16344
,,,-2.40049e-006,-1.19035
,,,-2.40029e-006,-1.19487
,,,-2.40009e-006,-1.20233
,,,-2.39989e-006,-1.21304
,,,-2.39969e-006,-1.23893
,,,-2.39949e-006,-1.24045
,,,-2.39929e-006,-1.26773
,,,-2.39909e-006,-1.27178
,,,-2.39889e-006,-1.29308
,,,-2.39869e-006,-1.28312
,,,-2.39849e-006,-1.32712
,,,-2.39829e-006,-1.31797
,,,-2.39809e-006,-1.33245
,,,-2.39789e-006,-1.3418
,,,-2.39769e-006,-1.35029
,,,-2.39749e-006,-1.34122
,,,-2.39729e-006,-1.34643
,,,-2.39709e-006,-1.34735
,,,-2.39689e-006,-1.34097
,,,-2.39669e-006,-1.34122
,,,-2.39649e-006,-1.36799
,,,-2.39629e-006,-1.3418
,,,-2.39609e-006,-1.34097
,,,-2.39589e-006,-1.34122
,,,-2.39569e-006,-1.33245
,,,-2.39549e-006,-1.32768
,,,-2.39529e-006,-1.33409
,,,-2.39509e-006,-1.30931
,,,-2.39489e-006,-1.30676
,,,-2.39469e-006,-1.29852
,,,-2.39449e-006,-1.29267
,,,-2.39429e-006,-1.29342
,,,-2.39409e-006,-1.29308
,,,-2.39389e-006,-1.27602
,,,-2.39369e-006,-1.27253
,,,-2.39349e-006,-1.26556
,,,-2.39329e-006,-1.26209
,,,-2.39309e-006,-1.25086
,,,-2.39289e-006,-1.24448
,,,-2.39269e-006,-1.22348
,,,-2.39249e-006,-1.23338
,,,-2.39229e-006,-1.20866
,,,-2.39209e-006,-1.21596
,,,-2.39189e-006,-1.19185
,,,-2.39169e-006,-1.20314
,,,-2.39149e-006,-1.17259
,,,-2.39129e-006,-1.19387
,,,-2.39109e-006,-1.16344
,,,-2.39089e-006,-1.16083
,,,-2.39069e-006,-1.15129
,,,-2.39049e-006,-1.14238
,,,-2.39029e-006,-1.14222
,,,-2.39009e-006,-1.1365
,,,-2.38989e-006,-1.12155
,,,-2.38969e-006,-1.10515
,,,-2.38949e-006,-1.10529
,,,-2.38929e-006,-1.10213
,,,-2.38909e-006,-1.0986
,,,-2.38889e-006,-1.09968
,,,-2.38869e-006,-1.08315
,,,-2.38849e-006,-1.0971
,,,-2.38829e-006,-1.09178
,,,-2.38809e-006,-1.07455
,,,-2.38789e-006,-1.08315
,,,-2.38769e-006,-1.07938
,,,-2.38749e-006,-1.09178
,,,-2.38729e-006,-1.08509
,,,-2.38709e-006,-1.10005
,,,-2.38689e-006,-1.07938
,,,-2.38669e-006,-1.07535
,,,-2.38649e-006,-1.07455
,,,-2.38629e-006,-1.07477
,,,-2.38609e-006,-1.07141
,,,-2.38589e-006,-1.06772
,,,-2.38569e-006,-1.09968
,,,-2.38549e-006,-1.07477
,,,-2.38529e-006,-1.07938
,,,-2.38509e-006,-1.06772
,,,-2.38489e-006,-1.08509
,,,-2.38469e-006,-1.07477
,,,-2.38449e-006,-1.07938
,,,-2.38429e-006,-1.07535
,,,-2.38409e-006,-1.08509
,,,-2.38389e-006,-1.07477
,,,-2.38369e-006,-1.07141
,,,-2.38349e-006,-1.0834
,,,-2.38329e-006,-1.06872
,,,-2.38309e-006,-1.05904
,,,-2.38289e-006,-1.0541
,,,-2.38269e-006,-1.04905
,,,-2.38249e-006,-1.04808
,,,-2.38229e-006,-1.03937
,,,-2.38209e-006,-1.03488
,,,-2.38189e-006,-1.01515
,,,-2.38169e-006,-1.01662
,,,-2.38149e-006,-1.00927
,,,-2.38129e-006,-1.00103
,,,-2.38109e-006,-0.981526
,,,-2.38089e-006,-0.996286
,,,-2.38069e-006,-0.98419
,,,-2.38049e-006,-0.975922
,,,-2.38029e-006,-0.941521
,,,-2.38009e-006,-0.957945
,,,-2.37989e-006,-0.941548
,,,-2.37969e-006,-0.947818
,,,-2.37949e-006,-0.936333
,,,-2.37929e-006,-0.924708
,,,-2.37909e-006,-0.932809
,,,-2.37889e-006,-0.92002
,,,-2.37869e-006,-0.907063
,,,-2.37849e-006,-0.912113
,,,-2.37829e-006,-0.91153
,,,-2.37809e-006,-0.889197
,,,-2.37789e-006,-0.907063
,,,-2.37769e-006,-0.912113
,,,-2.37749e-006,-0.903901
,,,-2.37729e-006,-0.903956
,,,-2.37709e-006,-0.884258
,,,-2.37689e-006,-0.905399
,,,-2.37669e-006,-0.898491
,,,-2.37649e-006,-0.889197
,,,-2.37629e-006,-0.898352
,,,-2.37609e-006,-0.892332
,,,-2.37589e-006,-0.886533
,,,-2.37569e-006,-0.903956
,,,-2.37549e-006,-0.898352
,,,-2.37529e-006,-0.912113
,,,-2.37509e-006,-0.91153
,,,-2.37489e-006,-0.941881
,,,-2.37469e-006,-0.936333
,,,-2.37449e-006,-0.957945
,,,-2.37429e-006,-0.955281
,,,-2.37409e-006,-0.969181
,,,-2.37389e-006,-0.981526
,,,-2.37369e-006,-0.996286
,,,-2.37349e-006,-1.01726
,,,-2.37329e-006,-1.00683
,,,-2.37309e-006,-1.003
,,,-2.37289e-006,-1.00902
,,,-2.37269e-006,-1.03937
,,,-2.37249e-006,-1.04392
,,,-2.37229e-006,-1.03551
,,,-2.37209e-006,-1.04267
,,,-2.37189e-006,-1.04581
,,,-2.37169e-006,-1.05896
,,,-2.37149e-006,-1.04905
,,,-2.37129e-006,-1.04267
,,,-2.37109e-006,-1.03937
,,,-2.37089e-006,-1.05896
,,,-2.37069e-006,-1.04273
,,,-2.37049e-006,-1.06872
,,,-2.37029e-006,-1.04581
,,,-2.37009e-006,-1.0541
,,,-2.36989e-006,-1.04905
,,,-2.36969e-006,-1.06148
,,,-2.36949e-006,-1.05904
,,,-2.36929e-006,-1.04392
,,,-2.36909e-006,-1.04905
,,,-2.36889e-006,-1.05588
,,,-2.36869e-006,-1.03937
,,,-2.36849e-006,-1.06434
,,,-2.36829e-006,-1.04273
,,,-2.36809e-006,-1.04267
,,,-2.36789e-006,-1.03066
,,,-2.36769e-006,-1.03488
,,,-2.36749e-006,-1.03551
,,,-2.36729e-006,-1.04267
,,,-2.36709e-006,-1.02439
,,,-2.36689e-006,-1.02217
,,,-2.36669e-006,-1.02894
,,,-2.36649e-006,-1.025
,,,-2.36629e-006,-1.03066
,,,-2.36609e-006,-1.02217
,,,-2.36589e-006,-1.02894
,,,-2.36569e-006,-1.03296
,,,-2.36549e-006,-1.03066
,,,-2.36529e-006,-1.04392
,,,-2.36509e-006,-1.04273
,,,-2.36489e-006,-1.04808
,,,-2.36469e-006,-1.03937
,,,-2.36449e-006,-1.06434
,,,-2.36429e-006,-1.05557
,,,-2.36409e-006,-1.04808
,,,-2.36389e-006,-1.05904
,,,-2.36369e-006,-1.07938
,,,-2.36349e-006,-1.07535
,,,-2.36329e-006,-1.09103
,,,-2.36309e-006,-1.09211
,,,-2.36289e-006,-1.0971
,,,-2.36269e-006,-1.0986
,,,-2.36249e-006,-1.11702
,,,-2.36229e-006,-1.11586
,,,-2.36209e-006,-1.13006
,,,-2.36189e-006,-1.13894
,,,-2.36169e-006,-1.14238
,,,-2.36149e-006,-1.14973
,,,-2.36129e-006,-1.15317
,,,-2.36109e-006,-1.1577
,,,-2.36089e-006,-1.17196
,,,-2.36069e-006,-1.14973
,,,-2.36049e-006,-1.16682
,,,-2.36029e-006,-1.16802
,,,-2.36009e-006,-1.16533
,,,-2.35989e-006,-1.17218
,,,-2.35969e-006,-1.17573
,,,-2.35949e-006,-1.15129
,,,-2.35929e-006,-1.16533
,,,-2.35909e-006,-1.16344
