data/2013_03_25/calib_board/C2pdboard200mV00012.txt

"Record Length",25001,"Points",-2.51009e-006,-0.862105
"Sample Interval",2e-010,s,-2.50989e-006,-0.872481
"Trigger Point",12550,"Samples",-2.50969e-006,-0.850092
"Trigger Time",0.427794,s,-2.50949e-006,-0.839771
,,,-2.50929e-006,-0.852672
"Horizontal Offset",-2.51009e-006,s,-2.50909e-006,-0.8484
,,,-2.50889e-006,-0.839549
,,,-2.50869e-006,-0.84815
,,,-2.50849e-006,-0.862105
,,,-2.50829e-006,-0.840354
,,,-2.50809e-006,-0.850092
,,,-2.50789e-006,-0.832475
,,,-2.50769e-006,-0.844377
,,,-2.50749e-006,-0.827981
,,,-2.50729e-006,-0.826482
,,,-2.50709e-006,-0.824041
,,,-2.50689e-006,-0.823958
,,,-2.50669e-006,-0.827981
,,,-2.50649e-006,-0.850092
,,,-2.50629e-006,-0.832475
,,,-2.50609e-006,-0.844377
,,,-2.50589e-006,-0.814053
,,,-2.50569e-006,-0.826482
,,,-2.50549e-006,-0.832475
,,,-2.50529e-006,-0.823958
,,,-2.50509e-006,-0.820573
,,,-2.50489e-006,-0.833723
,,,-2.50469e-006,-0.832475
,,,-2.50449e-006,-0.852672
,,,-2.50429e-006,-0.832725
,,,-2.50409e-006,-0.850092
,,,-2.50389e-006,-0.832475
,,,-2.50369e-006,-0.836414
,,,-2.50349e-006,-0.8484
,,,-2.50329e-006,-0.850092
,,,-2.50309e-006,-0.839771
,,,-2.50289e-006,-0.844377
,,,-2.50269e-006,-0.856778
,,,-2.50249e-006,-0.839549
,,,-2.50229e-006,-0.839771
,,,-2.50209e-006,-0.836414
,,,-2.50189e-006,-0.8484
,,,-2.50169e-006,-0.850092
,,,-2.50149e-006,-0.839771
,,,-2.50129e-006,-0.844377
,,,-2.50109e-006,-0.827981
,,,-2.50089e-006,-0.826482
,,,-2.50069e-006,-0.839771
,,,-2.50049e-006,-0.823958
,,,-2.50029e-006,-0.820573
,,,-2.50009e-006,-0.820878
,,,-2.49989e-006,-0.804371
,,,-2.49969e-006,-0.808921
,,,-2.49949e-006,-0.800515
,,,-2.49929e-006,-0.813082
,,,-2.49909e-006,-0.78939
,,,-2.49889e-006,-0.808921
,,,-2.49869e-006,-0.785145
,,,-2.49849e-006,-0.79
,,,-2.49829e-006,-0.78226
,,,-2.49809e-006,-0.78717
,,,-2.49789e-006,-0.780151
,,,-2.49769e-006,-0.781622
,,,-2.49749e-006,-0.78939
,,,-2.49729e-006,-0.76603
,,,-2.49709e-006,-0.762978
,,,-2.49689e-006,-0.761286
,,,-2.49669e-006,-0.755154
,,,-2.49649e-006,-0.740922
,,,-2.49629e-006,-0.738259
,,,-2.49609e-006,-0.744973
,,,-2.49589e-006,-0.740395
,,,-2.49569e-006,-0.740922
,,,-2.49549e-006,-0.732239
,,,-2.49529e-006,-0.728188
,,,-2.49509e-006,-0.72694
,,,-2.49489e-006,-0.726773
,,,-2.49469e-006,-0.715815
,,,-2.49449e-006,-0.715648
,,,-2.49429e-006,-0.734957
,,,-2.49409e-006,-0.726773
,,,-2.49389e-006,-0.724054
,,,-2.49369e-006,-0.722945
,,,-2.49349e-006,-0.740395
,,,-2.49329e-006,-0.726773
,,,-2.49309e-006,-0.732239
,,,-2.49289e-006,-0.736456
,,,-2.49269e-006,-0.740395
,,,-2.49249e-006,-0.740922
,,,-2.49229e-006,-0.738259
,,,-2.49209e-006,-0.761286
,,,-2.49189e-006,-0.760204
,,,-2.49169e-006,-0.757984
,,,-2.49149e-006,-0.768
,,,-2.49129e-006,-0.79
,,,-2.49109e-006,-0.760204
,,,-2.49089e-006,-0.778903
,,,-2.49069e-006,-0.762978
,,,-2.49049e-006,-0.79
,,,-2.49029e-006,-0.77427
,,,-2.49009e-006,-0.778903
,,,-2.48989e-006,-0.800515
,,,-2.48969e-006,-0.813082
,,,-2.48949e-006,-0.79566
,,,-2.48929e-006,-0.813415
,,,-2.48909e-006,-0.807728
,,,-2.48889e-006,-0.807672
,,,-2.48869e-006,-0.79566
,,,-2.48849e-006,-0.819103
,,,-2.48829e-006,-0.814053
,,,-2.48809e-006,-0.807672
,,,-2.48789e-006,-0.818381
,,,-2.48769e-006,-0.819103
,,,-2.48749e-006,-0.827981
,,,-2.48729e-006,-0.839549
,,,-2.48709e-006,-0.824041
,,,-2.48689e-006,-0.836414
,,,-2.48669e-006,-0.8484
,,,-2.48649e-006,-0.839549
,,,-2.48629e-006,-0.857111
,,,-2.48609e-006,-0.862105
,,,-2.48589e-006,-0.856778
,,,-2.48569e-006,-0.864685
,,,-2.48549e-006,-0.865045
,,,-2.48529e-006,-0.877419
,,,-2.48509e-006,-0.863603
,,,-2.48489e-006,-0.882024
,,,-2.48469e-006,-0.865045
,,,-2.48449e-006,-0.885437
,,,-2.48429e-006,-0.886547
,,,-2.48409e-006,-0.907382
,,,-2.48389e-006,-0.893732
,,,-2.48369e-006,-0.895064
,,,-2.48349e-006,-0.916287
,,,-2.48329e-006,-0.921475
,,,-2.48309e-006,-0.923473
,,,-2.48289e-006,-0.940729
,,,-2.48269e-006,-0.945806
,,,-2.48249e-006,-0.953214
,,,-2.48229e-006,-0.943725
,,,-2.48209e-006,-0.960982
,,,-2.48189e-006,-0.97366
,,,-2.48169e-006,-0.967335
,,,-2.48149e-006,-0.983592
,,,-2.48129e-006,-0.99838
,,,-2.48109e-006,-0.990639
,,,-2.48089e-006,-1.00262
,,,-2.48069e-006,-1.01638
,,,-2.48049e-006,-1.0196
,,,-2.48029e-006,-1.02557
,,,-2.48009e-006,-1.02418
,,,-2.47989e-006,-1.02238
,,,-2.47969e-006,-1.03239
,,,-2.47949e-006,-1.03317
,,,-2.47929e-006,-1.02418
,,,-2.47909e-006,-1.04993
,,,-2.47889e-006,-1.04155
,,,-2.47869e-006,-1.04102
,,,-2.47849e-006,-1.04496
,,,-2.47829e-006,-1.04993
,,,-2.47809e-006,-1.03239
,,,-2.47789e-006,-1.04102
,,,-2.47769e-006,-1.04496
,,,-2.47749e-006,-1.04993
,,,-2.47729e-006,-1.06413
,,,-2.47709e-006,-1.05534
,,,-2.47689e-006,-1.0747
,,,-2.47669e-006,-1.06593
,,,-2.47649e-006,-1.07176
,,,-2.47629e-006,-1.08466
,,,-2.47609e-006,-1.09909
,,,-2.47589e-006,-1.12472
,,,-2.47569e-006,-1.1483
,,,-2.47549e-006,-1.16265
,,,-2.47529e-006,-1.16323
,,,-2.47509e-006,-1.18972
,,,-2.47489e-006,-1.19988
,,,-2.47469e-006,-1.20279
,,,-2.47449e-006,-1.21899
,,,-2.47429e-006,-1.21542
,,,-2.47409e-006,-1.22887
,,,-2.47389e-006,-1.2327
,,,-2.47369e-006,-1.23109
,,,-2.47349e-006,-1.23681
,,,-2.47329e-006,-1.25168
,,,-2.47309e-006,-1.2327
,,,-2.47289e-006,-1.23109
,,,-2.47269e-006,-1.22904
,,,-2.47249e-006,-1.21597
,,,-2.47229e-006,-1.21078
,,,-2.47209e-006,-1.21899
,,,-2.47189e-006,-1.21023
,,,-2.47169e-006,-1.19366
,,,-2.47149e-006,-1.18961
,,,-2.47129e-006,-1.18259
,,,-2.47109e-006,-1.16845
,,,-2.47089e-006,-1.16065
,,,-2.47069e-006,-1.14642
,,,-2.47049e-006,-1.15604
,,,-2.47029e-006,-1.14825
,,,-2.47009e-006,-1.14006
,,,-2.46989e-006,-1.13898
,,,-2.46969e-006,-1.11529
,,,-2.46949e-006,-1.11912
,,,-2.46929e-006,-1.11867
,,,-2.46909e-006,-1.11235
,,,-2.46889e-006,-1.12328
,,,-2.46869e-006,-1.13219
,,,-2.46849e-006,-1.1483
,,,-2.46829e-006,-1.12641
,,,-2.46809e-006,-1.13002
,,,-2.46789e-006,-1.11912
,,,-2.46769e-006,-1.11867
,,,-2.46749e-006,-1.11901
,,,-2.46729e-006,-1.12328
,,,-2.46709e-006,-1.11912
,,,-2.46689e-006,-1.12736
,,,-2.46669e-006,-1.1068
,,,-2.46649e-006,-1.11529
,,,-2.46629e-006,-1.09568
,,,-2.46609e-006,-1.11143
,,,-2.46589e-006,-1.1068
,,,-2.46569e-006,-1.09212
,,,-2.46549e-006,-1.08297
,,,-2.46529e-006,-1.07176
,,,-2.46509e-006,-1.08466
,,,-2.46489e-006,-1.0747
,,,-2.46469e-006,-1.07431
,,,-2.46449e-006,-1.08031
,,,-2.46429e-006,-1.06352
,,,-2.46409e-006,-1.0747
,,,-2.46389e-006,-1.06593
,,,-2.46369e-006,-1.05808
,,,-2.46349e-006,-1.05534
,,,-2.46329e-006,-1.06363
,,,-2.46309e-006,-1.05842
,,,-2.46289e-006,-1.07176
,,,-2.46269e-006,-1.04812
,,,-2.46249e-006,-1.06363
,,,-2.46229e-006,-1.04424
,,,-2.46209e-006,-1.08031
,,,-2.46189e-006,-1.03317
,,,-2.46169e-006,-1.04496
,,,-2.46149e-006,-1.02238
,,,-2.46129e-006,-1.04155
,,,-2.46109e-006,-1.02557
,,,-2.46089e-006,-1.03273
,,,-2.46069e-006,-1.02238
,,,-2.46049e-006,-1.02709
,,,-2.46029e-006,-1.01011
,,,-2.46009e-006,-1.01705
,,,-2.45989e-006,-1.00925
,,,-2.45969e-006,-1.011
,,,-2.45949e-006,-1.01011
,,,-2.45929e-006,-1.00948
,,,-2.45909e-006,-1.00925
,,,-2.45889e-006,-1.00393
,,,-2.45869e-006,-0.996438
,,,-2.45849e-006,-1.00948
,,,-2.45829e-006,-0.993968
,,,-2.45809e-006,-1.00393
,,,-2.45789e-006,-1.00545
,,,-2.45769e-006,-1.00262
,,,-2.45749e-006,-1.01638
,,,-2.45729e-006,-1.0196
,,,-2.45709e-006,-0.996438
,,,-2.45689e-006,-1.01705
,,,-2.45669e-006,-1.00163
,,,-2.45649e-006,-1.00393
,,,-2.45629e-006,-0.996438
,,,-2.45609e-006,-0.980957
,,,-2.45589e-006,-0.978044
,,,-2.45569e-006,-0.990695
,,,-2.45549e-006,-0.97366
,,,-2.45529e-006,-0.953214
,,,-2.45509e-006,-0.950522
,,,-2.45489e-006,-0.940729
,,,-2.45469e-006,-0.937594
,,,-2.45449e-006,-0.936956
,,,-2.45429e-006,-0.923473
,,,-2.45409e-006,-0.925831
,,,-2.45389e-006,-0.894426
,,,-2.45369e-006,-0.907382
,,,-2.45349e-006,-0.886824
,,,-2.45329e-006,-0.885437
,,,-2.45309e-006,-0.872481
,,,-2.45289e-006,-0.864685
,,,-2.45269e-006,-0.857111
,,,-2.45249e-006,-0.862105
,,,-2.45229e-006,-0.856778
,,,-2.45209e-006,-0.850092
,,,-2.45189e-006,-0.832475
,,,-2.45169e-006,-0.82934
,,,-2.45149e-006,-0.820573
,,,-2.45129e-006,-0.820878
,,,-2.45109e-006,-0.832475
,,,-2.45089e-006,-0.823958
,,,-2.45069e-006,-0.820573
,,,-2.45049e-006,-0.807672
,,,-2.45029e-006,-0.824041
,,,-2.45009e-006,-0.82934
,,,-2.44989e-006,-0.832725
,,,-2.44969e-006,-0.839549
,,,-2.44949e-006,-0.857111
,,,-2.44929e-006,-0.877419
,,,-2.44909e-006,-0.872481
,,,-2.44889e-006,-0.864685
,,,-2.44869e-006,-0.907215
,,,-2.44849e-006,-0.895064
,,,-2.44829e-006,-0.916287
,,,-2.44809e-006,-0.901001
,,,-2.44789e-006,-0.928439
,,,-2.44769e-006,-0.925831
,,,-2.44749e-006,-0.933016
,,,-2.44729e-006,-0.945196
,,,-2.44709e-006,-0.943725
,,,-2.44689e-006,-0.968139
,,,-2.44669e-006,-0.959872
,,,-2.44649e-006,-0.967335
,,,-2.44629e-006,-0.964561
,,,-2.44609e-006,-0.990695
,,,-2.44589e-006,-0.996438
,,,-2.44569e-006,-0.991139
,,,-2.44549e-006,-0.993968
,,,-2.44529e-006,-0.990695
,,,-2.44509e-006,-1.00545
,,,-2.44489e-006,-1.00262
,,,-2.44469e-006,-1.00163
,,,-2.44449e-006,-1.011
,,,-2.44429e-006,-1.00545
,,,-2.44409e-006,-1.01705
,,,-2.44389e-006,-1.00925
,,,-2.44369e-006,-1.03239
,,,-2.44349e-006,-1.03317
,,,-2.44329e-006,-1.04496
,,,-2.44309e-006,-1.03678
,,,-2.44289e-006,-1.05278
,,,-2.44269e-006,-1.03317
,,,-2.44249e-006,-1.06363
,,,-2.44229e-006,-1.06593
,,,-2.44209e-006,-1.08031
,,,-2.44189e-006,-1.07653
,,,-2.44169e-006,-1.08139
,,,-2.44149e-006,-1.08297
,,,-2.44129e-006,-1.09745
,,,-2.44109e-006,-1.0987
,,,-2.44089e-006,-1.09909
,,,-2.44069e-006,-1.10622
,,,-2.44049e-006,-1.11867
,,,-2.44029e-006,-1.11235
,,,-2.44009e-006,-1.11529
,,,-2.43989e-006,-1.10622
,,,-2.43969e-006,-1.11867
,,,-2.43949e-006,-1.11235
,,,-2.43929e-006,-1.10597
,,,-2.43909e-006,-1.11221
,,,-2.43889e-006,-1.11867
,,,-2.43869e-006,-1.1068
,,,-2.43849e-006,-1.09212
,,,-2.43829e-006,-1.08297
,,,-2.43809e-006,-1.09745
,,,-2.43789e-006,-1.08466
,,,-2.43769e-006,-1.0747
,,,-2.43749e-006,-1.06593
,,,-2.43729e-006,-1.06413
,,,-2.43709e-006,-1.04812
,,,-2.43689e-006,-1.03753
,,,-2.43669e-006,-1.03056
,,,-2.43649e-006,-1.04155
,,,-2.43629e-006,-1.01586
,,,-2.43609e-006,-1.01705
,,,-2.43589e-006,-1.01638
,,,-2.43569e-006,-1.00393
,,,-2.43549e-006,-0.990639
,,,-2.43529e-006,-0.991139
,,,-2.43509e-006,-0.983592
,,,-2.43489e-006,-0.983426
,,,-2.43469e-006,-0.97366
,,,-2.43449e-006,-0.967335
,,,-2.43429e-006,-0.964561
,,,-2.43409e-006,-0.946833
,,,-2.43389e-006,-0.933016
,,,-2.43369e-006,-0.921475
,,,-2.43349e-006,-0.923473
,,,-2.43329e-006,-0.925831
,,,-2.43309e-006,-0.916287
,,,-2.43289e-006,-0.915233
,,,-2.43269e-006,-0.899558
,,,-2.43249e-006,-0.9015
,,,-2.43229e-006,-0.878667
,,,-2.43209e-006,-0.874894
,,,-2.43189e-006,-0.870289
,,,-2.43169e-006,-0.877419
,,,-2.43149e-006,-0.872481
,,,-2.43129e-006,-0.864685
,,,-2.43109e-006,-0.870289
,,,-2.43089e-006,-0.852672
,,,-2.43069e-006,-0.863603
,,,-2.43049e-006,-0.856029
,,,-2.43029e-006,-0.857111
,,,-2.43009e-006,-0.844377
,,,-2.42989e-006,-0.840354
,,,-2.42969e-006,-0.839549
,,,-2.42949e-006,-0.84815
,,,-2.42929e-006,-0.852672
,,,-2.42909e-006,-0.840354
,,,-2.42889e-006,-0.833723
,,,-2.42869e-006,-0.832475
,,,-2.42849e-006,-0.823958
,,,-2.42829e-006,-0.820573
,,,-2.42809e-006,-0.807672
,,,-2.42789e-006,-0.824041
,,,-2.42769e-006,-0.813415
,,,-2.42749e-006,-0.814053
,,,-2.42729e-006,-0.807672
,,,-2.42709e-006,-0.78939
,,,-2.42689e-006,-0.794661
,,,-2.42669e-006,-0.79394
,,,-2.42649e-006,-0.781622
,,,-2.42629e-006,-0.76603
,,,-2.42609e-006,-0.78717
,,,-2.42589e-006,-0.768
,,,-2.42569e-006,-0.77402
,,,-2.42549e-006,-0.760204
,,,-2.42529e-006,-0.757984
,,,-2.42509e-006,-0.746526
,,,-2.42489e-006,-0.761286
,,,-2.42469e-006,-0.755154
,,,-2.42449e-006,-0.757984
,,,-2.42429e-006,-0.746526
,,,-2.42409e-006,-0.75041
,,,-2.42389e-006,-0.77427
,,,-2.42369e-006,-0.750494
,,,-2.42349e-006,-0.768
,,,-2.42329e-006,-0.761286
,,,-2.42309e-006,-0.77427
,,,-2.42289e-006,-0.78717
,,,-2.42269e-006,-0.79394
,,,-2.42249e-006,-0.807672
,,,-2.42229e-006,-0.804371
,,,-2.42209e-006,-0.808921
,,,-2.42189e-006,-0.814053
,,,-2.42169e-006,-0.820878
,,,-2.42149e-006,-0.84815
,,,-2.42129e-006,-0.862105
,,,-2.42109e-006,-0.856778
,,,-2.42089e-006,-0.864685
,,,-2.42069e-006,-0.880859
,,,-2.42049e-006,-0.885437
,,,-2.42029e-006,-0.903942
,,,-2.42009e-006,-0.921475
,,,-2.41989e-006,-0.923473
,,,-2.41969e-006,-0.940729
,,,-2.41949e-006,-0.945806
,,,-2.41929e-006,-0.953214
,,,-2.41909e-006,-0.956848
,,,-2.41889e-006,-0.983426
,,,-2.41869e-006,-0.981734
,,,-2.41849e-006,-1.00262
,,,-2.41829e-006,-1.00163
,,,-2.41809e-006,-1.0196
,,,-2.41789e-006,-1.02557
,,,-2.41769e-006,-1.02418
,,,-2.41749e-006,-1.03678
,,,-2.41729e-006,-1.05808
,,,-2.41709e-006,-1.05534
,,,-2.41689e-006,-1.05767
,,,-2.41669e-006,-1.07431
,,,-2.41649e-006,-1.07176
,,,-2.41629e-006,-1.06352
,,,-2.41609e-006,-1.08139
,,,-2.41589e-006,-1.07431
,,,-2.41569e-006,-1.08031
,,,-2.41549e-006,-1.06352
,,,-2.41529e-006,-1.0747
,,,-2.41509e-006,-1.07431
,,,-2.41489e-006,-1.04643
,,,-2.41469e-006,-1.06352
,,,-2.41449e-006,-1.05767
,,,-2.41429e-006,-1.05842
,,,-2.41409e-006,-1.04155
,,,-2.41389e-006,-1.01586
,,,-2.41369e-006,-1.02418
,,,-2.41349e-006,-1.00925
,,,-2.41329e-006,-1.011
,,,-2.41309e-006,-0.981734
,,,-2.41289e-006,-0.980957
,,,-2.41269e-006,-0.964561
,,,-2.41249e-006,-0.974465
,,,-2.41229e-006,-0.952825
,,,-2.41209e-006,-0.953214
,,,-2.41189e-006,-0.950522
,,,-2.41169e-006,-0.940729
,,,-2.41149e-006,-0.933016
,,,-2.41129e-006,-0.936956
,,,-2.41109e-006,-0.928439
,,,-2.41089e-006,-0.940729
,,,-2.41069e-006,-0.933016
,,,-2.41049e-006,-0.958873
,,,-2.41029e-006,-0.964561
,,,-2.41009e-006,-0.990695
,,,-2.40989e-006,-0.990639
,,,-2.40969e-006,-0.991139
,,,-2.40949e-006,-0.993968
,,,-2.40929e-006,-1.011
,,,-2.40909e-006,-1.01586
,,,-2.40889e-006,-1.03273
,,,-2.40869e-006,-1.02238
,,,-2.40849e-006,-1.0196
,,,-2.40829e-006,-1.03317
,,,-2.40809e-006,-1.02418
,,,-2.40789e-006,-1.03056
,,,-2.40769e-006,-1.02709
,,,-2.40749e-006,-1.03317
,,,-2.40729e-006,-1.03273
,,,-2.40709e-006,-1.03056
,,,-2.40689e-006,-1.02709
,,,-2.40669e-006,-1.02557
,,,-2.40649e-006,-1.03273
,,,-2.40629e-006,-1.03056
,,,-2.40609e-006,-1.04643
,,,-2.40589e-006,-1.02557
,,,-2.40569e-006,-1.01705
,,,-2.40549e-006,-1.03056
,,,-2.40529e-006,-1.0196
,,,-2.40509e-006,-1.02557
,,,-2.40489e-006,-1.01705
,,,-2.40469e-006,-1.01638
,,,-2.40449e-006,-1.03239
,,,-2.40429e-006,-1.01011
,,,-2.40409e-006,-1.03273
,,,-2.40389e-006,-1.02238
,,,-2.40369e-006,-1.02709
,,,-2.40349e-006,-1.04102
,,,-2.40329e-006,-1.05767
,,,-2.40309e-006,-1.04993
,,,-2.40289e-006,-1.05278
,,,-2.40269e-006,-1.06352
,,,-2.40249e-006,-1.0747
,,,-2.40229e-006,-1.07431
,,,-2.40209e-006,-1.09745
,,,-2.40189e-006,-1.08466
,,,-2.40169e-006,-1.09909
,,,-2.40149e-006,-1.09068
,,,-2.40129e-006,-1.09745
,,,-2.40109e-006,-1.1068
,,,-2.40089e-006,-1.09909
,,,-2.40069e-006,-1.08297
,,,-2.40049e-006,-1.08031
,,,-2.40029e-006,-1.07653
,,,-2.40009e-006,-1.08139
,,,-2.39989e-006,-1.05842
,,,-2.39969e-006,-1.05278
,,,-2.39949e-006,-1.05534
,,,-2.39929e-006,-1.03753
,,,-2.39909e-006,-1.04993
,,,-2.39889e-006,-1.03239
,,,-2.39869e-006,-1.00545
,,,-2.39849e-006,-1.01705
,,,-2.39829e-006,-1.02238
,,,-2.39809e-006,-0.990695
,,,-2.39789e-006,-0.990639
,,,-2.39769e-006,-0.97563
,,,-2.39749e-006,-0.978044
,,,-2.39729e-006,-0.983426
,,,-2.39709e-006,-0.97366
,,,-2.39689e-006,-0.980957
,,,-2.39669e-006,-0.956848
,,,-2.39649e-006,-0.95535
,,,-2.39629e-006,-0.97366
,,,-2.39609e-006,-0.991139
,,,-2.39589e-006,-0.978044
,,,-2.39569e-006,-0.983426
,,,-2.39549e-006,-0.981734
,,,-2.39529e-006,-0.991139
,,,-2.39509e-006,-0.983592
,,,-2.39489e-006,-0.99838
,,,-2.39469e-006,-0.990639
,,,-2.39449e-006,-1.00262
,,,-2.39429e-006,-1.00163
,,,-2.39409e-006,-1.00393
,,,-2.39389e-006,-1.00545
,,,-2.39369e-006,-1.01705
,,,-2.39349e-006,-1.00925
,,,-2.39329e-006,-1.0196
,,,-2.39309e-006,-1.02557
,,,-2.39289e-006,-1.03273
,,,-2.39269e-006,-1.01638
,,,-2.39249e-006,-1.0196
,,,-2.39229e-006,-1.01586
,,,-2.39209e-006,-1.00948
,,,-2.39189e-006,-1.02238
,,,-2.39169e-006,-1.011
,,,-2.39149e-006,-0.996438
,,,-2.39129e-006,-1.01705
,,,-2.39109e-006,-1.00925
,,,-2.39089e-006,-0.99838
,,,-2.39069e-006,-0.996438
,,,-2.39049e-006,-0.991139
,,,-2.39029e-006,-0.983592
,,,-2.39009e-006,-0.968139
,,,-2.38989e-006,-0.97366
,,,-2.38969e-006,-0.953214
,,,-2.38949e-006,-0.964561
,,,-2.38929e-006,-0.95535
,,,-2.38909e-006,-0.952825
,,,-2.38889e-006,-0.953214
,,,-2.38869e-006,-0.937178
,,,-2.38849e-006,-0.946833
,,,-2.38829e-006,-0.922696
,,,-2.38809e-006,-0.930325
,,,-2.38789e-006,-0.914734
,,,-2.38769e-006,-0.931824
,,,-2.38749e-006,-0.933016
,,,-2.38729e-006,-0.930325
,,,-2.38709e-006,-0.923473
,,,-2.38689e-006,-0.940729
,,,-2.38669e-006,-0.933016
,,,-2.38649e-006,-0.936956
,,,-2.38629e-006,-0.943725
,,,-2.38609e-006,-0.940729
,,,-2.38589e-006,-0.933016
,,,-2.38569e-006,-0.945196
,,,-2.38549e-006,-0.937178
,,,-2.38529e-006,-0.925831
,,,-2.38509e-006,-0.933016
,,,-2.38489e-006,-0.945196
,,,-2.38469e-006,-0.937178
,,,-2.38449e-006,-0.946833
,,,-2.38429e-006,-0.952825
,,,-2.38409e-006,-0.930325
,,,-2.38389e-006,-0.950522
,,,-2.38369e-006,-0.940729
,,,-2.38349e-006,-0.933016
,,,-2.38329e-006,-0.945196
,,,-2.38309e-006,-0.937178
,,,-2.38289e-006,-0.940729
,,,-2.38269e-006,-0.916287
,,,-2.38249e-006,-0.921475
,,,-2.38229e-006,-0.923473
,,,-2.38209e-006,-0.931824
,,,-2.38189e-006,-0.916287
,,,-2.38169e-006,-0.894259
,,,-2.38149e-006,-0.907215
,,,-2.38129e-006,-0.9015
,,,-2.38109e-006,-0.903942
,,,-2.38089e-006,-0.894259
,,,-2.38069e-006,-0.899558
,,,-2.38049e-006,-0.9015
,,,-2.38029e-006,-0.894426
,,,-2.38009e-006,-0.894259
,,,-2.37989e-006,-0.886824
,,,-2.37969e-006,-0.895064
,,,-2.37949e-006,-0.886547
,,,-2.37929e-006,-0.901001
,,,-2.37909e-006,-0.880859
,,,-2.37889e-006,-0.877419
,,,-2.37869e-006,-0.863603
,,,-2.37849e-006,-0.856029
,,,-2.37829e-006,-0.857111
,,,-2.37809e-006,-0.852672
,,,-2.37789e-006,-0.840354
,,,-2.37769e-006,-0.833723
,,,-2.37749e-006,-0.824041
,,,-2.37729e-006,-0.813415
,,,-2.37709e-006,-0.807728
,,,-2.37689e-006,-0.820878
,,,-2.37669e-006,-0.804371
,,,-2.37649e-006,-0.808921
,,,-2.37629e-006,-0.785145
,,,-2.37609e-006,-0.807672
,,,-2.37589e-006,-0.78226
,,,-2.37569e-006,-0.78717
,,,-2.37549e-006,-0.79394
,,,-2.37529e-006,-0.797962
,,,-2.37509e-006,-0.804371
,,,-2.37489e-006,-0.78717
,,,-2.37469e-006,-0.785145
,,,-2.37449e-006,-0.797962
,,,-2.37429e-006,-0.810807
,,,-2.37409e-006,-0.808921
,,,-2.37389e-006,-0.807728
,,,-2.37369e-006,-0.797962
,,,-2.37349e-006,-0.804371
,,,-2.37329e-006,-0.808921
,,,-2.37309e-006,-0.814053
,,,-2.37289e-006,-0.807672
,,,-2.37269e-006,-0.804371
,,,-2.37249e-006,-0.799877
,,,-2.37229e-006,-0.807728
,,,-2.37209e-006,-0.813082
,,,-2.37189e-006,-0.804371
,,,-2.37169e-006,-0.808921
,,,-2.37149e-006,-0.814053
,,,-2.37129e-006,-0.833723
,,,-2.37109e-006,-0.818381
,,,-2.37089e-006,-0.844377
,,,-2.37069e-006,-0.840354
,,,-2.37049e-006,-0.839549
,,,-2.37029e-006,-0.84815
,,,-2.37009e-006,-0.862105
,,,-2.36989e-006,-0.856778
,,,-2.36969e-006,-0.856029
,,,-2.36949e-006,-0.870289
,,,-2.36929e-006,-0.877419
,,,-2.36909e-006,-0.878667
,,,-2.36889e-006,-0.882024
,,,-2.36869e-006,-0.893732
,,,-2.36849e-006,-0.909351
,,,-2.36829e-006,-0.922696
,,,-2.36809e-006,-0.921475
,,,-2.36789e-006,-0.923473
,,,-2.36769e-006,-0.940729
,,,-2.36749e-006,-0.933016
,,,-2.36729e-006,-0.945196
,,,-2.36709e-006,-0.950522
,,,-2.36689e-006,-0.95535
,,,-2.36669e-006,-0.959872
,,,-2.36649e-006,-0.953214
,,,-2.36629e-006,-0.956848
,,,-2.36609e-006,-0.95535
,,,-2.36589e-006,-0.945806
,,,-2.36569e-006,-0.953214
,,,-2.36549e-006,-0.943725
,,,-2.36529e-006,-0.946833
,,,-2.36509e-006,-0.933016
,,,-2.36489e-006,-0.921475
,,,-2.36469e-006,-0.914734
,,,-2.36449e-006,-0.909351
,,,-2.36429e-006,-0.903942
,,,-2.36409e-006,-0.901001
,,,-2.36389e-006,-0.870289
,,,-2.36369e-006,-0.877419
,,,-2.36349e-006,-0.856778
,,,-2.36329e-006,-0.864685
,,,-2.36309e-006,-0.857111
,,,-2.36289e-006,-0.836414
,,,-2.36269e-006,-0.840354
,,,-2.36249e-006,-0.839549
,,,-2.36229e-006,-0.832475
,,,-2.36209e-006,-0.82934
,,,-2.36189e-006,-0.832725
,,,-2.36169e-006,-0.839549
,,,-2.36149e-006,-0.824041
,,,-2.36129e-006,-0.836414
,,,-2.36109e-006,-0.832725
,,,-2.36089e-006,-0.826482
,,,-2.36069e-006,-0.839771
,,,-2.36049e-006,-0.862105
