data/2013_03_25/calib_board/C2pdboard200mV00001.txt

"Record Length",25001,"Points",-2.51009e-006,-0.647039
"Sample Interval",2e-010,s,-2.50989e-006,-0.663352
"Trigger Point",12550,"Samples",-2.50969e-006,-0.677113
"Trigger Time",0.427794,s,-2.50949e-006,-0.683882
,,,-2.50929e-006,-0.698198
"Horizontal Offset",-2.51009e-006,s,-2.50909e-006,-0.715815
,,,-2.50889e-006,-0.722945
,,,-2.50869e-006,-0.740395
,,,-2.50849e-006,-0.757984
,,,-2.50829e-006,-0.746526
,,,-2.50809e-006,-0.761286
,,,-2.50789e-006,-0.760204
,,,-2.50769e-006,-0.771828
,,,-2.50749e-006,-0.768
,,,-2.50729e-006,-0.79
,,,-2.50709e-006,-0.78226
,,,-2.50689e-006,-0.799877
,,,-2.50669e-006,-0.79394
,,,-2.50649e-006,-0.807672
,,,-2.50629e-006,-0.804371
,,,-2.50609e-006,-0.808921
,,,-2.50589e-006,-0.827981
,,,-2.50569e-006,-0.820878
,,,-2.50549e-006,-0.839771
,,,-2.50529e-006,-0.844377
,,,-2.50509e-006,-0.8484
,,,-2.50489e-006,-0.839549
,,,-2.50469e-006,-0.865045
,,,-2.50449e-006,-0.867126
,,,-2.50429e-006,-0.863603
,,,-2.50409e-006,-0.864685
,,,-2.50389e-006,-0.880859
,,,-2.50369e-006,-0.877419
,,,-2.50349e-006,-0.856778
,,,-2.50329e-006,-0.856029
,,,-2.50309e-006,-0.857111
,,,-2.50289e-006,-0.862105
,,,-2.50269e-006,-0.840354
,,,-2.50249e-006,-0.856029
,,,-2.50229e-006,-0.832475
,,,-2.50209e-006,-0.82934
,,,-2.50189e-006,-0.820573
,,,-2.50169e-006,-0.826482
,,,-2.50149e-006,-0.804371
,,,-2.50129e-006,-0.823958
,,,-2.50109e-006,-0.814053
,,,-2.50089e-006,-0.820878
,,,-2.50069e-006,-0.79566
,,,-2.50049e-006,-0.799877
,,,-2.50029e-006,-0.79394
,,,-2.50009e-006,-0.77402
,,,-2.49989e-006,-0.78226
,,,-2.49969e-006,-0.778903
,,,-2.49949e-006,-0.762978
,,,-2.49929e-006,-0.76578
,,,-2.49909e-006,-0.76603
,,,-2.49889e-006,-0.757984
,,,-2.49869e-006,-0.746526
,,,-2.49849e-006,-0.75041
,,,-2.49829e-006,-0.74919
,,,-2.49809e-006,-0.750494
,,,-2.49789e-006,-0.746526
,,,-2.49769e-006,-0.744973
,,,-2.49749e-006,-0.72694
,,,-2.49729e-006,-0.726773
,,,-2.49709e-006,-0.738259
,,,-2.49689e-006,-0.722945
,,,-2.49669e-006,-0.734957
,,,-2.49649e-006,-0.712818
,,,-2.49629e-006,-0.715815
,,,-2.49609e-006,-0.715648
,,,-2.49589e-006,-0.713151
,,,-2.49569e-006,-0.721224
,,,-2.49549e-006,-0.690707
,,,-2.49529e-006,-0.695285
,,,-2.49509e-006,-0.697809
,,,-2.49489e-006,-0.698198
,,,-2.49469e-006,-0.684187
,,,-2.49449e-006,-0.702664
,,,-2.49429e-006,-0.67653
,,,-2.49409e-006,-0.68502
,,,-2.49389e-006,-0.663352
,,,-2.49369e-006,-0.657332
,,,-2.49349e-006,-0.657054
,,,-2.49329e-006,-0.647039
,,,-2.49309e-006,-0.643543
,,,-2.49289e-006,-0.64432
,,,-2.49269e-006,-0.629117
,,,-2.49249e-006,-0.632446
,,,-2.49229e-006,-0.62895
,,,-2.49209e-006,-0.605313
,,,-2.49189e-006,-0.612582
,,,-2.49169e-006,-0.604647
,,,-2.49149e-006,-0.604953
,,,-2.49129e-006,-0.605313
,,,-2.49109e-006,-0.585394
,,,-2.49089e-006,-0.614025
,,,-2.49069e-006,-0.584117
,,,-2.49049e-006,-0.605313
,,,-2.49029e-006,-0.585394
,,,-2.49009e-006,-0.589361
,,,-2.48989e-006,-0.599681
,,,-2.48969e-006,-0.592163
,,,-2.48949e-006,-0.585394
,,,-2.48929e-006,-0.596297
,,,-2.48909e-006,-0.604953
,,,-2.48889e-006,-0.622237
,,,-2.48869e-006,-0.629117
,,,-2.48849e-006,-0.632446
,,,-2.48829e-006,-0.643543
,,,-2.48809e-006,-0.638355
,,,-2.48789e-006,-0.641546
,,,-2.48769e-006,-0.662964
,,,-2.48749e-006,-0.672063
,,,-2.48729e-006,-0.677113
,,,-2.48709e-006,-0.67653
,,,-2.48689e-006,-0.676641
,,,-2.48669e-006,-0.690707
,,,-2.48649e-006,-0.695285
,,,-2.48629e-006,-0.692677
,,,-2.48609e-006,-0.712818
,,,-2.48589e-006,-0.701333
,,,-2.48569e-006,-0.702664
,,,-2.48549e-006,-0.706548
,,,-2.48529e-006,-0.698198
,,,-2.48509e-006,-0.706521
,,,-2.48489e-006,-0.695285
,,,-2.48469e-006,-0.683882
,,,-2.48449e-006,-0.68502
,,,-2.48429e-006,-0.690707
,,,-2.48409e-006,-0.670399
,,,-2.48389e-006,-0.668901
,,,-2.48369e-006,-0.662964
,,,-2.48349e-006,-0.649258
,,,-2.48329e-006,-0.657332
,,,-2.48309e-006,-0.641546
,,,-2.48289e-006,-0.647039
,,,-2.48269e-006,-0.643543
,,,-2.48249e-006,-0.649813
,,,-2.48229e-006,-0.651533
,,,-2.48209e-006,-0.647039
,,,-2.48189e-006,-0.621266
,,,-2.48169e-006,-0.611389
,,,-2.48149e-006,-0.605924
,,,-2.48129e-006,-0.596297
,,,-2.48109e-006,-0.591303
,,,-2.48089e-006,-0.592163
,,,-2.48069e-006,-0.579318
,,,-2.48049e-006,-0.570273
,,,-2.48029e-006,-0.568637
,,,-2.48009e-006,-0.562256
,,,-2.47989e-006,-0.549882
,,,-2.47969e-006,-0.554293
,,,-2.47949e-006,-0.53171
,,,-2.47929e-006,-0.535927
,,,-2.47909e-006,-0.523221
,,,-2.47889e-006,-0.51401
,,,-2.47869e-006,-0.508989
,,,-2.47849e-006,-0.51168
,,,-2.47829e-006,-0.508517
,,,-2.47809e-006,-0.505659
,,,-2.47789e-006,-0.508989
,,,-2.47769e-006,-0.519808
,,,-2.47749e-006,-0.508517
,,,-2.47729e-006,-0.51401
,,,-2.47709e-006,-0.501165
,,,-2.47689e-006,-0.503273
,,,-2.47669e-006,-0.514121
,,,-2.47649e-006,-0.51401
,,,-2.47629e-006,-0.508989
,,,-2.47609e-006,-0.503273
,,,-2.47589e-006,-0.500166
,,,-2.47569e-006,-0.505659
,,,-2.47549e-006,-0.495894
,,,-2.47529e-006,-0.497253
,,,-2.47509e-006,-0.486239
,,,-2.47489e-006,-0.487904
,,,-2.47469e-006,-0.489485
,,,-2.47449e-006,-0.480607
,,,-2.47429e-006,-0.479636
,,,-2.47409e-006,-0.493036
,,,-2.47389e-006,-0.471729
,,,-2.47369e-006,-0.480607
,,,-2.47349e-006,-0.479636
,,,-2.47329e-006,-0.479858
,,,-2.47309e-006,-0.489485
,,,-2.47289e-006,-0.480607
,,,-2.47269e-006,-0.493341
,,,-2.47249e-006,-0.499889
,,,-2.47229e-006,-0.508989
,,,-2.47209e-006,-0.51168
,,,-2.47189e-006,-0.523221
,,,-2.47169e-006,-0.546747
,,,-2.47149e-006,-0.551297
,,,-2.47129e-006,-0.569774
,,,-2.47109e-006,-0.571244
,,,-2.47089e-006,-0.596297
,,,-2.47069e-006,-0.591303
,,,-2.47049e-006,-0.605313
,,,-2.47029e-006,-0.620544
,,,-2.47009e-006,-0.637495
,,,-2.46989e-006,-0.643543
,,,-2.46969e-006,-0.657332
,,,-2.46949e-006,-0.641546
,,,-2.46929e-006,-0.662964
,,,-2.46909e-006,-0.672063
,,,-2.46889e-006,-0.682828
,,,-2.46869e-006,-0.683882
,,,-2.46849e-006,-0.68502
,,,-2.46829e-006,-0.684187
,,,-2.46809e-006,-0.702664
,,,-2.46789e-006,-0.692677
,,,-2.46769e-006,-0.706881
,,,-2.46749e-006,-0.701333
,,,-2.46729e-006,-0.715648
,,,-2.46709e-006,-0.692677
,,,-2.46689e-006,-0.706881
,,,-2.46669e-006,-0.701333
,,,-2.46649e-006,-0.708324
,,,-2.46629e-006,-0.697809
,,,-2.46609e-006,-0.698198
,,,-2.46589e-006,-0.690707
,,,-2.46569e-006,-0.689708
,,,-2.46549e-006,-0.67653
,,,-2.46529e-006,-0.692316
,,,-2.46509e-006,-0.676336
,,,-2.46489e-006,-0.670399
,,,-2.46469e-006,-0.663491
,,,-2.46449e-006,-0.668956
,,,-2.46429e-006,-0.672063
,,,-2.46409e-006,-0.66424
,,,-2.46389e-006,-0.651533
,,,-2.46369e-006,-0.68502
,,,-2.46349e-006,-0.663352
,,,-2.46329e-006,-0.657332
,,,-2.46309e-006,-0.663491
,,,-2.46289e-006,-0.68502
,,,-2.46269e-006,-0.684187
,,,-2.46249e-006,-0.677113
,,,-2.46229e-006,-0.67653
,,,-2.46209e-006,-0.692316
,,,-2.46189e-006,-0.684187
,,,-2.46169e-006,-0.677113
,,,-2.46149e-006,-0.67653
,,,-2.46129e-006,-0.68502
,,,-2.46109e-006,-0.676336
,,,-2.46089e-006,-0.689708
,,,-2.46069e-006,-0.663491
,,,-2.46049e-006,-0.68502
,,,-2.46029e-006,-0.684187
,,,-2.46009e-006,-0.682828
,,,-2.45989e-006,-0.692677
,,,-2.45969e-006,-0.668956
,,,-2.45949e-006,-0.684187
,,,-2.45929e-006,-0.677113
,,,-2.45909e-006,-0.67653
,,,-2.45889e-006,-0.68502
,,,-2.45869e-006,-0.672063
,,,-2.45849e-006,-0.670399
,,,-2.45829e-006,-0.668901
,,,-2.45809e-006,-0.668956
,,,-2.45789e-006,-0.672063
,,,-2.45769e-006,-0.66424
,,,-2.45749e-006,-0.67653
,,,-2.45729e-006,-0.668956
,,,-2.45709e-006,-0.663352
,,,-2.45689e-006,-0.638355
,,,-2.45669e-006,-0.651533
,,,-2.45649e-006,-0.647039
,,,-2.45629e-006,-0.649258
,,,-2.45609e-006,-0.638355
,,,-2.45589e-006,-0.629117
,,,-2.45569e-006,-0.637495
,,,-2.45549e-006,-0.635248
,,,-2.45529e-006,-0.638355
,,,-2.45509e-006,-0.629117
,,,-2.45489e-006,-0.622958
,,,-2.45469e-006,-0.604953
,,,-2.45449e-006,-0.628728
,,,-2.45429e-006,-0.605924
,,,-2.45409e-006,-0.614025
,,,-2.45389e-006,-0.591303
,,,-2.45369e-006,-0.598017
,,,-2.45349e-006,-0.597822
,,,-2.45329e-006,-0.589361
,,,-2.45309e-006,-0.599681
,,,-2.45289e-006,-0.598017
,,,-2.45269e-006,-0.592468
,,,-2.45249e-006,-0.583091
,,,-2.45229e-006,-0.584117
,,,-2.45209e-006,-0.584256
,,,-2.45189e-006,-0.564974
,,,-2.45169e-006,-0.583091
,,,-2.45149e-006,-0.584117
,,,-2.45129e-006,-0.584256
,,,-2.45109e-006,-0.592468
,,,-2.45089e-006,-0.575822
,,,-2.45069e-006,-0.568637
,,,-2.45049e-006,-0.584256
,,,-2.45029e-006,-0.564974
,,,-2.45009e-006,-0.575822
,,,-2.44989e-006,-0.568637
,,,-2.44969e-006,-0.578985
,,,-2.44949e-006,-0.529657
,,,-2.44929e-006,-0.560036
,,,-2.44909e-006,-0.54106
,,,-2.44889e-006,-0.535927
,,,-2.44869e-006,-0.523221
,,,-2.44849e-006,-0.51401
,,,-2.44829e-006,-0.516895
,,,-2.44809e-006,-0.497253
,,,-2.44789e-006,-0.486239
,,,-2.44769e-006,-0.487904
,,,-2.44749e-006,-0.462546
,,,-2.44729e-006,-0.473977
,,,-2.44709e-006,-0.465931
,,,-2.44689e-006,-0.445928
,,,-2.44669e-006,-0.435497
,,,-2.44649e-006,-0.437661
,,,-2.44629e-006,-0.425676
,,,-2.44609e-006,-0.433471
,,,-2.44589e-006,-0.427368
,,,-2.44569e-006,-0.41702
,,,-2.44549e-006,-0.415411
,,,-2.44529e-006,-0.397128
,,,-2.44509e-006,-0.397267
,,,-2.44489e-006,-0.391829
,,,-2.44469e-006,-0.393743
,,,-2.44449e-006,-0.388999
,,,-2.44429e-006,-0.388611
,,,-2.44409e-006,-0.406311
,,,-2.44389e-006,-0.393743
,,,-2.44369e-006,-0.405368
,,,-2.44349e-006,-0.388611
,,,-2.44329e-006,-0.424705
,,,-2.44309e-006,-0.425676
,,,-2.44289e-006,-0.425038
,,,-2.44269e-006,-0.427368
,,,-2.44249e-006,-0.458773
,,,-2.44229e-006,-0.465931
,,,-2.44209e-006,-0.474171
,,,-2.44189e-006,-0.471729
,,,-2.44169e-006,-0.51168
,,,-2.44149e-006,-0.508517
,,,-2.44129e-006,-0.51401
,,,-2.44109e-006,-0.52594
,,,-2.44089e-006,-0.535927
,,,-2.44069e-006,-0.529657
,,,-2.44049e-006,-0.527632
,,,-2.44029e-006,-0.54106
,,,-2.44009e-006,-0.547385
,,,-2.43989e-006,-0.535483
,,,-2.43969e-006,-0.570273
,,,-2.43949e-006,-0.551297
,,,-2.43929e-006,-0.562256
,,,-2.43909e-006,-0.557733
,,,-2.43889e-006,-0.570273
,,,-2.43869e-006,-0.560868
,,,-2.43849e-006,-0.562256
,,,-2.43829e-006,-0.557733
,,,-2.43809e-006,-0.554293
,,,-2.43789e-006,-0.576849
,,,-2.43769e-006,-0.578985
,,,-2.43749e-006,-0.564974
,,,-2.43729e-006,-0.570273
,,,-2.43709e-006,-0.568637
,,,-2.43689e-006,-0.578985
,,,-2.43669e-006,-0.564974
,,,-2.43649e-006,-0.575822
,,,-2.43629e-006,-0.560868
,,,-2.43609e-006,-0.562256
,,,-2.43589e-006,-0.571244
,,,-2.43569e-006,-0.570273
,,,-2.43549e-006,-0.560868
,,,-2.43529e-006,-0.569774
,,,-2.43509e-006,-0.557733
,,,-2.43489e-006,-0.570273
,,,-2.43469e-006,-0.551297
,,,-2.43449e-006,-0.539922
,,,-2.43429e-006,-0.535483
,,,-2.43409e-006,-0.538979
,,,-2.43389e-006,-0.54106
,,,-2.43369e-006,-0.535927
,,,-2.43349e-006,-0.541615
,,,-2.43329e-006,-0.546747
,,,-2.43309e-006,-0.53171
,,,-2.43289e-006,-0.547385
,,,-2.43269e-006,-0.535483
,,,-2.43249e-006,-0.532626
,,,-2.43229e-006,-0.54106
,,,-2.43209e-006,-0.547385
,,,-2.43189e-006,-0.549882
,,,-2.43169e-006,-0.554293
,,,-2.43149e-006,-0.54106
,,,-2.43129e-006,-0.547385
,,,-2.43109e-006,-0.535483
,,,-2.43089e-006,-0.546747
,,,-2.43069e-006,-0.54106
,,,-2.43049e-006,-0.554349
,,,-2.43029e-006,-0.549882
,,,-2.43009e-006,-0.554293
,,,-2.42989e-006,-0.560868
,,,-2.42969e-006,-0.547385
,,,-2.42949e-006,-0.535483
,,,-2.42929e-006,-0.546747
,,,-2.42909e-006,-0.54106
,,,-2.42889e-006,-0.535927
,,,-2.42869e-006,-0.535483
,,,-2.42849e-006,-0.520558
,,,-2.42829e-006,-0.516895
,,,-2.42809e-006,-0.535927
,,,-2.42789e-006,-0.523221
,,,-2.42769e-006,-0.520558
,,,-2.42749e-006,-0.508989
,,,-2.42729e-006,-0.51168
,,,-2.42709e-006,-0.508517
,,,-2.42689e-006,-0.527632
,,,-2.42669e-006,-0.495894
,,,-2.42649e-006,-0.519808
,,,-2.42629e-006,-0.514121
,,,-2.42609e-006,-0.51401
,,,-2.42589e-006,-0.516895
,,,-2.42569e-006,-0.51168
,,,-2.42549e-006,-0.514121
,,,-2.42529e-006,-0.505659
,,,-2.42509e-006,-0.516895
,,,-2.42489e-006,-0.519808
,,,-2.42469e-006,-0.529657
,,,-2.42449e-006,-0.527632
,,,-2.42429e-006,-0.54106
,,,-2.42409e-006,-0.519808
,,,-2.42389e-006,-0.508517
,,,-2.42369e-006,-0.520558
,,,-2.42349e-006,-0.516895
,,,-2.42329e-006,-0.519808
,,,-2.42309e-006,-0.529657
,,,-2.42289e-006,-0.520558
,,,-2.42269e-006,-0.53171
,,,-2.42249e-006,-0.547385
,,,-2.42229e-006,-0.557733
,,,-2.42209e-006,-0.546747
,,,-2.42189e-006,-0.551297
,,,-2.42169e-006,-0.554349
,,,-2.42149e-006,-0.557733
,,,-2.42129e-006,-0.575822
,,,-2.42109e-006,-0.568637
,,,-2.42089e-006,-0.592163
,,,-2.42069e-006,-0.579318
,,,-2.42049e-006,-0.589361
,,,-2.42029e-006,-0.584117
,,,-2.42009e-006,-0.592163
,,,-2.41989e-006,-0.597822
,,,-2.41969e-006,-0.614025
,,,-2.41949e-006,-0.599681
,,,-2.41929e-006,-0.605313
,,,-2.41909e-006,-0.612582
,,,-2.41889e-006,-0.622958
,,,-2.41869e-006,-0.599681
,,,-2.41849e-006,-0.598017
,,,-2.41829e-006,-0.605924
,,,-2.41809e-006,-0.614025
,,,-2.41789e-006,-0.613165
,,,-2.41769e-006,-0.605313
,,,-2.41749e-006,-0.585394
,,,-2.41729e-006,-0.604647
,,,-2.41709e-006,-0.599681
,,,-2.41689e-006,-0.578985
,,,-2.41669e-006,-0.597822
,,,-2.41649e-006,-0.604647
,,,-2.41629e-006,-0.584117
,,,-2.41609e-006,-0.611389
,,,-2.41589e-006,-0.592468
,,,-2.41569e-006,-0.614025
,,,-2.41549e-006,-0.599681
,,,-2.41529e-006,-0.605313
,,,-2.41509e-006,-0.620544
,,,-2.41489e-006,-0.614025
,,,-2.41469e-006,-0.604953
,,,-2.41449e-006,-0.628728
,,,-2.41429e-006,-0.620544
,,,-2.41409e-006,-0.622958
,,,-2.41389e-006,-0.621266
,,,-2.41369e-006,-0.628728
,,,-2.41349e-006,-0.612582
,,,-2.41329e-006,-0.614025
,,,-2.41309e-006,-0.599681
,,,-2.41289e-006,-0.622237
,,,-2.41269e-006,-0.629117
,,,-2.41249e-006,-0.622958
,,,-2.41229e-006,-0.62895
,,,-2.41209e-006,-0.622237
,,,-2.41189e-006,-0.629117
,,,-2.41169e-006,-0.637495
,,,-2.41149e-006,-0.643543
,,,-2.41129e-006,-0.64432
,,,-2.41109e-006,-0.651533
,,,-2.41089e-006,-0.68502
,,,-2.41069e-006,-0.676336
,,,-2.41049e-006,-0.689708
,,,-2.41029e-006,-0.706548
,,,-2.41009e-006,-0.706881
,,,-2.40989e-006,-0.701333
,,,-2.40969e-006,-0.715648
,,,-2.40949e-006,-0.72694
,,,-2.40929e-006,-0.721224
,,,-2.40909e-006,-0.746526
,,,-2.40889e-006,-0.736456
,,,-2.40869e-006,-0.755154
,,,-2.40849e-006,-0.76603
,,,-2.40829e-006,-0.754627
,,,-2.40809e-006,-0.77402
,,,-2.40789e-006,-0.76603
,,,-2.40769e-006,-0.771828
,,,-2.40749e-006,-0.768
,,,-2.40729e-006,-0.76578
,,,-2.40709e-006,-0.77427
,,,-2.40689e-006,-0.778903
,,,-2.40669e-006,-0.776184
,,,-2.40649e-006,-0.781622
,,,-2.40629e-006,-0.79566
,,,-2.40609e-006,-0.799877
,,,-2.40589e-006,-0.785145
,,,-2.40569e-006,-0.807672
,,,-2.40549e-006,-0.804371
,,,-2.40529e-006,-0.823958
,,,-2.40509e-006,-0.820573
,,,-2.40489e-006,-0.826482
,,,-2.40469e-006,-0.839771
,,,-2.40449e-006,-0.852672
,,,-2.40429e-006,-0.856778
,,,-2.40409e-006,-0.864685
,,,-2.40389e-006,-0.865045
,,,-2.40369e-006,-0.867126
,,,-2.40349e-006,-0.878667
,,,-2.40329e-006,-0.874894
,,,-2.40309e-006,-0.880859
,,,-2.40289e-006,-0.895064
,,,-2.40269e-006,-0.894426
,,,-2.40249e-006,-0.901001
,,,-2.40229e-006,-0.893732
,,,-2.40209e-006,-0.9015
,,,-2.40189e-006,-0.886547
,,,-2.40169e-006,-0.907382
,,,-2.40149e-006,-0.893732
,,,-2.40129e-006,-0.895064
,,,-2.40109e-006,-0.886547
,,,-2.40089e-006,-0.888489
,,,-2.40069e-006,-0.870289
,,,-2.40049e-006,-0.877419
,,,-2.40029e-006,-0.863603
,,,-2.40009e-006,-0.864685
,,,-2.39989e-006,-0.839771
,,,-2.39969e-006,-0.836414
,,,-2.39949e-006,-0.8484
,,,-2.39929e-006,-0.826482
,,,-2.39909e-006,-0.832475
,,,-2.39889e-006,-0.813415
,,,-2.39869e-006,-0.800515
,,,-2.39849e-006,-0.79
,,,-2.39829e-006,-0.77427
,,,-2.39809e-006,-0.771828
,,,-2.39789e-006,-0.762978
,,,-2.39769e-006,-0.761286
,,,-2.39749e-006,-0.740395
,,,-2.39729e-006,-0.734181
,,,-2.39709e-006,-0.732239
,,,-2.39689e-006,-0.708324
,,,-2.39669e-006,-0.697809
,,,-2.39649e-006,-0.698198
,,,-2.39629e-006,-0.676336
,,,-2.39609e-006,-0.670399
,,,-2.39589e-006,-0.657054
,,,-2.39569e-006,-0.662964
,,,-2.39549e-006,-0.635248
,,,-2.39529e-006,-0.628728
,,,-2.39509e-006,-0.620544
,,,-2.39489e-006,-0.596297
,,,-2.39469e-006,-0.591303
,,,-2.39449e-006,-0.578985
,,,-2.39429e-006,-0.571244
,,,-2.39409e-006,-0.554293
,,,-2.39389e-006,-0.545637
,,,-2.39369e-006,-0.554349
,,,-2.39349e-006,-0.541615
,,,-2.39329e-006,-0.538979
,,,-2.39309e-006,-0.53171
,,,-2.39289e-006,-0.539922
,,,-2.39269e-006,-0.541615
,,,-2.39249e-006,-0.546747
,,,-2.39229e-006,-0.52594
,,,-2.39209e-006,-0.539922
,,,-2.39189e-006,-0.541615
,,,-2.39169e-006,-0.538979
,,,-2.39149e-006,-0.54106
,,,-2.39129e-006,-0.547385
,,,-2.39109e-006,-0.529657
,,,-2.39089e-006,-0.527632
,,,-2.39069e-006,-0.54106
,,,-2.39049e-006,-0.535927
,,,-2.39029e-006,-0.541615
,,,-2.39009e-006,-0.546747
,,,-2.38989e-006,-0.53171
,,,-2.38969e-006,-0.535927
,,,-2.38949e-006,-0.529657
,,,-2.38929e-006,-0.546747
,,,-2.38909e-006,-0.54106
,,,-2.38889e-006,-0.554349
,,,-2.38869e-006,-0.549882
,,,-2.38849e-006,-0.554293
,,,-2.38829e-006,-0.560868
,,,-2.38809e-006,-0.539922
,,,-2.38789e-006,-0.541615
,,,-2.38769e-006,-0.554293
,,,-2.38749e-006,-0.551297
,,,-2.38729e-006,-0.578985
,,,-2.38709e-006,-0.585394
,,,-2.38689e-006,-0.589361
,,,-2.38669e-006,-0.568637
,,,-2.38649e-006,-0.592163
,,,-2.38629e-006,-0.597822
,,,-2.38609e-006,-0.589361
,,,-2.38589e-006,-0.599681
,,,-2.38569e-006,-0.592163
,,,-2.38549e-006,-0.605924
,,,-2.38529e-006,-0.622958
,,,-2.38509e-006,-0.591303
,,,-2.38489e-006,-0.598017
,,,-2.38469e-006,-0.597822
,,,-2.38449e-006,-0.596297
,,,-2.38429e-006,-0.599681
,,,-2.38409e-006,-0.578985
,,,-2.38389e-006,-0.579318
,,,-2.38369e-006,-0.560036
,,,-2.38349e-006,-0.551297
,,,-2.38329e-006,-0.547385
,,,-2.38309e-006,-0.523221
,,,-2.38289e-006,-0.538979
,,,-2.38269e-006,-0.508989
,,,-2.38249e-006,-0.497253
,,,-2.38229e-006,-0.486239
,,,-2.38209e-006,-0.474171
,,,-2.38189e-006,-0.471729
,,,-2.38169e-006,-0.444513
,,,-2.38149e-006,-0.443015
,,,-2.38129e-006,-0.445928
,,,-2.38109e-006,-0.435497
,,,-2.38089e-006,-0.431529
,,,-2.38069e-006,-0.415411
,,,-2.38049e-006,-0.425038
,,,-2.38029e-006,-0.427368
,,,-2.38009e-006,-0.411832
,,,-2.37989e-006,-0.425676
,,,-2.37969e-006,-0.418129
,,,-2.37949e-006,-0.419406
,,,-2.37929e-006,-0.406311
,,,-2.37909e-006,-0.415411
,,,-2.37889e-006,-0.425038
,,,-2.37869e-006,-0.419406
,,,-2.37849e-006,-0.411832
,,,-2.37829e-006,-0.410528
,,,-2.37809e-006,-0.418129
,,,-2.37789e-006,-0.413274
,,,-2.37769e-006,-0.391829
,,,-2.37749e-006,-0.410528
,,,-2.37729e-006,-0.40939
,,,-2.37709e-006,-0.413274
,,,-2.37689e-006,-0.41702
,,,-2.37669e-006,-0.410528
,,,-2.37649e-006,-0.405368
,,,-2.37629e-006,-0.435497
,,,-2.37609e-006,-0.437661
,,,-2.37589e-006,-0.43128
,,,-2.37569e-006,-0.445928
,,,-2.37549e-006,-0.445068
,,,-2.37529e-006,-0.465099
,,,-2.37509e-006,-0.465931
,,,-2.37489e-006,-0.474171
,,,-2.37469e-006,-0.489485
,,,-2.37449e-006,-0.497253
,,,-2.37429e-006,-0.529657
,,,-2.37409e-006,-0.520558
,,,-2.37389e-006,-0.52594
,,,-2.37369e-006,-0.539922
,,,-2.37349e-006,-0.541615
,,,-2.37329e-006,-0.546747
,,,-2.37309e-006,-0.545637
,,,-2.37289e-006,-0.554349
,,,-2.37269e-006,-0.571244
,,,-2.37249e-006,-0.546747
,,,-2.37229e-006,-0.560868
,,,-2.37209e-006,-0.578985
,,,-2.37189e-006,-0.557733
,,,-2.37169e-006,-0.570273
,,,-2.37149e-006,-0.568637
,,,-2.37129e-006,-0.554349
,,,-2.37109e-006,-0.571244
,,,-2.37089e-006,-0.570273
,,,-2.37069e-006,-0.551297
,,,-2.37049e-006,-0.578985
,,,-2.37029e-006,-0.557733
,,,-2.37009e-006,-0.560036
,,,-2.36989e-006,-0.551297
,,,-2.36969e-006,-0.569774
,,,-2.36949e-006,-0.549882
,,,-2.36929e-006,-0.570273
,,,-2.36909e-006,-0.560868
,,,-2.36889e-006,-0.569774
,,,-2.36869e-006,-0.564974
,,,-2.36849e-006,-0.583091
,,,-2.36829e-006,-0.560868
,,,-2.36809e-006,-0.578985
,,,-2.36789e-006,-0.585394
,,,-2.36769e-006,-0.589361
,,,-2.36749e-006,-0.604953
,,,-2.36729e-006,-0.622237
,,,-2.36709e-006,-0.605924
,,,-2.36689e-006,-0.614025
,,,-2.36669e-006,-0.621266
,,,-2.36649e-006,-0.638355
,,,-2.36629e-006,-0.629117
,,,-2.36609e-006,-0.654197
,,,-2.36589e-006,-0.635248
,,,-2.36569e-006,-0.677113
,,,-2.36549e-006,-0.657054
,,,-2.36529e-006,-0.668956
,,,-2.36509e-006,-0.672063
,,,-2.36489e-006,-0.689708
,,,-2.36469e-006,-0.668901
,,,-2.36449e-006,-0.68502
,,,-2.36429e-006,-0.684187
,,,-2.36409e-006,-0.708324
,,,-2.36389e-006,-0.67653
,,,-2.36369e-006,-0.706881
,,,-2.36349e-006,-0.701333
,,,-2.36329e-006,-0.682828
,,,-2.36309e-006,-0.683882
,,,-2.36289e-006,-0.68502
,,,-2.36269e-006,-0.690707
,,,-2.36249e-006,-0.689708
