data/2013_03_25/calib_board/C2pdboard200mV00025.txt

"Record Length",25001,"Points",-2.51009e-006,-1.20267
"Sample Interval",2e-010,s,-2.50989e-006,-1.1984
"Trigger Point",12550,"Samples",-2.50969e-006,-1.20603
"Trigger Time",0.427794,s,-2.50949e-006,-1.19815
,,,-2.50929e-006,-1.20267
"Horizontal Offset",-2.51009e-006,s,-2.50909e-006,-1.20678
,,,-2.50889e-006,-1.18955
,,,-2.50869e-006,-1.20711
,,,-2.50849e-006,-1.18641
,,,-2.50829e-006,-1.20678
,,,-2.50809e-006,-1.20009
,,,-2.50789e-006,-1.20711
,,,-2.50769e-006,-1.20267
,,,-2.50749e-006,-1.20678
,,,-2.50729e-006,-1.21468
,,,-2.50709e-006,-1.23086
,,,-2.50689e-006,-1.2121
,,,-2.50669e-006,-1.22248
,,,-2.50649e-006,-1.22015
,,,-2.50629e-006,-1.22029
,,,-2.50609e-006,-1.22742
,,,-2.50589e-006,-1.23655
,,,-2.50569e-006,-1.24426
,,,-2.50549e-006,-1.24373
,,,-2.50529e-006,-1.24506
,,,-2.50509e-006,-1.25394
,,,-2.50489e-006,-1.251
,,,-2.50469e-006,-1.25722
,,,-2.50449e-006,-1.26817
,,,-2.50429e-006,-1.26629
,,,-2.50409e-006,-1.27148
,,,-2.50389e-006,-1.25722
,,,-2.50369e-006,-1.28182
,,,-2.50349e-006,-1.2727
,,,-2.50329e-006,-1.28033
,,,-2.50309e-006,-1.27347
,,,-2.50289e-006,-1.27583
,,,-2.50269e-006,-1.28302
,,,-2.50249e-006,-1.28033
,,,-2.50229e-006,-1.28718
,,,-2.50209e-006,-1.28182
,,,-2.50189e-006,-1.28759
,,,-2.50169e-006,-1.28696
,,,-2.50149e-006,-1.28718
,,,-2.50129e-006,-1.29073
,,,-2.50109e-006,-1.28302
,,,-2.50089e-006,-1.28696
,,,-2.50069e-006,-1.27844
,,,-2.50049e-006,-1.29073
,,,-2.50029e-006,-1.28302
,,,-2.50009e-006,-1.27148
,,,-2.49989e-006,-1.27347
,,,-2.49969e-006,-1.25935
,,,-2.49949e-006,-1.24443
,,,-2.49929e-006,-1.24426
,,,-2.49909e-006,-1.24373
,,,-2.49889e-006,-1.24506
,,,-2.49869e-006,-1.23655
,,,-2.49849e-006,-1.25738
,,,-2.49829e-006,-1.23086
,,,-2.49809e-006,-1.2515
,,,-2.49789e-006,-1.25394
,,,-2.49769e-006,-1.26523
,,,-2.49749e-006,-1.25722
,,,-2.49729e-006,-1.26817
,,,-2.49709e-006,-1.25844
,,,-2.49689e-006,-1.28033
,,,-2.49669e-006,-1.28718
,,,-2.49649e-006,-1.28182
,,,-2.49629e-006,-1.28302
,,,-2.49609e-006,-1.2952
,,,-2.49589e-006,-1.28718
,,,-2.49569e-006,-1.28182
,,,-2.49549e-006,-1.28302
,,,-2.49529e-006,-1.2952
,,,-2.49509e-006,-1.27347
,,,-2.49489e-006,-1.29683
,,,-2.49469e-006,-1.28302
,,,-2.49449e-006,-1.26523
,,,-2.49429e-006,-1.27844
,,,-2.49409e-006,-1.26817
,,,-2.49389e-006,-1.25844
,,,-2.49369e-006,-1.251
,,,-2.49349e-006,-1.25722
,,,-2.49329e-006,-1.2515
,,,-2.49309e-006,-1.22867
,,,-2.49289e-006,-1.22489
,,,-2.49269e-006,-1.20711
,,,-2.49249e-006,-1.2121
,,,-2.49229e-006,-1.19035
,,,-2.49209e-006,-1.20009
,,,-2.49189e-006,-1.18977
,,,-2.49169e-006,-1.18641
,,,-2.49149e-006,-1.17798
,,,-2.49129e-006,-1.17088
,,,-2.49109e-006,-1.15437
,,,-2.49089e-006,-1.17396
,,,-2.49069e-006,-1.15773
,,,-2.49049e-006,-1.15767
,,,-2.49029e-006,-1.16838
,,,-2.49009e-006,-1.1691
,,,-2.48989e-006,-1.16405
,,,-2.48969e-006,-1.16308
,,,-2.48949e-006,-1.16081
,,,-2.48929e-006,-1.14988
,,,-2.48909e-006,-1.15773
,,,-2.48889e-006,-1.15767
,,,-2.48869e-006,-1.15437
,,,-2.48849e-006,-1.1691
,,,-2.48829e-006,-1.15773
,,,-2.48809e-006,-1.14796
,,,-2.48789e-006,-1.15437
,,,-2.48769e-006,-1.15892
,,,-2.48749e-006,-1.16405
,,,-2.48729e-006,-1.16308
,,,-2.48709e-006,-1.17404
,,,-2.48689e-006,-1.1691
,,,-2.48669e-006,-1.16405
,,,-2.48649e-006,-1.17648
,,,-2.48629e-006,-1.18247
,,,-2.48609e-006,-1.17934
,,,-2.48589e-006,-1.17798
,,,-2.48569e-006,-1.17088
,,,-2.48549e-006,-1.18247
,,,-2.48529e-006,-1.18641
,,,-2.48509e-006,-1.1984
,,,-2.48489e-006,-1.20009
,,,-2.48469e-006,-1.19815
,,,-2.48449e-006,-1.20267
,,,-2.48429e-006,-1.19035
,,,-2.48409e-006,-1.21468
,,,-2.48389e-006,-1.20711
,,,-2.48369e-006,-1.18641
,,,-2.48349e-006,-1.2136
,,,-2.48329e-006,-1.23202
,,,-2.48309e-006,-1.21505
,,,-2.48289e-006,-1.2121
,,,-2.48269e-006,-1.20678
,,,-2.48249e-006,-1.22489
,,,-2.48229e-006,-1.23086
,,,-2.48209e-006,-1.23544
,,,-2.48189e-006,-1.22867
,,,-2.48169e-006,-1.23202
,,,-2.48149e-006,-1.23086
,,,-2.48129e-006,-1.23544
,,,-2.48109e-006,-1.22867
,,,-2.48089e-006,-1.24426
,,,-2.48069e-006,-1.24373
,,,-2.48049e-006,-1.2515
,,,-2.48029e-006,-1.22867
,,,-2.48009e-006,-1.25738
,,,-2.47989e-006,-1.23086
,,,-2.47969e-006,-1.2515
,,,-2.47949e-006,-1.24443
,,,-2.47929e-006,-1.27148
,,,-2.47909e-006,-1.24373
,,,-2.47889e-006,-1.24506
,,,-2.47869e-006,-1.25394
,,,-2.47849e-006,-1.27148
,,,-2.47829e-006,-1.25722
,,,-2.47809e-006,-1.25935
,,,-2.47789e-006,-1.2727
,,,-2.47769e-006,-1.26523
,,,-2.47749e-006,-1.27347
,,,-2.47729e-006,-1.28182
,,,-2.47709e-006,-1.28302
,,,-2.47689e-006,-1.28696
,,,-2.47669e-006,-1.30685
,,,-2.47649e-006,-1.31098
,,,-2.47629e-006,-1.31539
,,,-2.47609e-006,-1.32563
,,,-2.47589e-006,-1.32804
,,,-2.47569e-006,-1.34069
,,,-2.47549e-006,-1.35545
,,,-2.47529e-006,-1.36705
,,,-2.47509e-006,-1.35925
,,,-2.47489e-006,-1.38239
,,,-2.47469e-006,-1.36586
,,,-2.47449e-006,-1.38273
,,,-2.47429e-006,-1.39424
,,,-2.47409e-006,-1.39643
,,,-2.47389e-006,-1.39102
,,,-2.47369e-006,-1.39496
,,,-2.47349e-006,-1.39424
,,,-2.47329e-006,-1.39155
,,,-2.47309e-006,-1.39812
,,,-2.47289e-006,-1.40048
,,,-2.47269e-006,-1.37238
,,,-2.47249e-006,-1.38239
,,,-2.47229e-006,-1.38317
,,,-2.47209e-006,-1.40048
,,,-2.47189e-006,-1.39424
,,,-2.47169e-006,-1.39643
,,,-2.47149e-006,-1.39812
,,,-2.47129e-006,-1.38753
,,,-2.47109e-006,-1.39424
,,,-2.47089e-006,-1.39643
,,,-2.47069e-006,-1.39102
,,,-2.47049e-006,-1.38753
,,,-2.47029e-006,-1.38678
,,,-2.47009e-006,-1.37709
,,,-2.46989e-006,-1.38317
,,,-2.46969e-006,-1.38273
,,,-2.46949e-006,-1.37238
,,,-2.46929e-006,-1.3696
,,,-2.46909e-006,-1.36586
,,,-2.46889e-006,-1.35262
,,,-2.46869e-006,-1.35925
,,,-2.46849e-006,-1.35393
,,,-2.46829e-006,-1.34064
,,,-2.46809e-006,-1.35948
,,,-2.46789e-006,-1.33359
,,,-2.46769e-006,-1.32446
,,,-2.46749e-006,-1.32366
,,,-2.46729e-006,-1.30887
,,,-2.46709e-006,-1.30052
,,,-2.46689e-006,-1.31814
,,,-2.46669e-006,-1.29581
,,,-2.46649e-006,-1.30321
,,,-2.46629e-006,-1.27844
,,,-2.46609e-006,-1.28182
,,,-2.46589e-006,-1.2727
,,,-2.46569e-006,-1.27148
,,,-2.46549e-006,-1.26473
,,,-2.46529e-006,-1.26817
,,,-2.46509e-006,-1.26629
,,,-2.46489e-006,-1.25738
,,,-2.46469e-006,-1.24373
,,,-2.46449e-006,-1.25935
,,,-2.46429e-006,-1.25394
,,,-2.46409e-006,-1.251
,,,-2.46389e-006,-1.24956
,,,-2.46369e-006,-1.24506
,,,-2.46349e-006,-1.22867
,,,-2.46329e-006,-1.23202
,,,-2.46309e-006,-1.23682
,,,-2.46289e-006,-1.24506
,,,-2.46269e-006,-1.22867
,,,-2.46249e-006,-1.23202
,,,-2.46229e-006,-1.20711
,,,-2.46209e-006,-1.23544
,,,-2.46189e-006,-1.20678
,,,-2.46169e-006,-1.22015
,,,-2.46149e-006,-1.22029
,,,-2.46129e-006,-1.2121
,,,-2.46109e-006,-1.20678
,,,-2.46089e-006,-1.18372
,,,-2.46069e-006,-1.16081
,,,-2.46049e-006,-1.18641
,,,-2.46029e-006,-1.15773
,,,-2.46009e-006,-1.17088
,,,-2.45989e-006,-1.16838
,,,-2.45969e-006,-1.15892
,,,-2.45949e-006,-1.13514
,,,-2.45929e-006,-1.14796
,,,-2.45909e-006,-1.13226
,,,-2.45889e-006,-1.1289
,,,-2.45869e-006,-1.12618
,,,-2.45849e-006,-1.13162
,,,-2.45829e-006,-1.1102
,,,-2.45809e-006,-1.13717
,,,-2.45789e-006,-1.118
,,,-2.45769e-006,-1.14
,,,-2.45749e-006,-1.13226
,,,-2.45729e-006,-1.14988
,,,-2.45709e-006,-1.13015
,,,-2.45689e-006,-1.15767
,,,-2.45669e-006,-1.16838
,,,-2.45649e-006,-1.15892
,,,-2.45629e-006,-1.18272
,,,-2.45609e-006,-1.17088
,,,-2.45589e-006,-1.18247
,,,-2.45569e-006,-1.20267
,,,-2.45549e-006,-1.1984
,,,-2.45529e-006,-1.22489
,,,-2.45509e-006,-1.23682
,,,-2.45489e-006,-1.22742
,,,-2.45469e-006,-1.23655
,,,-2.45449e-006,-1.24426
,,,-2.45429e-006,-1.24373
,,,-2.45409e-006,-1.26817
,,,-2.45389e-006,-1.28302
,,,-2.45369e-006,-1.27148
,,,-2.45349e-006,-1.27347
,,,-2.45329e-006,-1.26817
,,,-2.45309e-006,-1.28302
,,,-2.45289e-006,-1.28033
,,,-2.45269e-006,-1.27844
,,,-2.45249e-006,-1.29683
,,,-2.45229e-006,-1.29581
,,,-2.45209e-006,-1.30321
,,,-2.45189e-006,-1.30685
,,,-2.45169e-006,-1.30535
,,,-2.45149e-006,-1.30987
,,,-2.45129e-006,-1.31733
,,,-2.45109e-006,-1.30685
,,,-2.45089e-006,-1.30535
,,,-2.45069e-006,-1.30283
,,,-2.45049e-006,-1.31733
,,,-2.45029e-006,-1.30685
,,,-2.45009e-006,-1.32446
,,,-2.44989e-006,-1.30987
,,,-2.44969e-006,-1.31733
,,,-2.44949e-006,-1.30052
,,,-2.44929e-006,-1.31098
,,,-2.44909e-006,-1.30987
,,,-2.44889e-006,-1.30887
,,,-2.44869e-006,-1.30685
,,,-2.44849e-006,-1.30535
,,,-2.44829e-006,-1.29581
,,,-2.44809e-006,-1.30321
,,,-2.44789e-006,-1.28718
,,,-2.44769e-006,-1.29073
,,,-2.44749e-006,-1.28759
,,,-2.44729e-006,-1.28696
,,,-2.44709e-006,-1.27844
,,,-2.44689e-006,-1.27583
,,,-2.44669e-006,-1.28302
,,,-2.44649e-006,-1.28696
,,,-2.44629e-006,-1.27347
,,,-2.44609e-006,-1.27583
,,,-2.44589e-006,-1.28302
,,,-2.44569e-006,-1.28033
,,,-2.44549e-006,-1.27347
,,,-2.44529e-006,-1.27583
,,,-2.44509e-006,-1.2727
,,,-2.44489e-006,-1.28033
,,,-2.44469e-006,-1.27347
,,,-2.44449e-006,-1.29073
,,,-2.44429e-006,-1.2727
,,,-2.44409e-006,-1.28033
,,,-2.44389e-006,-1.28718
,,,-2.44369e-006,-1.29073
,,,-2.44349e-006,-1.28759
,,,-2.44329e-006,-1.28033
,,,-2.44309e-006,-1.28718
,,,-2.44289e-006,-1.29683
,,,-2.44269e-006,-1.28759
,,,-2.44249e-006,-1.2952
,,,-2.44229e-006,-1.28718
,,,-2.44209e-006,-1.30535
,,,-2.44189e-006,-1.29581
,,,-2.44169e-006,-1.32563
,,,-2.44149e-006,-1.32804
,,,-2.44129e-006,-1.34069
,,,-2.44109e-006,-1.35545
,,,-2.44089e-006,-1.35262
,,,-2.44069e-006,-1.35163
,,,-2.44049e-006,-1.39155
,,,-2.44029e-006,-1.39102
,,,-2.44009e-006,-1.39496
,,,-2.43989e-006,-1.40842
,,,-2.43969e-006,-1.43031
,,,-2.43949e-006,-1.43466
,,,-2.43929e-006,-1.45597
,,,-2.43909e-006,-1.46221
,,,-2.43889e-006,-1.46143
,,,-2.43869e-006,-1.47641
,,,-2.43849e-006,-1.47328
,,,-2.43829e-006,-1.47472
,,,-2.43809e-006,-1.49006
,,,-2.43789e-006,-1.49642
,,,-2.43769e-006,-1.49353
,,,-2.43749e-006,-1.48219
,,,-2.43729e-006,-1.4983
,,,-2.43709e-006,-1.48898
,,,-2.43689e-006,-1.49353
,,,-2.43669e-006,-1.48219
,,,-2.43649e-006,-1.49006
,,,-2.43629e-006,-1.48513
,,,-2.43609e-006,-1.4871
,,,-2.43589e-006,-1.48968
,,,-2.43569e-006,-1.47736
,,,-2.43549e-006,-1.47641
,,,-2.43529e-006,-1.46529
,,,-2.43509e-006,-1.45622
,,,-2.43489e-006,-1.45203
,,,-2.43469e-006,-1.47641
,,,-2.43449e-006,-1.46529
,,,-2.43429e-006,-1.45622
,,,-2.43409e-006,-1.46143
,,,-2.43389e-006,-1.42653
,,,-2.43369e-006,-1.43139
,,,-2.43349e-006,-1.42431
,,,-2.43329e-006,-1.43031
,,,-2.43309e-006,-1.41851
,,,-2.43289e-006,-1.4247
,,,-2.43269e-006,-1.39993
,,,-2.43249e-006,-1.40278
,,,-2.43229e-006,-1.39812
,,,-2.43209e-006,-1.39496
,,,-2.43189e-006,-1.38678
,,,-2.43169e-006,-1.38239
,,,-2.43149e-006,-1.37557
,,,-2.43129e-006,-1.38273
,,,-2.43109e-006,-1.37238
,,,-2.43089e-006,-1.361
,,,-2.43069e-006,-1.37557
,,,-2.43049e-006,-1.37418
,,,-2.43029e-006,-1.36638
,,,-2.43009e-006,-1.361
,,,-2.42989e-006,-1.36011
,,,-2.42969e-006,-1.37418
,,,-2.42949e-006,-1.34397
,,,-2.42929e-006,-1.3696
,,,-2.42909e-006,-1.36011
,,,-2.42889e-006,-1.37418
,,,-2.42869e-006,-1.35925
,,,-2.42849e-006,-1.37709
,,,-2.42829e-006,-1.35545
,,,-2.42809e-006,-1.37418
,,,-2.42789e-006,-1.36638
,,,-2.42769e-006,-1.40808
,,,-2.42749e-006,-1.39812
,,,-2.42729e-006,-1.38753
,,,-2.42709e-006,-1.40842
,,,-2.42689e-006,-1.42176
,,,-2.42669e-006,-1.42653
,,,-2.42649e-006,-1.43139
,,,-2.42629e-006,-1.43297
,,,-2.42609e-006,-1.44745
,,,-2.42589e-006,-1.44268
,,,-2.42569e-006,-1.45597
,,,-2.42549e-006,-1.45622
,,,-2.42529e-006,-1.46867
,,,-2.42509e-006,-1.46235
,,,-2.42489e-006,-1.46529
,,,-2.42469e-006,-1.46221
,,,-2.42449e-006,-1.46867
,,,-2.42429e-006,-1.47641
,,,-2.42409e-006,-1.47328
,,,-2.42389e-006,-1.45622
,,,-2.42369e-006,-1.47736
,,,-2.42349e-006,-1.46235
,,,-2.42329e-006,-1.46529
,,,-2.42309e-006,-1.45622
,,,-2.42289e-006,-1.43857
,,,-2.42269e-006,-1.43466
,,,-2.42249e-006,-1.43139
,,,-2.42229e-006,-1.41593
,,,-2.42209e-006,-1.40278
,,,-2.42189e-006,-1.37557
,,,-2.42169e-006,-1.36705
,,,-2.42149e-006,-1.34397
,,,-2.42129e-006,-1.34069
,,,-2.42109e-006,-1.30987
,,,-2.42089e-006,-1.30321
,,,-2.42069e-006,-1.27347
,,,-2.42049e-006,-1.27583
,,,-2.42029e-006,-1.24443
,,,-2.42009e-006,-1.22489
,,,-2.41989e-006,-1.21505
,,,-2.41969e-006,-1.18641
,,,-2.41949e-006,-1.18272
,,,-2.41929e-006,-1.16308
,,,-2.41909e-006,-1.14566
,,,-2.41889e-006,-1.14988
,,,-2.41869e-006,-1.13015
,,,-2.41849e-006,-1.11129
,,,-2.41829e-006,-1.09919
,,,-2.41809e-006,-1.09092
,,,-2.41789e-006,-1.08224
,,,-2.41769e-006,-1.07294
,,,-2.41749e-006,-1.07028
,,,-2.41729e-006,-1.07122
,,,-2.41709e-006,-1.05652
,,,-2.41689e-006,-1.04528
,,,-2.41669e-006,-1.03388
,,,-2.41649e-006,-1.05688
,,,-2.41629e-006,-1.02206
,,,-2.41609e-006,-1.04528
,,,-2.41589e-006,-1.03388
,,,-2.41569e-006,-1.03502
,,,-2.41549e-006,-1.02206
,,,-2.41529e-006,-1.02711
,,,-2.41509e-006,-1.02653
,,,-2.41489e-006,-1.02664
,,,-2.41469e-006,-1.03419
,,,-2.41449e-006,-1.02711
,,,-2.41429e-006,-1.04268
,,,-2.41409e-006,-1.03502
,,,-2.41389e-006,-1.05133
,,,-2.41369e-006,-1.05832
,,,-2.41349e-006,-1.05655
,,,-2.41329e-006,-1.06282
,,,-2.41309e-006,-1.08224
,,,-2.41289e-006,-1.09497
,,,-2.41269e-006,-1.09919
,,,-2.41249e-006,-1.1289
,,,-2.41229e-006,-1.12618
,,,-2.41209e-006,-1.14796
,,,-2.41189e-006,-1.15437
,,,-2.41169e-006,-1.17396
,,,-2.41149e-006,-1.19035
,,,-2.41129e-006,-1.18955
,,,-2.41109e-006,-1.20711
,,,-2.41089e-006,-1.22742
,,,-2.41069e-006,-1.23655
,,,-2.41049e-006,-1.23849
,,,-2.41029e-006,-1.25722
,,,-2.41009e-006,-1.26817
,,,-2.40989e-006,-1.2727
,,,-2.40969e-006,-1.28033
,,,-2.40949e-006,-1.27347
,,,-2.40929e-006,-1.29073
,,,-2.40909e-006,-1.29581
,,,-2.40889e-006,-1.30321
,,,-2.40869e-006,-1.30685
,,,-2.40849e-006,-1.30535
,,,-2.40829e-006,-1.30987
,,,-2.40809e-006,-1.30321
,,,-2.40789e-006,-1.29373
,,,-2.40769e-006,-1.31098
,,,-2.40749e-006,-1.28759
,,,-2.40729e-006,-1.2952
,,,-2.40709e-006,-1.28718
,,,-2.40689e-006,-1.28182
,,,-2.40669e-006,-1.28302
,,,-2.40649e-006,-1.2952
,,,-2.40629e-006,-1.25722
,,,-2.40609e-006,-1.27583
,,,-2.40589e-006,-1.24443
,,,-2.40569e-006,-1.26523
,,,-2.40549e-006,-1.23682
,,,-2.40529e-006,-1.24506
,,,-2.40509e-006,-1.22248
,,,-2.40489e-006,-1.21468
,,,-2.40469e-006,-1.19815
,,,-2.40449e-006,-1.20267
,,,-2.40429e-006,-1.18272
,,,-2.40409e-006,-1.18372
,,,-2.40389e-006,-1.15437
,,,-2.40369e-006,-1.14988
,,,-2.40349e-006,-1.15051
,,,-2.40329e-006,-1.15767
,,,-2.40309e-006,-1.14566
,,,-2.40289e-006,-1.13717
,,,-2.40269e-006,-1.14394
,,,-2.40249e-006,-1.14796
,,,-2.40229e-006,-1.13939
,,,-2.40209e-006,-1.14466
,,,-2.40189e-006,-1.15773
,,,-2.40169e-006,-1.15767
,,,-2.40149e-006,-1.15437
,,,-2.40129e-006,-1.17396
,,,-2.40109e-006,-1.17057
,,,-2.40089e-006,-1.18955
,,,-2.40069e-006,-1.18247
,,,-2.40049e-006,-1.19438
,,,-2.40029e-006,-1.20678
,,,-2.40009e-006,-1.20603
,,,-2.39989e-006,-1.19815
,,,-2.39969e-006,-1.2121
,,,-2.39949e-006,-1.20678
,,,-2.39929e-006,-1.21468
,,,-2.39909e-006,-1.19815
,,,-2.39889e-006,-1.22742
,,,-2.39869e-006,-1.1984
,,,-2.39849e-006,-1.23202
,,,-2.39829e-006,-1.21505
,,,-2.39809e-006,-1.23544
,,,-2.39789e-006,-1.23655
,,,-2.39769e-006,-1.24426
,,,-2.39749e-006,-1.22029
,,,-2.39729e-006,-1.23544
,,,-2.39709e-006,-1.22867
,,,-2.39689e-006,-1.25738
,,,-2.39669e-006,-1.23682
,,,-2.39649e-006,-1.26817
,,,-2.39629e-006,-1.22867
,,,-2.39609e-006,-1.23202
,,,-2.39589e-006,-1.23086
,,,-2.39569e-006,-1.22742
,,,-2.39549e-006,-1.22248
,,,-2.39529e-006,-1.22015
,,,-2.39509e-006,-1.21505
,,,-2.39489e-006,-1.21713
,,,-2.39469e-006,-1.20678
,,,-2.39449e-006,-1.21468
,,,-2.39429e-006,-1.19815
,,,-2.39409e-006,-1.19438
,,,-2.39389e-006,-1.16405
,,,-2.39369e-006,-1.16308
,,,-2.39349e-006,-1.15437
,,,-2.39329e-006,-1.14466
,,,-2.39309e-006,-1.13514
,,,-2.39289e-006,-1.11578
,,,-2.39269e-006,-1.09919
,,,-2.39249e-006,-1.08418
,,,-2.39229e-006,-1.07405
,,,-2.39209e-006,-1.05266
,,,-2.39189e-006,-1.04781
,,,-2.39169e-006,-1.04232
,,,-2.39149e-006,-1.01335
,,,-2.39129e-006,-1.01424
,,,-2.39109e-006,-1.00705
,,,-2.39089e-006,-0.982446
,,,-2.39069e-006,-0.985248
,,,-2.39049e-006,-0.99432
,,,-2.39029e-006,-0.986719
,,,-2.39009e-006,-0.972958
,,,-2.38989e-006,-0.97895
,,,-2.38969e-006,-0.972237
,,,-2.38949e-006,-0.979117
,,,-2.38929e-006,-0.964025
,,,-2.38909e-006,-0.97895
,,,-2.38889e-006,-0.988355
,,,-2.38869e-006,-0.986719
,,,-2.38849e-006,-0.997039
,,,-2.38829e-006,-0.993543
,,,-2.38809e-006,-1.00733
,,,-2.38789e-006,-1.01349
,,,-2.38769e-006,-1.01296
,,,-2.38749e-006,-1.01335
,,,-2.38729e-006,-1.03283
,,,-2.38709e-006,-1.04268
,,,-2.38689e-006,-1.05688
,,,-2.38669e-006,-1.05133
,,,-2.38649e-006,-1.05266
,,,-2.38629e-006,-1.06315
,,,-2.38609e-006,-1.05688
,,,-2.38589e-006,-1.06581
,,,-2.38569e-006,-1.08646
,,,-2.38549e-006,-1.07694
,,,-2.38529e-006,-1.08418
,,,-2.38509e-006,-1.08826
,,,-2.38489e-006,-1.09497
,,,-2.38469e-006,-1.0904
,,,-2.38449e-006,-1.10049
,,,-2.38429e-006,-1.10463
,,,-2.38409e-006,-1.09497
,,,-2.38389e-006,-1.09919
,,,-2.38369e-006,-1.11603
,,,-2.38349e-006,-1.10463
,,,-2.38329e-006,-1.12402
,,,-2.38309e-006,-1.13226
,,,-2.38289e-006,-1.1289
,,,-2.38269e-006,-1.13514
,,,-2.38249e-006,-1.13162
,,,-2.38229e-006,-1.13226
,,,-2.38209e-006,-1.1289
,,,-2.38189e-006,-1.15051
,,,-2.38169e-006,-1.14796
,,,-2.38149e-006,-1.14566
,,,-2.38129e-006,-1.14988
,,,-2.38109e-006,-1.15051
,,,-2.38089e-006,-1.15767
,,,-2.38069e-006,-1.14566
,,,-2.38049e-006,-1.15892
,,,-2.38029e-006,-1.15051
,,,-2.38009e-006,-1.16308
,,,-2.37989e-006,-1.15437
,,,-2.37969e-006,-1.16342
,,,-2.37949e-006,-1.17057
,,,-2.37929e-006,-1.17648
,,,-2.37909e-006,-1.16838
,,,-2.37889e-006,-1.15892
,,,-2.37869e-006,-1.15051
,,,-2.37849e-006,-1.14796
,,,-2.37829e-006,-1.16081
,,,-2.37809e-006,-1.16342
,,,-2.37789e-006,-1.15773
,,,-2.37769e-006,-1.14796
,,,-2.37749e-006,-1.14566
,,,-2.37729e-006,-1.14466
,,,-2.37709e-006,-1.11298
,,,-2.37689e-006,-1.14
,,,-2.37669e-006,-1.12427
,,,-2.37649e-006,-1.12183
,,,-2.37629e-006,-1.09653
,,,-2.37609e-006,-1.11129
,,,-2.37589e-006,-1.09919
,,,-2.37569e-006,-1.08418
,,,-2.37549e-006,-1.09653
,,,-2.37529e-006,-1.07819
,,,-2.37509e-006,-1.07694
,,,-2.37489e-006,-1.07122
,,,-2.37469e-006,-1.06581
,,,-2.37449e-006,-1.05832
,,,-2.37429e-006,-1.06315
,,,-2.37409e-006,-1.06282
,,,-2.37389e-006,-1.05652
,,,-2.37369e-006,-1.05832
,,,-2.37349e-006,-1.06315
,,,-2.37329e-006,-1.06282
,,,-2.37309e-006,-1.06581
,,,-2.37289e-006,-1.07294
,,,-2.37269e-006,-1.07694
,,,-2.37249e-006,-1.07122
,,,-2.37229e-006,-1.07405
,,,-2.37209e-006,-1.10041
,,,-2.37189e-006,-1.09919
,,,-2.37169e-006,-1.12183
,,,-2.37149e-006,-1.12618
,,,-2.37129e-006,-1.15767
,,,-2.37109e-006,-1.16838
,,,-2.37089e-006,-1.18641
,,,-2.37069e-006,-1.20678
,,,-2.37049e-006,-1.22015
,,,-2.37029e-006,-1.24956
,,,-2.37009e-006,-1.26817
,,,-2.36989e-006,-1.28302
,,,-2.36969e-006,-1.30887
,,,-2.36949e-006,-1.31456
,,,-2.36929e-006,-1.33343
,,,-2.36909e-006,-1.34644
,,,-2.36889e-006,-1.34114
,,,-2.36869e-006,-1.37238
,,,-2.36849e-006,-1.39155
,,,-2.36829e-006,-1.38317
,,,-2.36809e-006,-1.38273
,,,-2.36789e-006,-1.38678
,,,-2.36769e-006,-1.40808
,,,-2.36749e-006,-1.40534
,,,-2.36729e-006,-1.40767
,,,-2.36709e-006,-1.40842
,,,-2.36689e-006,-1.42176
,,,-2.36669e-006,-1.40534
,,,-2.36649e-006,-1.41363
,,,-2.36629e-006,-1.40842
,,,-2.36609e-006,-1.42176
,,,-2.36589e-006,-1.40534
,,,-2.36569e-006,-1.40048
,,,-2.36549e-006,-1.39993
,,,-2.36529e-006,-1.40278
,,,-2.36509e-006,-1.39102
,,,-2.36489e-006,-1.38753
,,,-2.36469e-006,-1.39993
,,,-2.36449e-006,-1.40278
,,,-2.36429e-006,-1.38317
,,,-2.36409e-006,-1.38273
,,,-2.36389e-006,-1.39424
,,,-2.36369e-006,-1.37709
,,,-2.36349e-006,-1.36586
,,,-2.36329e-006,-1.36705
,,,-2.36309e-006,-1.36638
,,,-2.36289e-006,-1.34838
,,,-2.36269e-006,-1.34064
,,,-2.36249e-006,-1.34114
,,,-2.36229e-006,-1.31967
,,,-2.36209e-006,-1.33343
,,,-2.36189e-006,-1.31539
,,,-2.36169e-006,-1.30887
,,,-2.36149e-006,-1.30052
,,,-2.36129e-006,-1.29683
,,,-2.36109e-006,-1.26629
,,,-2.36089e-006,-1.27148
,,,-2.36069e-006,-1.26473
,,,-2.36049e-006,-1.25935
,,,-2.36029e-006,-1.23655
,,,-2.36009e-006,-1.23849
,,,-2.35989e-006,-1.23682
,,,-2.35969e-006,-1.24506
,,,-2.35949e-006,-1.22248
,,,-2.35929e-006,-1.22015
,,,-2.35909e-006,-1.22029
,,,-2.35889e-006,-1.22742
,,,-2.35869e-006,-1.22248
,,,-2.35849e-006,-1.21468
,,,-2.35829e-006,-1.19815
,,,-2.35809e-006,-1.21713
,,,-2.35789e-006,-1.20678
,,,-2.35769e-006,-1.21468
,,,-2.35749e-006,-1.21505
,,,-2.35729e-006,-1.2121
