data/2013_03_25/HF_box_capa/C2hf10mVbox200mV00008.txt

"Record Length",25001,"Points",-2.51006e-006,-0.991719
"Sample Interval",2e-010,s,-2.50986e-006,-0.959647
"Trigger Point",12550,"Samples",-2.50966e-006,-0.968165
"Trigger Time",0.319083,s,-2.50946e-006,-0.977237
,,,-2.50926e-006,-0.975544
"Horizontal Offset",-2.51006e-006,s,-2.50906e-006,-0.977958
,,,-2.50886e-006,-0.976266
,,,-2.50866e-006,-0.977237
,,,-2.50846e-006,-0.975544
,,,-2.50826e-006,-0.969025
,,,-2.50806e-006,-0.968165
,,,-2.50786e-006,-0.983728
,,,-2.50766e-006,-0.975544
,,,-2.50746e-006,-0.987446
,,,-2.50726e-006,-0.968165
,,,-2.50706e-006,-0.977237
,,,-2.50686e-006,-0.984117
,,,-2.50666e-006,-0.969025
,,,-2.50646e-006,-0.976266
,,,-2.50626e-006,-0.960313
,,,-2.50606e-006,-0.967582
,,,-2.50586e-006,-0.987446
,,,-2.50566e-006,-0.976266
,,,-2.50546e-006,-0.983728
,,,-2.50526e-006,-0.975544
,,,-2.50506e-006,-0.977958
,,,-2.50486e-006,-0.976266
,,,-2.50466e-006,-0.983728
,,,-2.50446e-006,-0.975544
,,,-2.50426e-006,-0.977958
,,,-2.50406e-006,-0.976266
,,,-2.50386e-006,-0.977237
,,,-2.50366e-006,-0.975544
,,,-2.50346e-006,-0.987446
,,,-2.50326e-006,-0.976266
,,,-2.50306e-006,-0.977237
,,,-2.50286e-006,-0.975544
,,,-2.50266e-006,-0.977958
,,,-2.50246e-006,-0.968165
,,,-2.50226e-006,-0.977237
,,,-2.50206e-006,-0.984117
,,,-2.50186e-006,-1.00204
,,,-2.50166e-006,-0.98395
,,,-2.50146e-006,-0.99932
,,,-2.50126e-006,-0.984117
,,,-2.50106e-006,-0.987446
,,,-2.50086e-006,-0.990248
,,,-2.50066e-006,-0.993355
,,,-2.50046e-006,-0.991719
,,,-2.50026e-006,-0.992495
,,,-2.50006e-006,-0.968165
,,,-2.49986e-006,-0.993355
,,,-2.49966e-006,-0.991719
,,,-2.49946e-006,-0.977958
,,,-2.49926e-006,-0.98395
,,,-2.49906e-006,-0.983728
,,,-2.49886e-006,-0.975544
,,,-2.49866e-006,-0.977958
,,,-2.49846e-006,-0.976266
,,,-2.49826e-006,-0.993355
,,,-2.49806e-006,-0.991719
,,,-2.49786e-006,-0.977958
,,,-2.49766e-006,-0.976266
,,,-2.49746e-006,-0.99932
,,,-2.49726e-006,-0.984117
,,,-2.49706e-006,-0.977958
,,,-2.49686e-006,-0.968165
,,,-2.49666e-006,-0.977237
,,,-2.49646e-006,-0.984117
,,,-2.49626e-006,-1.00204
,,,-2.49606e-006,-0.990248
,,,-2.49586e-006,-0.983728
,,,-2.49566e-006,-1.00653
,,,-2.49546e-006,-1.00204
,,,-2.49526e-006,-0.998543
,,,-2.49506e-006,-0.99932
,,,-2.49486e-006,-0.991719
,,,-2.49466e-006,-0.987446
,,,-2.49446e-006,-0.998543
,,,-2.49426e-006,-0.99932
,,,-2.49406e-006,-0.991719
,,,-2.49386e-006,-1.00204
,,,-2.49366e-006,-1.00426
,,,-2.49346e-006,-0.99932
,,,-2.49326e-006,-1.00653
,,,-2.49306e-006,-1.0092
,,,-2.49286e-006,-1.01122
,,,-2.49266e-006,-1.00481
,,,-2.49246e-006,-1.01205
,,,-2.49226e-006,-1.0092
,,,-2.49206e-006,-1.01122
,,,-2.49186e-006,-1.01924
,,,-2.49166e-006,-1.01849
,,,-2.49146e-006,-1.03164
,,,-2.49126e-006,-1.03919
,,,-2.49106e-006,-1.01924
,,,-2.49086e-006,-1.0239
,,,-2.49066e-006,-1.02396
,,,-2.49046e-006,-1.01835
,,,-2.49026e-006,-1.01924
,,,-2.49006e-006,-1.01849
,,,-2.48986e-006,-1.01796
,,,-2.48966e-006,-1.02706
,,,-2.48946e-006,-1.0254
,,,-2.48926e-006,-1.04768
,,,-2.48906e-006,-1.03164
,,,-2.48886e-006,-1.03134
,,,-2.48866e-006,-1.0254
,,,-2.48846e-006,-1.04768
,,,-2.48826e-006,-1.03164
,,,-2.48806e-006,-1.03919
,,,-2.48786e-006,-1.0254
,,,-2.48766e-006,-1.03153
,,,-2.48746e-006,-1.03164
,,,-2.48726e-006,-1.03134
,,,-2.48706e-006,-1.05766
,,,-2.48686e-006,-1.03888
,,,-2.48666e-006,-1.0532
,,,-2.48646e-006,-1.06152
,,,-2.48626e-006,-1.05028
,,,-2.48606e-006,-1.05281
,,,-2.48586e-006,-1.06188
,,,-2.48566e-006,-1.06152
,,,-2.48546e-006,-1.07794
,,,-2.48526e-006,-1.06155
,,,-2.48506e-006,-1.06782
,,,-2.48486e-006,-1.07081
,,,-2.48466e-006,-1.07065
,,,-2.48446e-006,-1.06815
,,,-2.48426e-006,-1.07622
,,,-2.48406e-006,-1.07905
,,,-2.48386e-006,-1.07794
,,,-2.48366e-006,-1.07528
,,,-2.48346e-006,-1.06782
,,,-2.48326e-006,-1.07081
,,,-2.48306e-006,-1.08319
,,,-2.48286e-006,-1.08194
,,,-2.48266e-006,-1.08177
,,,-2.48246e-006,-1.07905
,,,-2.48226e-006,-1.08319
,,,-2.48206e-006,-1.0954
,,,-2.48186e-006,-1.08177
,,,-2.48166e-006,-1.07905
,,,-2.48146e-006,-1.09146
,,,-2.48126e-006,-1.08996
,,,-2.48106e-006,-1.08918
,,,-2.48086e-006,-1.07905
,,,-2.48066e-006,-1.07794
,,,-2.48046e-006,-1.07528
,,,-2.48026e-006,-1.07622
,,,-2.48006e-006,-1.07081
,,,-2.47986e-006,-1.07794
,,,-2.47966e-006,-1.06815
,,,-2.47946e-006,-1.08177
,,,-2.47926e-006,-1.07081
,,,-2.47906e-006,-1.07794
,,,-2.47886e-006,-1.07528
,,,-2.47866e-006,-1.07622
,,,-2.47846e-006,-1.07081
,,,-2.47826e-006,-1.07794
,,,-2.47806e-006,-1.07528
,,,-2.47786e-006,-1.06188
,,,-2.47766e-006,-1.07081
,,,-2.47746e-006,-1.09146
,,,-2.47726e-006,-1.06815
,,,-2.47706e-006,-1.07622
,,,-2.47686e-006,-1.07905
,,,-2.47666e-006,-1.07794
,,,-2.47646e-006,-1.07528
,,,-2.47626e-006,-1.07622
,,,-2.47606e-006,-1.07905
,,,-2.47586e-006,-1.07794
,,,-2.47566e-006,-1.07528
,,,-2.47546e-006,-1.07622
,,,-2.47526e-006,-1.07081
,,,-2.47506e-006,-1.09146
,,,-2.47486e-006,-1.08194
,,,-2.47466e-006,-1.08177
,,,-2.47446e-006,-1.07081
,,,-2.47426e-006,-1.09997
,,,-2.47406e-006,-1.0954
,,,-2.47386e-006,-1.08918
,,,-2.47366e-006,-1.08724
,,,-2.47346e-006,-1.09146
,,,-2.47326e-006,-1.08194
,,,-2.47306e-006,-1.09592
,,,-2.47286e-006,-1.09326
,,,-2.47266e-006,-1.09146
,,,-2.47246e-006,-1.0954
,,,-2.47226e-006,-1.10549
,,,-2.47206e-006,-1.09326
,,,-2.47186e-006,-1.10541
,,,-2.47166e-006,-1.08194
,,,-2.47146e-006,-1.09592
,,,-2.47126e-006,-1.09326
,,,-2.47106e-006,-1.09146
,,,-2.47086e-006,-1.10419
,,,-2.47066e-006,-1.11298
,,,-2.47046e-006,-1.10153
,,,-2.47026e-006,-1.11629
,,,-2.47006e-006,-1.10419
,,,-2.46986e-006,-1.12103
,,,-2.46966e-006,-1.10963
,,,-2.46946e-006,-1.11629
,,,-2.46926e-006,-1.11015
,,,-2.46906e-006,-1.12103
,,,-2.46886e-006,-1.10153
,,,-2.46866e-006,-1.10541
,,,-2.46846e-006,-1.12103
,,,-2.46826e-006,-1.11298
,,,-2.46806e-006,-1.10963
,,,-2.46786e-006,-1.11629
,,,-2.46766e-006,-1.12927
,,,-2.46746e-006,-1.12103
,,,-2.46726e-006,-1.13118
,,,-2.46706e-006,-1.13662
,,,-2.46686e-006,-1.12103
,,,-2.46666e-006,-1.1339
,,,-2.46646e-006,-1.123
,,,-2.46626e-006,-1.13662
,,,-2.46606e-006,-1.13726
,,,-2.46586e-006,-1.1339
,,,-2.46566e-006,-1.13118
,,,-2.46546e-006,-1.12902
,,,-2.46526e-006,-1.12927
,,,-2.46506e-006,-1.12683
,,,-2.46486e-006,-1.13118
,,,-2.46466e-006,-1.145
,,,-2.46446e-006,-1.13726
,,,-2.46426e-006,-1.14217
,,,-2.46406e-006,-1.13118
,,,-2.46386e-006,-1.13662
,,,-2.46366e-006,-1.12927
,,,-2.46346e-006,-1.12683
,,,-2.46326e-006,-1.14894
,,,-2.46306e-006,-1.16267
,,,-2.46286e-006,-1.13726
,,,-2.46266e-006,-1.14217
,,,-2.46246e-006,-1.13118
,,,-2.46226e-006,-1.145
,,,-2.46206e-006,-1.13726
,,,-2.46186e-006,-1.14966
,,,-2.46166e-006,-1.16273
,,,-2.46146e-006,-1.16267
,,,-2.46126e-006,-1.14439
,,,-2.46106e-006,-1.16842
,,,-2.46086e-006,-1.16273
,,,-2.46066e-006,-1.16267
,,,-2.46046e-006,-1.15066
,,,-2.46026e-006,-1.16392
,,,-2.46006e-006,-1.15551
,,,-2.45986e-006,-1.17588
,,,-2.45966e-006,-1.15937
,,,-2.45946e-006,-1.14966
,,,-2.45926e-006,-1.16273
,,,-2.45906e-006,-1.16267
,,,-2.45886e-006,-1.15937
,,,-2.45866e-006,-1.16392
,,,-2.45846e-006,-1.16905
,,,-2.45826e-006,-1.17588
,,,-2.45806e-006,-1.16581
,,,-2.45786e-006,-1.17896
,,,-2.45766e-006,-1.16905
,,,-2.45746e-006,-1.16267
,,,-2.45726e-006,-1.16581
,,,-2.45706e-006,-1.16392
,,,-2.45686e-006,-1.16273
,,,-2.45666e-006,-1.16808
,,,-2.45646e-006,-1.15066
,,,-2.45626e-006,-1.16392
,,,-2.45606e-006,-1.15551
,,,-2.45586e-006,-1.16267
,,,-2.45566e-006,-1.14439
,,,-2.45546e-006,-1.14966
,,,-2.45526e-006,-1.14894
,,,-2.45506e-006,-1.145
,,,-2.45486e-006,-1.14439
,,,-2.45466e-006,-1.15488
,,,-2.45446e-006,-1.14014
,,,-2.45426e-006,-1.13662
,,,-2.45406e-006,-1.12927
,,,-2.45386e-006,-1.14217
,,,-2.45366e-006,-1.13515
,,,-2.45346e-006,-1.13662
,,,-2.45326e-006,-1.14439
,,,-2.45306e-006,-1.14966
,,,-2.45286e-006,-1.13118
,,,-2.45266e-006,-1.12902
,,,-2.45246e-006,-1.12927
,,,-2.45226e-006,-1.14217
,,,-2.45206e-006,-1.13515
,,,-2.45186e-006,-1.12902
,,,-2.45166e-006,-1.1152
,,,-2.45146e-006,-1.12683
,,,-2.45126e-006,-1.11798
,,,-2.45106e-006,-1.12902
,,,-2.45086e-006,-1.12927
,,,-2.45066e-006,-1.12683
,,,-2.45046e-006,-1.123
,,,-2.45026e-006,-1.12902
,,,-2.45006e-006,-1.11015
,,,-2.44986e-006,-1.11298
,,,-2.44966e-006,-1.10963
,,,-2.44946e-006,-1.11629
,,,-2.44926e-006,-1.1152
,,,-2.44906e-006,-1.11298
,,,-2.44886e-006,-1.10963
,,,-2.44866e-006,-1.11629
,,,-2.44846e-006,-1.12103
,,,-2.44826e-006,-1.11298
,,,-2.44806e-006,-1.13118
,,,-2.44786e-006,-1.12078
,,,-2.44766e-006,-1.1152
,,,-2.44746e-006,-1.11298
,,,-2.44726e-006,-1.11798
,,,-2.44706e-006,-1.11629
,,,-2.44686e-006,-1.12103
,,,-2.44666e-006,-1.11298
,,,-2.44646e-006,-1.11798
,,,-2.44626e-006,-1.12902
,,,-2.44606e-006,-1.1152
,,,-2.44586e-006,-1.12683
,,,-2.44566e-006,-1.10963
,,,-2.44546e-006,-1.12902
,,,-2.44526e-006,-1.12927
,,,-2.44506e-006,-1.12683
,,,-2.44486e-006,-1.11798
,,,-2.44466e-006,-1.145
,,,-2.44446e-006,-1.12927
,,,-2.44426e-006,-1.1339
,,,-2.44406e-006,-1.13118
,,,-2.44386e-006,-1.13662
,,,-2.44366e-006,-1.12927
,,,-2.44346e-006,-1.12683
,,,-2.44326e-006,-1.13118
,,,-2.44306e-006,-1.13662
,,,-2.44286e-006,-1.12927
,,,-2.44266e-006,-1.15488
,,,-2.44246e-006,-1.13118
,,,-2.44226e-006,-1.15296
,,,-2.44206e-006,-1.15066
,,,-2.44186e-006,-1.14966
,,,-2.44166e-006,-1.14014
,,,-2.44146e-006,-1.15296
,,,-2.44126e-006,-1.14439
,,,-2.44106e-006,-1.14217
,,,-2.44086e-006,-1.13515
,,,-2.44066e-006,-1.12902
,,,-2.44046e-006,-1.12927
,,,-2.44026e-006,-1.14217
,,,-2.44006e-006,-1.14894
,,,-2.43986e-006,-1.16267
,,,-2.43966e-006,-1.14439
,,,-2.43946e-006,-1.14966
,,,-2.43926e-006,-1.13515
,,,-2.43906e-006,-1.15296
,,,-2.43886e-006,-1.13726
,,,-2.43866e-006,-1.14966
,,,-2.43846e-006,-1.14894
,,,-2.43826e-006,-1.13662
,,,-2.43806e-006,-1.15066
,,,-2.43786e-006,-1.14966
,,,-2.43766e-006,-1.14894
,,,-2.43746e-006,-1.145
,,,-2.43726e-006,-1.12927
,,,-2.43706e-006,-1.15488
,,,-2.43686e-006,-1.14014
,,,-2.43666e-006,-1.145
,,,-2.43646e-006,-1.13726
,,,-2.43626e-006,-1.1339
,,,-2.43606e-006,-1.123
,,,-2.43586e-006,-1.13662
,,,-2.43566e-006,-1.12927
,,,-2.43546e-006,-1.1339
,,,-2.43526e-006,-1.13118
,,,-2.43506e-006,-1.12902
,,,-2.43486e-006,-1.12927
,,,-2.43466e-006,-1.1339
,,,-2.43446e-006,-1.123
,,,-2.43426e-006,-1.12902
,,,-2.43406e-006,-1.11015
,,,-2.43386e-006,-1.11298
,,,-2.43366e-006,-1.123
,,,-2.43346e-006,-1.11629
,,,-2.43326e-006,-1.11015
,,,-2.43306e-006,-1.10549
,,,-2.43286e-006,-1.09326
,,,-2.43266e-006,-1.10541
,,,-2.43246e-006,-1.10419
,,,-2.43226e-006,-1.10549
,,,-2.43206e-006,-1.10963
,,,-2.43186e-006,-1.09997
,,,-2.43166e-006,-1.0954
,,,-2.43146e-006,-1.09592
,,,-2.43126e-006,-1.10153
,,,-2.43106e-006,-1.09997
,,,-2.43086e-006,-1.0954
,,,-2.43066e-006,-1.11298
,,,-2.43046e-006,-1.10153
,,,-2.43026e-006,-1.11629
,,,-2.43006e-006,-1.10419
,,,-2.42986e-006,-1.09592
,,,-2.42966e-006,-1.09326
,,,-2.42946e-006,-1.09146
,,,-2.42926e-006,-1.10419
,,,-2.42906e-006,-1.11298
,,,-2.42886e-006,-1.10153
,,,-2.42866e-006,-1.09997
,,,-2.42846e-006,-1.10419
,,,-2.42826e-006,-1.10549
,,,-2.42806e-006,-1.10963
,,,-2.42786e-006,-1.11629
,,,-2.42766e-006,-1.10419
,,,-2.42746e-006,-1.10549
,,,-2.42726e-006,-1.10153
,,,-2.42706e-006,-1.10541
,,,-2.42686e-006,-1.10419
,,,-2.42666e-006,-1.11298
,,,-2.42646e-006,-1.10153
,,,-2.42626e-006,-1.12902
,,,-2.42606e-006,-1.10419
,,,-2.42586e-006,-1.11298
,,,-2.42566e-006,-1.10153
,,,-2.42546e-006,-1.11629
,,,-2.42526e-006,-1.08996
,,,-2.42506e-006,-1.11298
,,,-2.42486e-006,-1.10963
,,,-2.42466e-006,-1.11629
,,,-2.42446e-006,-1.1152
,,,-2.42426e-006,-1.12103
,,,-2.42406e-006,-1.11798
,,,-2.42386e-006,-1.11629
,,,-2.42366e-006,-1.1152
,,,-2.42346e-006,-1.11298
,,,-2.42326e-006,-1.10963
,,,-2.42306e-006,-1.11629
,,,-2.42286e-006,-1.10419
,,,-2.42266e-006,-1.11298
,,,-2.42246e-006,-1.123
,,,-2.42226e-006,-1.11629
,,,-2.42206e-006,-1.1152
,,,-2.42186e-006,-1.12103
,,,-2.42166e-006,-1.13118
,,,-2.42146e-006,-1.12902
,,,-2.42126e-006,-1.12103
,,,-2.42106e-006,-1.12683
,,,-2.42086e-006,-1.11798
,,,-2.42066e-006,-1.13662
,,,-2.42046e-006,-1.12927
,,,-2.42026e-006,-1.14217
,,,-2.42006e-006,-1.13118
,,,-2.41986e-006,-1.145
,,,-2.41966e-006,-1.12103
,,,-2.41946e-006,-1.1339
,,,-2.41926e-006,-1.15551
,,,-2.41906e-006,-1.145
,,,-2.41886e-006,-1.14439
,,,-2.41866e-006,-1.14966
,,,-2.41846e-006,-1.13515
,,,-2.41826e-006,-1.13662
,,,-2.41806e-006,-1.13726
,,,-2.41786e-006,-1.14966
,,,-2.41766e-006,-1.13515
,,,-2.41746e-006,-1.145
,,,-2.41726e-006,-1.14439
,,,-2.41706e-006,-1.14217
,,,-2.41686e-006,-1.14014
,,,-2.41666e-006,-1.15296
,,,-2.41646e-006,-1.13726
,,,-2.41626e-006,-1.14217
,,,-2.41606e-006,-1.14014
,,,-2.41586e-006,-1.15296
,,,-2.41566e-006,-1.14439
,,,-2.41546e-006,-1.1741
,,,-2.41526e-006,-1.14894
,,,-2.41506e-006,-1.15296
,,,-2.41486e-006,-1.15066
,,,-2.41466e-006,-1.14966
,,,-2.41446e-006,-1.13118
,,,-2.41426e-006,-1.16267
,,,-2.41406e-006,-1.15066
,,,-2.41386e-006,-1.14217
,,,-2.41366e-006,-1.13515
,,,-2.41346e-006,-1.145
,,,-2.41326e-006,-1.15066
,,,-2.41306e-006,-1.15488
,,,-2.41286e-006,-1.14014
,,,-2.41266e-006,-1.145
,,,-2.41246e-006,-1.12927
,,,-2.41226e-006,-1.14966
,,,-2.41206e-006,-1.13118
,,,-2.41186e-006,-1.12902
,,,-2.41166e-006,-1.12927
,,,-2.41146e-006,-1.14217
,,,-2.41126e-006,-1.123
,,,-2.41106e-006,-1.12078
,,,-2.41086e-006,-1.12103
,,,-2.41066e-006,-1.12103
,,,-2.41046e-006,-1.11798
,,,-2.41026e-006,-1.12078
,,,-2.41006e-006,-1.12927
,,,-2.40986e-006,-1.12683
,,,-2.40966e-006,-1.123
,,,-2.40946e-006,-1.11629
,,,-2.40926e-006,-1.1152
,,,-2.40906e-006,-1.12103
,,,-2.40886e-006,-1.11798
,,,-2.40866e-006,-1.11629
,,,-2.40846e-006,-1.10419
,,,-2.40826e-006,-1.12683
,,,-2.40806e-006,-1.10963
,,,-2.40786e-006,-1.11629
,,,-2.40766e-006,-1.11015
,,,-2.40746e-006,-1.10549
,,,-2.40726e-006,-1.10963
,,,-2.40706e-006,-1.11629
,,,-2.40686e-006,-1.08996
,,,-2.40666e-006,-1.09592
,,,-2.40646e-006,-1.09326
,,,-2.40626e-006,-1.11629
,,,-2.40606e-006,-1.08996
,,,-2.40586e-006,-1.09592
,,,-2.40566e-006,-1.09326
,,,-2.40546e-006,-1.09997
,,,-2.40526e-006,-1.08996
,,,-2.40506e-006,-1.09592
,,,-2.40486e-006,-1.08724
,,,-2.40466e-006,-1.09146
,,,-2.40446e-006,-1.0954
,,,-2.40426e-006,-1.08918
,,,-2.40406e-006,-1.08724
,,,-2.40386e-006,-1.08319
,,,-2.40366e-006,-1.08996
,,,-2.40346e-006,-1.08918
,,,-2.40326e-006,-1.07905
,,,-2.40306e-006,-1.07794
,,,-2.40286e-006,-1.08996
,,,-2.40266e-006,-1.08177
,,,-2.40246e-006,-1.07081
,,,-2.40226e-006,-1.07794
,,,-2.40206e-006,-1.07528
,,,-2.40186e-006,-1.07622
,,,-2.40166e-006,-1.07081
,,,-2.40146e-006,-1.06332
,,,-2.40126e-006,-1.07528
,,,-2.40106e-006,-1.07622
,,,-2.40086e-006,-1.07905
,,,-2.40066e-006,-1.09146
,,,-2.40046e-006,-1.08996
,,,-2.40026e-006,-1.08918
,,,-2.40006e-006,-1.08724
,,,-2.39986e-006,-1.09146
,,,-2.39966e-006,-1.07528
,,,-2.39946e-006,-1.07622
,,,-2.39926e-006,-1.09326
,,,-2.39906e-006,-1.09146
,,,-2.39886e-006,-1.08996
,,,-2.39866e-006,-1.09592
,,,-2.39846e-006,-1.09326
,,,-2.39826e-006,-1.09997
,,,-2.39806e-006,-1.08996
,,,-2.39786e-006,-1.08918
,,,-2.39766e-006,-1.10153
,,,-2.39746e-006,-1.10541
,,,-2.39726e-006,-1.10419
,,,-2.39706e-006,-1.10549
,,,-2.39686e-006,-1.10153
,,,-2.39666e-006,-1.10541
,,,-2.39646e-006,-1.11015
,,,-2.39626e-006,-1.11298
,,,-2.39606e-006,-1.11798
,,,-2.39586e-006,-1.11629
,,,-2.39566e-006,-1.12103
,,,-2.39546e-006,-1.11298
,,,-2.39526e-006,-1.10963
,,,-2.39506e-006,-1.11629
,,,-2.39486e-006,-1.11015
,,,-2.39466e-006,-1.12103
,,,-2.39446e-006,-1.10153
,,,-2.39426e-006,-1.10541
,,,-2.39406e-006,-1.11015
,,,-2.39386e-006,-1.11298
,,,-2.39366e-006,-1.10153
,,,-2.39346e-006,-1.10541
,,,-2.39326e-006,-1.11015
,,,-2.39306e-006,-1.10549
,,,-2.39286e-006,-1.10153
,,,-2.39266e-006,-1.12902
,,,-2.39246e-006,-1.0954
,,,-2.39226e-006,-1.11298
,,,-2.39206e-006,-1.11798
,,,-2.39186e-006,-1.11629
,,,-2.39166e-006,-1.08996
,,,-2.39146e-006,-1.10549
,,,-2.39126e-006,-1.10153
,,,-2.39106e-006,-1.10541
,,,-2.39086e-006,-1.11015
,,,-2.39066e-006,-1.11298
,,,-2.39046e-006,-1.10963
,,,-2.39026e-006,-1.10541
,,,-2.39006e-006,-1.10419
,,,-2.38986e-006,-1.10549
,,,-2.38966e-006,-1.09326
,,,-2.38946e-006,-1.11629
,,,-2.38926e-006,-1.10419
,,,-2.38906e-006,-1.10549
,,,-2.38886e-006,-1.09326
,,,-2.38866e-006,-1.09997
,,,-2.38846e-006,-1.10419
,,,-2.38826e-006,-1.08918
,,,-2.38806e-006,-1.09326
,,,-2.38786e-006,-1.10541
,,,-2.38766e-006,-1.08996
,,,-2.38746e-006,-1.08918
,,,-2.38726e-006,-1.10153
,,,-2.38706e-006,-1.10541
,,,-2.38686e-006,-1.08996
,,,-2.38666e-006,-1.09592
,,,-2.38646e-006,-1.08724
,,,-2.38626e-006,-1.09146
,,,-2.38606e-006,-1.08996
,,,-2.38586e-006,-1.10549
,,,-2.38566e-006,-1.07905
,,,-2.38546e-006,-1.09997
,,,-2.38526e-006,-1.08194
,,,-2.38506e-006,-1.09592
,,,-2.38486e-006,-1.07081
,,,-2.38466e-006,-1.09146
,,,-2.38446e-006,-1.07528
,,,-2.38426e-006,-1.08177
,,,-2.38406e-006,-1.07905
,,,-2.38386e-006,-1.07065
,,,-2.38366e-006,-1.06155
,,,-2.38346e-006,-1.06188
,,,-2.38326e-006,-1.07081
,,,-2.38306e-006,-1.07065
,,,-2.38286e-006,-1.06815
,,,-2.38266e-006,-1.06188
,,,-2.38246e-006,-1.06152
,,,-2.38226e-006,-1.06332
,,,-2.38206e-006,-1.06155
,,,-2.38186e-006,-1.06782
,,,-2.38166e-006,-1.05633
,,,-2.38146e-006,-1.06332
,,,-2.38126e-006,-1.05281
,,,-2.38106e-006,-1.0532
,,,-2.38086e-006,-1.04571
,,,-2.38066e-006,-1.04471
,,,-2.38046e-006,-1.04768
,,,-2.38026e-006,-1.03164
,,,-2.38006e-006,-1.04571
,,,-2.37986e-006,-1.04471
,,,-2.37966e-006,-1.03888
,,,-2.37946e-006,-1.04002
,,,-2.37926e-006,-1.03919
,,,-2.37906e-006,-1.03783
,,,-2.37886e-006,-1.03888
,,,-2.37866e-006,-1.04732
,,,-2.37846e-006,-1.03919
,,,-2.37826e-006,-1.04471
,,,-2.37806e-006,-1.03153
,,,-2.37786e-006,-1.04002
,,,-2.37766e-006,-1.03919
,,,-2.37746e-006,-1.03783
,,,-2.37726e-006,-1.03153
,,,-2.37706e-006,-1.03164
,,,-2.37686e-006,-1.03919
,,,-2.37666e-006,-1.03211
,,,-2.37646e-006,-1.03888
,,,-2.37626e-006,-1.04002
,,,-2.37606e-006,-1.04571
,,,-2.37586e-006,-1.03783
,,,-2.37566e-006,-1.03888
,,,-2.37546e-006,-1.03164
,,,-2.37526e-006,-1.05633
,,,-2.37506e-006,-1.04471
,,,-2.37486e-006,-1.03888
,,,-2.37466e-006,-1.04002
,,,-2.37446e-006,-1.03919
,,,-2.37426e-006,-1.05028
,,,-2.37406e-006,-1.06815
,,,-2.37386e-006,-1.04732
,,,-2.37366e-006,-1.03919
,,,-2.37346e-006,-1.05028
,,,-2.37326e-006,-1.05281
,,,-2.37306e-006,-1.0532
,,,-2.37286e-006,-1.04571
,,,-2.37266e-006,-1.05766
,,,-2.37246e-006,-1.06155
,,,-2.37226e-006,-1.06188
,,,-2.37206e-006,-1.07081
,,,-2.37186e-006,-1.05766
,,,-2.37166e-006,-1.06155
,,,-2.37146e-006,-1.06782
,,,-2.37126e-006,-1.07081
,,,-2.37106e-006,-1.05766
,,,-2.37086e-006,-1.06155
,,,-2.37066e-006,-1.06782
,,,-2.37046e-006,-1.05633
,,,-2.37026e-006,-1.07794
,,,-2.37006e-006,-1.06815
,,,-2.36986e-006,-1.06782
,,,-2.36966e-006,-1.07905
,,,-2.36946e-006,-1.07794
,,,-2.36926e-006,-1.08996
,,,-2.36906e-006,-1.08177
,,,-2.36886e-006,-1.07905
,,,-2.36866e-006,-1.08319
,,,-2.36846e-006,-1.08194
,,,-2.36826e-006,-1.07622
,,,-2.36806e-006,-1.08724
,,,-2.36786e-006,-1.07794
,,,-2.36766e-006,-1.07528
,,,-2.36746e-006,-1.10549
,,,-2.36726e-006,-1.08724
,,,-2.36706e-006,-1.07794
,,,-2.36686e-006,-1.08996
,,,-2.36666e-006,-1.08177
,,,-2.36646e-006,-1.10153
,,,-2.36626e-006,-1.09146
,,,-2.36606e-006,-1.08194
,,,-2.36586e-006,-1.09592
,,,-2.36566e-006,-1.10153
,,,-2.36546e-006,-1.09997
,,,-2.36526e-006,-1.11015
,,,-2.36506e-006,-1.10549
,,,-2.36486e-006,-1.10963
,,,-2.36466e-006,-1.09997
,,,-2.36446e-006,-1.12103
,,,-2.36426e-006,-1.12103
,,,-2.36406e-006,-1.123
,,,-2.36386e-006,-1.11629
,,,-2.36366e-006,-1.1152
,,,-2.36346e-006,-1.12103
,,,-2.36326e-006,-1.123
,,,-2.36306e-006,-1.11629
,,,-2.36286e-006,-1.13726
,,,-2.36266e-006,-1.14217
,,,-2.36246e-006,-1.13118
,,,-2.36226e-006,-1.13662
,,,-2.36206e-006,-1.14439
,,,-2.36186e-006,-1.14966
,,,-2.36166e-006,-1.13515
,,,-2.36146e-006,-1.145
,,,-2.36126e-006,-1.15066
,,,-2.36106e-006,-1.14966
,,,-2.36086e-006,-1.15551
,,,-2.36066e-006,-1.15296
,,,-2.36046e-006,-1.14439
,,,-2.36026e-006,-1.16842
,,,-2.36006e-006,-1.14894
,,,-2.35986e-006,-1.16267
,,,-2.35966e-006,-1.15937
,,,-2.35946e-006,-1.15488
,,,-2.35926e-006,-1.14894
,,,-2.35906e-006,-1.16267
,,,-2.35886e-006,-1.15066
,,,-2.35866e-006,-1.16392
,,,-2.35846e-006,-1.15551
,,,-2.35826e-006,-1.16267
,,,-2.35806e-006,-1.15937
,,,-2.35786e-006,-1.16842
,,,-2.35766e-006,-1.16273
,,,-2.35746e-006,-1.145
