data/2013_05_10/NoCapa/C110mVNoCapa00013.txt

"Record Length",25002,"Points",-2.51004e-006,0.00587659
"Sample Interval",2e-010,s,-2.50984e-006,0.00409562
"Trigger Point",12550,"Samples",-2.50964e-006,-0.00370749
"Trigger Time",0.192333,s,-2.50944e-006,-0.00453225
,,,-2.50924e-006,-0.00205955
"Horizontal Offset",-2.51004e-006,s,-2.50904e-006,0.00173559
,,,-2.50884e-006,0.00320356
,,,-2.50864e-006,-0.00287178
,,,-2.50844e-006,-0.0072757
,,,-2.50824e-006,0.00258069
,,,-2.50804e-006,0.00538831
,,,-2.50784e-006,-0.0025713
,,,-2.50764e-006,-0.00572009
,,,-2.50744e-006,-0.00314409
,,,-2.50724e-006,0.00176845
,,,-2.50704e-006,0.0047044
,,,-2.50684e-006,0.000608787
,,,-2.50664e-006,-0.0124809
,,,-2.50644e-006,-0.00463241
,,,-2.50624e-006,0.0090066
,,,-2.50604e-006,0.000608787
,,,-2.50584e-006,-0.00584372
,,,-2.50564e-006,-0.000629132
,,,-2.50544e-006,-0.00453225
,,,-2.50524e-006,-0.00205955
,,,-2.50504e-006,0.0084745
,,,-2.50484e-006,0.00176845
,,,-2.50464e-006,-0.0116702
,,,-2.50444e-006,-0.00499706
,,,-2.50424e-006,0.00724127
,,,-2.50404e-006,0.00405023
,,,-2.50384e-006,-0.00600336
,,,-2.50364e-006,-0.00572009
,,,-2.50344e-006,0.00019093
,,,-2.50324e-006,0.00245706
,,,-2.50304e-006,0.00246175
,,,-2.50284e-006,-0.00335224
,,,-2.50264e-006,-0.0053977
,,,-2.50244e-006,0.00245706
,,,-2.50224e-006,0.00600179
,,,-2.50204e-006,-0.00417387
,,,-2.50184e-006,-0.00968111
,,,-2.50164e-006,0.00245706
,,,-2.50144e-006,0.00600179
,,,-2.50124e-006,-0.00335224
,,,-2.50104e-006,-0.00584372
,,,-2.50084e-006,-0.000629132
,,,-2.50064e-006,0.00185609
,,,-2.50044e-006,-0.0001878
,,,-2.50024e-006,-0.00404397
,,,-2.50004e-006,0.000123635
,,,-2.49984e-006,-0.000364646
,,,-2.49964e-006,-0.00364646
,,,-2.49944e-006,-0.00124261
,,,-2.49924e-006,0.00176845
,,,-2.49904e-006,-8.13802e-005
,,,-2.49884e-006,-0.000989083
,,,-2.49864e-006,-0.00124261
,,,-2.49844e-006,-0.00198599
,,,-2.49824e-006,-0.0025713
,,,-2.49804e-006,0.00199069
,,,-2.49784e-006,0.00459642
,,,-2.49764e-006,-0.00281075
,,,-2.49744e-006,-0.00767791
,,,-2.49724e-006,-0.00176376
,,,-2.49704e-006,0.0068688
,,,-2.49684e-006,0.00245706
,,,-2.49664e-006,-0.00516921
,,,-2.49644e-006,-0.0060863
,,,-2.49624e-006,-0.00404397
,,,-2.49604e-006,0.00456981
,,,-2.49584e-006,0.00740716
,,,-2.49564e-006,-0.00523963
,,,-2.49544e-006,-0.0117579
,,,-2.49524e-006,0.00176845
,,,-2.49504e-006,0.00560584
,,,-2.49484e-006,-0.0001878
,,,-2.49464e-006,-0.00160882
,,,-2.49444e-006,-0.00463241
,,,-2.49424e-006,-0.00638678
,,,-2.49404e-006,0.00501427
,,,-2.49384e-006,0.00611917
,,,-2.49364e-006,-0.00701435
,,,-2.49344e-006,-0.00638678
,,,-2.49324e-006,0.00199069
,,,-2.49304e-006,-0.000433506
,,,-2.49284e-006,-0.000200321
,,,-2.49264e-006,0.0047044
,,,-2.49244e-006,-0.00460111
,,,-2.49224e-006,-0.00933838
,,,-2.49204e-006,0.00405023
,,,-2.49184e-006,0.00829296
,,,-2.49164e-006,-0.00572009
,,,-2.49144e-006,-0.00584372
,,,-2.49124e-006,0.00277006
,,,-2.49104e-006,-0.000364646
,,,-2.49084e-006,-0.00133025
,,,-2.49064e-006,0.00258069
,,,-2.49044e-006,0.000123635
,,,-2.49024e-006,-0.00516921
,,,-2.49004e-006,-0.00297507
,,,-2.48984e-006,0.00212997
,,,-2.48964e-006,0.00207989
,,,-2.48944e-006,-0.00103603
,,,-2.48924e-006,-0.00297507
,,,-2.48904e-006,-0.00160882
,,,-2.48884e-006,-0.00198599
,,,-2.48864e-006,0.00185609
,,,-2.48844e-006,0.00501427
,,,-2.48824e-006,-0.00462146
,,,-2.48804e-006,-0.00767321
,,,-2.48784e-006,0.00288117
,,,-2.48764e-006,0.00501427
,,,-2.48744e-006,-0.00287335
,,,-2.48724e-006,-0.00323643
,,,-2.48704e-006,0.000519581
,,,-2.48684e-006,-0.000989083
,,,-2.48664e-006,-0.00246801
,,,-2.48644e-006,0.00245706
,,,-2.48624e-006,0.00149301
,,,-2.48604e-006,-0.00417387
,,,-2.48584e-006,-0.00246801
,,,-2.48564e-006,0.000976563
,,,-2.48544e-006,0.000226926
,,,-2.48524e-006,0.000214406
,,,-2.48504e-006,-0.000798152
,,,-2.48484e-006,-0.00370749
,,,-2.48464e-006,-0.0025713
,,,-2.48444e-006,0.00199069
,,,-2.48424e-006,0.00409562
,,,-2.48404e-006,-0.00281075
,,,-2.48384e-006,-0.00905824
,,,-2.48364e-006,0.00312375
,,,-2.48344e-006,0.00941193
,,,-2.48324e-006,-0.00495324
,,,-2.48304e-006,-0.00720528
,,,-2.48284e-006,0.00405336
,,,-2.48264e-006,-0.00199382
,,,-2.48244e-006,-0.000200321
,,,-2.48224e-006,0.00520677
,,,-2.48204e-006,-0.00804725
,,,-2.48184e-006,-0.0053977
,,,-2.48164e-006,0.00816619
,,,-2.48144e-006,-0.00174028
,,,-2.48124e-006,-0.00499706
,,,-2.48104e-006,0.00385304
,,,-2.48084e-006,-0.00230838
,,,-2.48064e-006,-0.00516921
,,,-2.48044e-006,0.00147736
,,,-2.48024e-006,0.00292343
,,,-2.48004e-006,-0.00281075
,,,-2.47984e-006,-0.00516921
,,,-2.47964e-006,0.00147736
,,,-2.47944e-006,-0.000433506
,,,-2.47924e-006,-0.00281075
,,,-2.47904e-006,0.00106733
,,,-2.47884e-006,-0.0001878
,,,-2.47864e-006,-0.00708947
,,,-2.47844e-006,0.000539926
,,,-2.47824e-006,0.00421612
,,,-2.47804e-006,-0.00297507
,,,-2.47784e-006,-0.00246801
,,,-2.47764e-006,0.000539926
,,,-2.47744e-006,-0.000644782
,,,-2.47724e-006,0.000608787
,,,-2.47704e-006,-0.00314409
,,,-2.47684e-006,-0.00409562
,,,-2.47664e-006,0.00626941
,,,-2.47644e-006,0.00262138
,,,-2.47624e-006,-0.0120051
,,,-2.47604e-006,-0.00198599
,,,-2.47584e-006,0.0116061
,,,-2.47564e-006,-0.0001878
,,,-2.47544e-006,-0.0124809
,,,-2.47524e-006,-0.00323643
,,,-2.47504e-006,0.00770921
,,,-2.47484e-006,0.00199069
,,,-2.47464e-006,-0.0086623
,,,-2.47444e-006,-0.00281075
,,,-2.47424e-006,0.00185609
,,,-2.47404e-006,0.000608787
,,,-2.47384e-006,0.00132399
,,,-2.47364e-006,-0.00281075
,,,-2.47344e-006,-0.00453225
,,,-2.47324e-006,0.00147736
,,,-2.47304e-006,-0.000798152
,,,-2.47284e-006,-0.000629132
,,,-2.47264e-006,0.000519581
,,,-2.47244e-006,-0.00297507
,,,-2.47224e-006,-0.00314409
,,,-2.47204e-006,0.000976563
,,,-2.47184e-006,0.00380296
,,,-2.47164e-006,-0.00133025
,,,-2.47144e-006,-0.00820375
,,,-2.47124e-006,-0.00110333
,,,-2.47104e-006,0.00770921
,,,-2.47084e-006,-0.00176376
,,,-2.47064e-006,-0.00626628
,,,-2.47044e-006,-0.00198599
,,,-2.47024e-006,0.00185609
,,,-2.47004e-006,0.00262138
,,,-2.46984e-006,-0.00160882
,,,-2.46964e-006,-0.00701435
,,,-2.46944e-006,0.000519581
,,,-2.46924e-006,0.00405336
,,,-2.46904e-006,-0.00287335
,,,-2.46884e-006,-0.00142415
,,,-2.46864e-006,-8.13802e-005
,,,-2.46844e-006,-0.00297507
,,,-2.46824e-006,0.000838842
,,,-2.46804e-006,0.00207989
,,,-2.46784e-006,-0.00336163
,,,-2.46764e-006,-0.00176376
,,,-2.46744e-006,-0.000798152
,,,-2.46724e-006,-0.00323643
,,,-2.46704e-006,0.000519581
,,,-2.46684e-006,0.00262138
,,,-2.46664e-006,-0.00373253
,,,-2.46644e-006,-0.00323643
,,,-2.46624e-006,0.00106733
,,,-2.46604e-006,-0.0001878
,,,-2.46584e-006,0.00132399
,,,-2.46564e-006,-0.00198599
,,,-2.46544e-006,-0.00600336
,,,-2.46524e-006,0.00107985
,,,-2.46504e-006,0.00459642
,,,-2.46484e-006,-0.00281075
,,,-2.46464e-006,-0.00551977
,,,-2.46444e-006,0.000214406
,,,-2.46424e-006,0.00212997
,,,-2.46404e-006,0.000123635
,,,-2.46384e-006,-0.0025713
,,,-2.46364e-006,-0.00297507
,,,-2.46344e-006,-0.000433506
,,,-2.46324e-006,0.00207989
,,,-2.46304e-006,0.00185609
,,,-2.46284e-006,-0.000596267
,,,-2.46264e-006,-0.00584372
,,,-2.46244e-006,-0.00142415
,,,-2.46224e-006,0.00862943
,,,-2.46204e-006,-0.000596267
,,,-2.46184e-006,-0.0104198
,,,-2.46164e-006,-0.00110333
,,,-2.46144e-006,0.0047044
,,,-2.46124e-006,0.00107985
,,,-2.46104e-006,-0.00314409
,,,-2.46084e-006,-0.00370749
,,,-2.46064e-006,0.000519581
,,,-2.46044e-006,0.00147736
,,,-2.46024e-006,-0.00502366
,,,-2.46004e-006,-0.00142415
,,,-2.45984e-006,0.00421612
,,,-2.45964e-006,-0.00248836
,,,-2.45944e-006,-0.0053977
,,,-2.45924e-006,-0.00110333
,,,-2.45904e-006,-0.00174028
,,,-2.45884e-006,0.00199069
,,,-2.45864e-006,0.00173559
,,,-2.45844e-006,-0.00370749
,,,-2.45824e-006,-0.00516921
,,,-2.45804e-006,-0.00133025
,,,-2.45784e-006,0.00019093
,,,-2.45764e-006,0.0061223
,,,-2.45744e-006,-0.0012567
,,,-2.45724e-006,-0.0123119
,,,-2.45704e-006,-0.00246801
,,,-2.45684e-006,0.00664501
,,,-2.45664e-006,0.00560584
,,,-2.45644e-006,-0.00460111
,,,-2.45624e-006,-0.0131852
,,,-2.45604e-006,-0.000200321
,,,-2.45584e-006,0.012434
,,,-2.45564e-006,-0.00176376
,,,-2.45544e-006,-0.0104198
,,,-2.45524e-006,0.000123635
,,,-2.45504e-006,0.00149301
,,,-2.45484e-006,-0.00176376
,,,-2.45464e-006,0.00258069
,,,-2.45444e-006,-0.00281075
,,,-2.45424e-006,-0.0068688
,,,-2.45404e-006,0.00370906
,,,-2.45384e-006,0.000838842
,,,-2.45364e-006,-0.00323643
,,,-2.45344e-006,0.00185609
,,,-2.45324e-006,-0.0001878
,,,-2.45304e-006,-0.0078078
,,,-2.45284e-006,-0.00198599
,,,-2.45264e-006,0.00829296
,,,-2.45244e-006,-0.0001878
,,,-2.45224e-006,-0.010797
,,,-2.45204e-006,-0.00198599
,,,-2.45184e-006,0.00560584
,,,-2.45164e-006,-0.000596267
,,,-2.45144e-006,-0.00373253
,,,-2.45124e-006,-0.00110333
,,,-2.45104e-006,-0.0025713
,,,-2.45084e-006,-0.000989083
,,,-2.45064e-006,0.000838842
,,,-2.45044e-006,-0.000200321
,,,-2.45024e-006,-0.00103603
,,,-2.45004e-006,-0.00205955
,,,-2.44984e-006,-0.00462146
,,,-2.44964e-006,0.00245706
,,,-2.44944e-006,0.00520677
,,,-2.44924e-006,-0.00650885
,,,-2.44904e-006,-0.00820375
,,,-2.44884e-006,0.00736178
,,,-2.44864e-006,0.00421612
,,,-2.44844e-006,-0.0109582
,,,-2.44824e-006,-0.00373253
,,,-2.44804e-006,0.00778433
,,,-2.44784e-006,-0.000364646
,,,-2.44764e-006,-0.00417387
,,,-2.44744e-006,-0.00404397
,,,-2.44724e-006,-0.00323643
,,,-2.44704e-006,0.00770921
,,,-2.44684e-006,0.00147736
,,,-2.44664e-006,-0.0131852
,,,-2.44644e-006,-0.000629132
,,,-2.44624e-006,0.00560584
,,,-2.44604e-006,-0.00417387
,,,-2.44584e-006,-0.000433506
,,,-2.44564e-006,0.00245706
,,,-2.44544e-006,-0.00516921
,,,-2.44524e-006,-0.00417387
,,,-2.44504e-006,-0.000433506
,,,-2.44484e-006,0.00359325
,,,-2.44464e-006,0.00666848
,,,-2.44444e-006,-0.0106843
,,,-2.44424e-006,-0.0140678
,,,-2.44404e-006,0.0105888
,,,-2.44384e-006,0.0106076
,,,-2.44364e-006,-0.00839625
,,,-2.44344e-006,-0.00820375
,,,-2.44324e-006,0.00127861
,,,-2.44304e-006,0.00185609
,,,-2.44284e-006,0.00405336
,,,-2.44264e-006,-0.00199382
,,,-2.44244e-006,-0.00767321
,,,-2.44224e-006,0.000519581
,,,-2.44204e-006,0.00551977
,,,-2.44184e-006,-0.00124261
,,,-2.44164e-006,-0.00370749
,,,-2.44144e-006,-0.000644782
,,,-2.44124e-006,0.00107985
,,,-2.44104e-006,-0.000433506
,,,-2.44084e-006,-0.00198599
,,,-2.44064e-006,-0.000644782
,,,-2.44044e-006,-0.000596267
,,,-2.44024e-006,-0.00314409
,,,-2.44004e-006,-0.000200321
,,,-2.43984e-006,0.00330529
,,,-2.43964e-006,-0.00683907
,,,-2.43944e-006,-0.0053977
,,,-2.43924e-006,0.00664501
,,,-2.43904e-006,0.000519581
,,,-2.43884e-006,-0.00893148
,,,-2.43864e-006,0.00019093
,,,-2.43844e-006,0.00538831
,,,-2.43824e-006,-0.00174028
,,,-2.43804e-006,-0.00572009
,,,-2.43784e-006,-0.00160882
,,,-2.43764e-006,0.00320356
,,,-2.43744e-006,0.000519581
,,,-2.43724e-006,-0.00460111
,,,-2.43704e-006,-0.00160882
,,,-2.43684e-006,0.00207989
,,,-2.43664e-006,-0.00370436
,,,-2.43644e-006,0.00147736
,,,-2.43624e-006,0.00329903
,,,-2.43604e-006,-0.0084072
,,,-2.43584e-006,-0.0025713
,,,-2.43564e-006,0.00463398
,,,-2.43544e-006,-0.00462146
,,,-2.43524e-006,-0.00198599
,,,-2.43504e-006,0.0047044
,,,-2.43484e-006,-0.00499706
,,,-2.43464e-006,-0.00462146
,,,-2.43444e-006,0.00127861
,,,-2.43424e-006,-8.13802e-005
,,,-2.43404e-006,0.00147736
,,,-2.43384e-006,-0.00246801
,,,-2.43364e-006,-0.00799874
,,,-2.43344e-006,0.00288117
,,,-2.43324e-006,0.00587659
,,,-2.43304e-006,-0.00462146
,,,-2.43284e-006,-0.00583433
,,,-2.43264e-006,-0.00103603
,,,-2.43244e-006,0.000214406
,,,-2.43224e-006,0.00019093
,,,-2.43204e-006,-0.00281075
,,,-2.43184e-006,-0.00174028
,,,-2.43164e-006,0.00107985
,,,-2.43144e-006,-0.0053977
,,,-2.43124e-006,-0.00110333
,,,-2.43104e-006,0.00666848
,,,-2.43084e-006,-0.00523963
,,,-2.43064e-006,-0.00820375
,,,-2.43044e-006,0.00456981
,,,-2.43024e-006,0.000519581
,,,-2.43004e-006,-0.00650885
,,,-2.42984e-006,0.00329903
,,,-2.42964e-006,0.000123635
,,,-2.42944e-006,-0.00600336
,,,-2.42924e-006,-0.0001878
,,,-2.42904e-006,0.00258069
,,,-2.42884e-006,-0.00198599
,,,-2.42864e-006,-0.0012567
,,,-2.42844e-006,-0.000596267
,,,-2.42824e-006,-0.00246801
,,,-2.42804e-006,-0.00110333
,,,-2.42784e-006,0.00106733
,,,-2.42764e-006,-0.000596267
,,,-2.42744e-006,-0.00373253
,,,-2.42724e-006,-0.00323643
,,,-2.42704e-006,0.00288117
,,,-2.42684e-006,0.00199069
,,,-2.42664e-006,-0.00502366
,,,-2.42644e-006,-0.00110333
,,,-2.42624e-006,0.00246175
,,,-2.42604e-006,-0.00417387
,,,-2.42584e-006,-0.00160882
,,,-2.42564e-006,0.00538831
,,,-2.42544e-006,-0.00210493
,,,-2.42524e-006,-0.00759809
,,,-2.42504e-006,-0.000433506
,,,-2.42484e-006,0.00538831
,,,-2.42464e-006,-0.00103603
,,,-2.42444e-006,-0.00417387
,,,-2.42424e-006,-0.000798152
,,,-2.42404e-006,-0.000629132
,,,-2.42384e-006,-0.000364646
,,,-2.42364e-006,0.00262138
,,,-2.42344e-006,-0.000433506
,,,-2.42324e-006,-0.0084072
,,,-2.42304e-006,-0.00516921
,,,-2.42284e-006,0.00959817
,,,-2.42264e-006,0.00502679
,,,-2.42244e-006,-0.0110912
,,,-2.42224e-006,-0.00600336
,,,-2.42204e-006,0.00587659
,,,-2.42184e-006,0.000622872
,,,-2.42164e-006,-0.00198599
,,,-2.42144e-006,-0.0012567
,,,-2.42124e-006,-0.00499706
,,,-2.42104e-006,-0.00160882
,,,-2.42084e-006,0.00456981
,,,-2.42064e-006,-0.000364646
,,,-2.42044e-006,-0.0072757
,,,-2.42024e-006,-0.00160882
,,,-2.42004e-006,0.00127861
,,,-2.41984e-006,0.00185609
,,,-2.41964e-006,-0.0001878
,,,-2.41944e-006,-0.00584372
,,,-2.41924e-006,-0.00540239
,,,-2.41904e-006,0.00666848
,,,-2.41884e-006,0.00262138
,,,-2.41864e-006,-0.00887357
,,,-2.41844e-006,-0.00230838
,,,-2.41824e-006,0.0047044
,,,-2.41804e-006,-0.00417387
,,,-2.41784e-006,-0.00246801
,,,-2.41764e-006,0.00320356
,,,-2.41744e-006,-0.0041457
,,,-2.41724e-006,-0.00460111
,,,-2.41704e-006,0.00459642
,,,-2.41684e-006,-0.00110333
,,,-2.41664e-006,-0.00600336
,,,-2.41644e-006,0.00147736
,,,-2.41624e-006,-0.000433506
,,,-2.41604e-006,-0.00495324
,,,-2.41584e-006,0.00149301
,,,-2.41564e-006,0.00551977
,,,-2.41544e-006,-0.00287335
,,,-2.41524e-006,-0.00974371
,,,-2.41504e-006,-8.13802e-005
,,,-2.41484e-006,0.00821314
,,,-2.41464e-006,0.00019093
,,,-2.41444e-006,-0.0102555
,,,-2.41424e-006,-0.00453225
,,,-2.41404e-006,0.00587659
,,,-2.41384e-006,0.000838842
,,,-2.41364e-006,-0.00621776
,,,-2.41344e-006,-0.00287178
,,,-2.41324e-006,0.00199069
,,,-2.41304e-006,0.00212997
,,,-2.41284e-006,-0.00230838
,,,-2.41264e-006,-0.00210493
,,,-2.41244e-006,0.000214406
,,,-2.41224e-006,-0.00199382
,,,-2.41204e-006,0.00127861
,,,-2.41184e-006,-0.000364646
,,,-2.41164e-006,-0.00460111
,,,-2.41144e-006,-0.000433506
,,,-2.41124e-006,0.00176845
,,,-2.41104e-006,-0.00174028
,,,-2.41084e-006,-0.00176376
,,,-2.41064e-006,-0.000433506
,,,-2.41044e-006,-0.000200321
,,,-2.41024e-006,-0.000644782
,,,-2.41004e-006,-0.0001878
,,,-2.40984e-006,-0.00287335
,,,-2.40964e-006,-0.00281075
,,,-2.40944e-006,0.00246175
,,,-2.40924e-006,0.00370906
,,,-2.40904e-006,-0.0053977
,,,-2.40884e-006,-0.00463241
,,,-2.40864e-006,0.00185609
,,,-2.40844e-006,0.00225361
,,,-2.40824e-006,-0.000433506
,,,-2.40804e-006,-0.00198599
,,,-2.40784e-006,-0.00551977
,,,-2.40764e-006,-0.0001878
,,,-2.40744e-006,0.00459642
,,,-2.40724e-006,0.00127861
,,,-2.40704e-006,-0.00600336
,,,-2.40684e-006,-0.0060863
,,,-2.40664e-006,0.000838842
,,,-2.40644e-006,0.00501897
,,,-2.40624e-006,-8.13802e-005
,,,-2.40604e-006,-0.00417387
,,,-2.40584e-006,-0.00502366
,,,-2.40564e-006,-0.00110333
,,,-2.40544e-006,0.0047044
,,,-2.40524e-006,0.00147736
,,,-2.40504e-006,-0.00462146
,,,-2.40484e-006,-0.00370749
,,,-2.40464e-006,0.000519581
,,,-2.40444e-006,-0.000989083
,,,-2.40424e-006,-0.00124261
,,,-2.40404e-006,0.00456981
,,,-2.40384e-006,-0.000364646
,,,-2.40364e-006,-0.0103071
,,,-2.40344e-006,-0.000798152
,,,-2.40324e-006,0.00842755
,,,-2.40304e-006,-0.0025713
,,,-2.40284e-006,-0.00460111
,,,-2.40264e-006,0.00019093
,,,-2.40244e-006,-0.00110333
,,,-2.40224e-006,-0.000364646
,,,-2.40204e-006,-0.000989083
,,,-2.40184e-006,-0.00160882
,,,-2.40164e-006,0.000976563
,,,-2.40144e-006,-0.00174028
,,,-2.40124e-006,-0.00417387
,,,-2.40104e-006,-0.000433506
,,,-2.40084e-006,0.000123635
,,,-2.40064e-006,0.000519581
,,,-2.40044e-006,-0.0001878
,,,-2.40024e-006,-0.00502366
,,,-2.40004e-006,-0.00230838
,,,-2.39984e-006,0.00330529
,,,-2.39964e-006,0.00107985
,,,-2.39944e-006,-0.00404397
,,,-2.39924e-006,-0.00370749
,,,-2.39904e-006,-0.00103603
,,,-2.39884e-006,0.000608787
,,,-2.39864e-006,0.00173559
,,,-2.39844e-006,-0.00409562
,,,-2.39824e-006,-0.0041457
,,,-2.39804e-006,0.00225361
,,,-2.39784e-006,0.000838842
,,,-2.39764e-006,-0.00463241
,,,-2.39744e-006,-0.00174028
,,,-2.39724e-006,0.00262138
,,,-2.39704e-006,-0.00160882
,,,-2.39684e-006,-0.00370749
,,,-2.39664e-006,0.00149301
,,,-2.39644e-006,0.00225361
,,,-2.39624e-006,-0.00584372
,,,-2.39604e-006,-0.00110333
,,,-2.39584e-006,0.00600179
,,,-2.39564e-006,-0.00297507
,,,-2.39544e-006,-0.0067123
,,,-2.39524e-006,0.00245706
,,,-2.39504e-006,0.00106733
,,,-2.39484e-006,-0.00248836
,,,-2.39464e-006,0.00132399
,,,-2.39444e-006,-0.00142415
,,,-2.39424e-006,-0.00720528
,,,-2.39404e-006,0.00147736
,,,-2.39384e-006,0.00611917
,,,-2.39364e-006,-0.00323643
,,,-2.39344e-006,-0.00516921
,,,-2.39324e-006,-0.000596267
,,,-2.39304e-006,-0.00199382
,,,-2.39284e-006,0.00207989
,,,-2.39264e-006,0.00421612
,,,-2.39244e-006,-0.00759809
,,,-2.39224e-006,-0.00708947
,,,-2.39204e-006,0.00736178
,,,-2.39184e-006,0.00246175
,,,-2.39164e-006,-0.00523963
,,,-2.39144e-006,0.000838842
,,,-2.39124e-006,-0.00198599
,,,-2.39104e-006,-0.00174028
,,,-2.39084e-006,0.00405336
,,,-2.39064e-006,-0.00287335
,,,-2.39044e-006,-0.00653233
,,,-2.39024e-006,0.00246175
,,,-2.39004e-006,0.00107985
,,,-2.38984e-006,-0.00462146
,,,-2.38964e-006,-0.00230838
,,,-2.38944e-006,0.00330529
,,,-2.38924e-006,0.00147736
,,,-2.38904e-006,-0.00373253
,,,-2.38884e-006,-0.00540239
,,,-2.38864e-006,0.00185609
,,,-2.38844e-006,0.00501427
,,,-2.38824e-006,-0.00246801
,,,-2.38804e-006,-0.00701435
,,,-2.38784e-006,-8.13802e-005
,,,-2.38764e-006,0.00199069
,,,-2.38744e-006,-0.000433506
,,,-2.38724e-006,0.000123635
,,,-2.38704e-006,-0.00210493
,,,-2.38684e-006,-0.0072757
,,,-2.38664e-006,-0.000433506
,,,-2.38644e-006,0.0061223
,,,-2.38624e-006,-0.000644782
,,,-2.38604e-006,-0.00499706
,,,-2.38584e-006,-0.00404397
,,,-2.38564e-006,-0.00409562
,,,-2.38544e-006,0.00600179
,,,-2.38524e-006,0.00716928
,,,-2.38504e-006,-0.0100035
,,,-2.38484e-006,-0.00767321
,,,-2.38464e-006,0.00626941
,,,-2.38444e-006,0.00107985
,,,-2.38424e-006,-0.00199382
,,,-2.38404e-006,0.00277006
,,,-2.38384e-006,-0.00600336
,,,-2.38364e-006,-0.00804725
,,,-2.38344e-006,0.00576547
,,,-2.38324e-006,0.00697366
,,,-2.38304e-006,-0.00370436
,,,-2.38284e-006,-0.00683907
,,,-2.38264e-006,-0.00124261
,,,-2.38244e-006,0.00405023
,,,-2.38224e-006,0.00380296
,,,-2.38204e-006,-0.00297507
,,,-2.38184e-006,-0.0067123
,,,-2.38164e-006,0.00207989
,,,-2.38144e-006,0.00421612
,,,-2.38124e-006,-0.00176376
,,,-2.38104e-006,-0.00314409
,,,-2.38084e-006,0.00277006
,,,-2.38064e-006,0.000226926
,,,-2.38044e-006,-0.00248836
,,,-2.38024e-006,-0.00373253
,,,-2.38004e-006,0.00176845
,,,-2.37984e-006,0.00520677
,,,-2.37964e-006,-0.00335224
,,,-2.37944e-006,-0.0126562
,,,-2.37924e-006,0.00456981
,,,-2.37904e-006,0.0116061
,,,-2.37884e-006,-0.0060863
,,,-2.37864e-006,-0.010797
,,,-2.37844e-006,0.000539926
,,,-2.37824e-006,0.00246175
,,,-2.37804e-006,0.00501427
,,,-2.37784e-006,0.000838842
,,,-2.37764e-006,-0.00974371
,,,-2.37744e-006,-0.0025713
,,,-2.37724e-006,0.00587659
,,,-2.37704e-006,-0.00199382
,,,-2.37684e-006,0.00207989
,,,-2.37664e-006,0.00246175
,,,-2.37644e-006,-0.0134982
,,,-2.37624e-006,-0.00462146
,,,-2.37604e-006,0.018154
,,,-2.37584e-006,0.00185609
,,,-2.37564e-006,-0.0174654
,,,-2.37544e-006,-0.00314409
,,,-2.37524e-006,0.00778433
,,,-2.37504e-006,0.00185609
,,,-2.37484e-006,-0.00248836
,,,-2.37464e-006,-0.00462146
,,,-2.37444e-006,-0.00323643
,,,-2.37424e-006,-0.000644782
,,,-2.37404e-006,0.00199069
,,,-2.37384e-006,5.16451e-005
,,,-2.37364e-006,-0.00463241
,,,-2.37344e-006,-0.00103603
,,,-2.37324e-006,0.000608787
,,,-2.37304e-006,-0.000433506
,,,-2.37284e-006,-0.000200321
,,,-2.37264e-006,-0.00210493
,,,-2.37244e-006,-0.00176376
,,,-2.37224e-006,0.00212997
,,,-2.37204e-006,-0.00409562
,,,-2.37184e-006,-0.00516921
,,,-2.37164e-006,0.00405336
