data/2013_05_10/NoCapa/C210mVNoCapa00015.txt

"Record Length",25001,"Points",-2.51002e-006,1.71338
"Sample Interval",2e-010,s,-2.50982e-006,1.68533
"Trigger Point",12550,"Samples",-2.50962e-006,1.69293
"Trigger Time",0.0908609,s,-2.50942e-006,1.68561
,,,-2.50922e-006,1.69493
"Horizontal Offset",-2.51002e-006,s,-2.50902e-006,1.69271
,,,-2.50882e-006,1.69293
,,,-2.50862e-006,1.68561
,,,-2.50842e-006,1.67182
,,,-2.50822e-006,1.66086
,,,-2.50802e-006,1.65717
,,,-2.50782e-006,1.66957
,,,-2.50762e-006,1.67182
,,,-2.50742e-006,1.67221
,,,-2.50722e-006,1.69293
,,,-2.50702e-006,1.68561
,,,-2.50682e-006,1.72203
,,,-2.50662e-006,1.69271
,,,-2.50642e-006,1.70827
,,,-2.50622e-006,1.71368
,,,-2.50602e-006,1.73687
,,,-2.50582e-006,1.7381
,,,-2.50562e-006,1.7417
,,,-2.50542e-006,1.73793
,,,-2.50522e-006,1.74259
,,,-2.50502e-006,1.70736
,,,-2.50482e-006,1.7283
,,,-2.50462e-006,1.69876
,,,-2.50442e-006,1.71338
,,,-2.50422e-006,1.69271
,,,-2.50402e-006,1.68769
,,,-2.50382e-006,1.68561
,,,-2.50362e-006,1.68641
,,,-2.50342e-006,1.66435
,,,-2.50322e-006,1.67701
,,,-2.50302e-006,1.65423
,,,-2.50282e-006,1.64402
,,,-2.50262e-006,1.65639
,,,-2.50242e-006,1.64873
,,,-2.50222e-006,1.62529
,,,-2.50202e-006,1.6287
,,,-2.50182e-006,1.62096
,,,-2.50162e-006,1.63087
,,,-2.50142e-006,1.62529
,,,-2.50122e-006,1.63839
,,,-2.50102e-006,1.64119
,,,-2.50082e-006,1.64873
,,,-2.50062e-006,1.66186
,,,-2.50042e-006,1.67182
,,,-2.50022e-006,1.66435
,,,-2.50002e-006,1.67279
,,,-2.49982e-006,1.66186
,,,-2.49962e-006,1.67182
,,,-2.49942e-006,1.66435
,,,-2.49922e-006,1.64873
,,,-2.49902e-006,1.66186
,,,-2.49882e-006,1.65162
,,,-2.49862e-006,1.65639
,,,-2.49842e-006,1.66474
,,,-2.49822e-006,1.65423
,,,-2.49802e-006,1.64402
,,,-2.49782e-006,1.63395
,,,-2.49762e-006,1.64066
,,,-2.49742e-006,1.64072
,,,-2.49722e-006,1.63839
,,,-2.49702e-006,1.62762
,,,-2.49682e-006,1.63087
,,,-2.49662e-006,1.61733
,,,-2.49642e-006,1.6287
,,,-2.49622e-006,1.62096
,,,-2.49602e-006,1.60423
,,,-2.49582e-006,1.62529
,,,-2.49562e-006,1.61752
,,,-2.49542e-006,1.61339
,,,-2.49522e-006,1.63087
,,,-2.49502e-006,1.61117
,,,-2.49482e-006,1.61752
,,,-2.49462e-006,1.61339
,,,-2.49442e-006,1.61738
,,,-2.49422e-006,1.61117
,,,-2.49402e-006,1.61752
,,,-2.49382e-006,1.6001
,,,-2.49362e-006,1.61164
,,,-2.49342e-006,1.61117
,,,-2.49322e-006,1.60668
,,,-2.49302e-006,1.61339
,,,-2.49282e-006,1.61738
,,,-2.49262e-006,1.60229
,,,-2.49242e-006,1.57463
,,,-2.49222e-006,1.56673
,,,-2.49202e-006,1.57369
,,,-2.49182e-006,1.56947
,,,-2.49162e-006,1.57463
,,,-2.49142e-006,1.58273
,,,-2.49122e-006,1.58817
,,,-2.49102e-006,1.5773
,,,-2.49082e-006,1.59932
,,,-2.49062e-006,1.62096
,,,-2.49042e-006,1.61738
,,,-2.49022e-006,1.61733
,,,-2.49002e-006,1.61752
,,,-2.48982e-006,1.62096
,,,-2.48962e-006,1.61738
,,,-2.48942e-006,1.61733
,,,-2.48922e-006,1.6287
,,,-2.48902e-006,1.63395
,,,-2.48882e-006,1.63087
,,,-2.48862e-006,1.62529
,,,-2.48842e-006,1.63839
,,,-2.48822e-006,1.64787
,,,-2.48802e-006,1.63087
,,,-2.48782e-006,1.63192
,,,-2.48762e-006,1.6287
,,,-2.48742e-006,1.63395
,,,-2.48722e-006,1.62543
,,,-2.48702e-006,1.63192
,,,-2.48682e-006,1.6287
,,,-2.48662e-006,1.62762
,,,-2.48642e-006,1.64066
,,,-2.48622e-006,1.63192
,,,-2.48602e-006,1.6287
,,,-2.48582e-006,1.62096
,,,-2.48562e-006,1.61164
,,,-2.48542e-006,1.61117
,,,-2.48522e-006,1.61752
,,,-2.48502e-006,1.6001
,,,-2.48482e-006,1.61738
,,,-2.48462e-006,1.60229
,,,-2.48442e-006,1.61752
,,,-2.48422e-006,1.59139
,,,-2.48402e-006,1.61164
,,,-2.48382e-006,1.60229
,,,-2.48362e-006,1.61239
,,,-2.48342e-006,1.61339
,,,-2.48322e-006,1.60423
,,,-2.48302e-006,1.61733
,,,-2.48282e-006,1.61239
,,,-2.48262e-006,1.62096
,,,-2.48242e-006,1.64066
,,,-2.48222e-006,1.61117
,,,-2.48202e-006,1.62371
,,,-2.48182e-006,1.63395
,,,-2.48162e-006,1.63087
,,,-2.48142e-006,1.62529
,,,-2.48122e-006,1.63839
,,,-2.48102e-006,1.64119
,,,-2.48082e-006,1.65717
,,,-2.48062e-006,1.66186
,,,-2.48042e-006,1.65992
,,,-2.48022e-006,1.66435
,,,-2.48002e-006,1.66474
,,,-2.47982e-006,1.65423
,,,-2.47962e-006,1.65992
,,,-2.47942e-006,1.66435
,,,-2.47922e-006,1.66474
,,,-2.47902e-006,1.65423
,,,-2.47882e-006,1.65992
,,,-2.47862e-006,1.66435
,,,-2.47842e-006,1.67701
,,,-2.47822e-006,1.67992
,,,-2.47802e-006,1.67934
,,,-2.47782e-006,1.66435
,,,-2.47762e-006,1.66474
,,,-2.47742e-006,1.65423
,,,-2.47722e-006,1.65992
,,,-2.47702e-006,1.64787
,,,-2.47682e-006,1.64066
,,,-2.47662e-006,1.64072
,,,-2.47642e-006,1.65992
,,,-2.47622e-006,1.63395
,,,-2.47602e-006,1.62543
,,,-2.47582e-006,1.64713
,,,-2.47562e-006,1.63839
,,,-2.47542e-006,1.64787
,,,-2.47522e-006,1.65717
,,,-2.47502e-006,1.65423
,,,-2.47482e-006,1.65992
,,,-2.47462e-006,1.65639
,,,-2.47442e-006,1.65717
,,,-2.47422e-006,1.66957
,,,-2.47402e-006,1.66646
,,,-2.47382e-006,1.67221
,,,-2.47362e-006,1.67701
,,,-2.47342e-006,1.67515
,,,-2.47322e-006,1.70075
,,,-2.47302e-006,1.68533
,,,-2.47282e-006,1.67701
,,,-2.47262e-006,1.68561
,,,-2.47242e-006,1.69493
,,,-2.47222e-006,1.69271
,,,-2.47202e-006,1.71352
,,,-2.47182e-006,1.71368
,,,-2.47162e-006,1.71338
,,,-2.47142e-006,1.70736
,,,-2.47122e-006,1.70053
,,,-2.47102e-006,1.70683
,,,-2.47082e-006,1.70075
,,,-2.47062e-006,1.67717
,,,-2.47042e-006,1.68769
,,,-2.47022e-006,1.67992
,,,-2.47002e-006,1.68641
,,,-2.46982e-006,1.67717
,,,-2.46962e-006,1.68769
,,,-2.46942e-006,1.68561
,,,-2.46922e-006,1.69493
,,,-2.46902e-006,1.69271
,,,-2.46882e-006,1.69293
,,,-2.46862e-006,1.68561
,,,-2.46842e-006,1.70777
,,,-2.46822e-006,1.70736
,,,-2.46802e-006,1.70827
,,,-2.46782e-006,1.71368
,,,-2.46762e-006,1.71338
,,,-2.46742e-006,1.70736
,,,-2.46722e-006,1.71352
,,,-2.46702e-006,1.69876
,,,-2.46682e-006,1.70075
,,,-2.46662e-006,1.68533
,,,-2.46642e-006,1.68769
,,,-2.46622e-006,1.66957
,,,-2.46602e-006,1.68641
,,,-2.46582e-006,1.67717
,,,-2.46562e-006,1.67701
,,,-2.46542e-006,1.67515
,,,-2.46522e-006,1.69493
,,,-2.46502e-006,1.69271
,,,-2.46482e-006,1.70053
,,,-2.46462e-006,1.69382
,,,-2.46442e-006,1.70777
,,,-2.46422e-006,1.71568
,,,-2.46402e-006,1.7417
,,,-2.46382e-006,1.74312
,,,-2.46362e-006,1.75724
,,,-2.46342e-006,1.74789
,,,-2.46322e-006,1.74703
,,,-2.46302e-006,1.74312
,,,-2.46282e-006,1.74936
,,,-2.46262e-006,1.7381
,,,-2.46242e-006,1.7417
,,,-2.46222e-006,1.7285
,,,-2.46202e-006,1.74936
,,,-2.46182e-006,1.75355
,,,-2.46162e-006,1.75366
,,,-2.46142e-006,1.74312
,,,-2.46122e-006,1.74936
,,,-2.46102e-006,1.7381
,,,-2.46082e-006,1.7283
,,,-2.46062e-006,1.72139
,,,-2.46042e-006,1.72203
,,,-2.46022e-006,1.7012
,,,-2.46002e-006,1.69293
,,,-2.45982e-006,1.68561
,,,-2.45962e-006,1.68641
,,,-2.45942e-006,1.67717
,,,-2.45922e-006,1.66474
,,,-2.45902e-006,1.65423
,,,-2.45882e-006,1.63839
,,,-2.45862e-006,1.64119
,,,-2.45842e-006,1.62543
,,,-2.45822e-006,1.61733
,,,-2.45802e-006,1.59932
,,,-2.45782e-006,1.58273
,,,-2.45762e-006,1.58232
,,,-2.45742e-006,1.5773
,,,-2.45722e-006,1.56187
,,,-2.45702e-006,1.5445
,,,-2.45682e-006,1.54234
,,,-2.45662e-006,1.52952
,,,-2.45642e-006,1.51945
,,,-2.45622e-006,1.49695
,,,-2.45602e-006,1.49939
,,,-2.45582e-006,1.50036
,,,-2.45562e-006,1.4921
,,,-2.45542e-006,1.49051
,,,-2.45522e-006,1.48275
,,,-2.45502e-006,1.47983
,,,-2.45482e-006,1.4921
,,,-2.45462e-006,1.48411
,,,-2.45442e-006,1.49101
,,,-2.45422e-006,1.50905
,,,-2.45402e-006,1.4921
,,,-2.45382e-006,1.50827
,,,-2.45362e-006,1.52123
,,,-2.45342e-006,1.52242
,,,-2.45322e-006,1.51945
,,,-2.45302e-006,1.51745
,,,-2.45282e-006,1.5149
,,,-2.45262e-006,1.50036
,,,-2.45242e-006,1.50014
,,,-2.45222e-006,1.49695
,,,-2.45202e-006,1.49939
,,,-2.45182e-006,1.50905
,,,-2.45162e-006,1.4921
,,,-2.45142e-006,1.49051
,,,-2.45122e-006,1.49939
,,,-2.45102e-006,1.51407
,,,-2.45082e-006,1.4921
,,,-2.45062e-006,1.49695
,,,-2.45042e-006,1.50602
,,,-2.45022e-006,1.49376
,,,-2.45002e-006,1.50583
,,,-2.44982e-006,1.5232
,,,-2.44962e-006,1.52123
,,,-2.44942e-006,1.52242
,,,-2.44922e-006,1.51945
,,,-2.44902e-006,1.50827
,,,-2.44882e-006,1.53549
,,,-2.44862e-006,1.51407
,,,-2.44842e-006,1.52622
,,,-2.44822e-006,1.53493
,,,-2.44802e-006,1.52123
,,,-2.44782e-006,1.54239
,,,-2.44762e-006,1.54112
,,,-2.44742e-006,1.5445
,,,-2.44722e-006,1.54847
,,,-2.44702e-006,1.52242
,,,-2.44682e-006,1.54653
,,,-2.44662e-006,1.53493
,,,-2.44642e-006,1.54847
,,,-2.44622e-006,1.54239
,,,-2.44602e-006,1.54653
,,,-2.44582e-006,1.5445
,,,-2.44562e-006,1.52919
,,,-2.44542e-006,1.51407
,,,-2.44522e-006,1.51945
,,,-2.44502e-006,1.51745
,,,-2.44482e-006,1.50602
,,,-2.44462e-006,1.52242
,,,-2.44442e-006,1.51945
,,,-2.44422e-006,1.51745
,,,-2.44402e-006,1.52123
,,,-2.44382e-006,1.54239
,,,-2.44362e-006,1.51945
,,,-2.44342e-006,1.5232
,,,-2.44322e-006,1.52123
,,,-2.44302e-006,1.52952
,,,-2.44282e-006,1.54112
,,,-2.44262e-006,1.5232
,,,-2.44242e-006,1.52919
,,,-2.44222e-006,1.54239
,,,-2.44202e-006,1.53407
,,,-2.44182e-006,1.5445
,,,-2.44162e-006,1.54234
,,,-2.44142e-006,1.52242
,,,-2.44122e-006,1.55496
,,,-2.44102e-006,1.5445
,,,-2.44082e-006,1.5553
,,,-2.44062e-006,1.54872
,,,-2.44042e-006,1.55496
,,,-2.44022e-006,1.56059
,,,-2.44002e-006,1.56298
,,,-2.43982e-006,1.54239
,,,-2.43962e-006,1.52622
,,,-2.43942e-006,1.5232
,,,-2.43922e-006,1.50602
,,,-2.43902e-006,1.52242
,,,-2.43882e-006,1.50583
,,,-2.43862e-006,1.5232
,,,-2.43842e-006,1.54234
,,,-2.43822e-006,1.52952
,,,-2.43802e-006,1.55496
,,,-2.43782e-006,1.5445
,,,-2.43762e-006,1.54234
,,,-2.43742e-006,1.56947
,,,-2.43722e-006,1.56187
,,,-2.43702e-006,1.56059
,,,-2.43682e-006,1.57369
,,,-2.43662e-006,1.56459
,,,-2.43642e-006,1.56187
,,,-2.43622e-006,1.56673
,,,-2.43602e-006,1.56298
,,,-2.43582e-006,1.55432
,,,-2.43562e-006,1.56187
,,,-2.43542e-006,1.56673
,,,-2.43522e-006,1.57369
,,,-2.43502e-006,1.55432
,,,-2.43482e-006,1.56187
,,,-2.43462e-006,1.57571
,,,-2.43442e-006,1.59844
,,,-2.43422e-006,1.59469
,,,-2.43402e-006,1.6287
,,,-2.43382e-006,1.64787
,,,-2.43362e-006,1.63087
,,,-2.43342e-006,1.64713
,,,-2.43322e-006,1.65162
,,,-2.43302e-006,1.63395
,,,-2.43282e-006,1.62543
,,,-2.43262e-006,1.63192
,,,-2.43242e-006,1.63839
,,,-2.43222e-006,1.64119
,,,-2.43202e-006,1.62543
,,,-2.43182e-006,1.64713
,,,-2.43162e-006,1.64402
,,,-2.43142e-006,1.65639
,,,-2.43122e-006,1.65717
,,,-2.43102e-006,1.66186
,,,-2.43082e-006,1.65162
,,,-2.43062e-006,1.63395
,,,-2.43042e-006,1.64066
,,,-2.43022e-006,1.63192
,,,-2.43002e-006,1.64402
,,,-2.42982e-006,1.63395
,,,-2.42962e-006,1.61738
,,,-2.42942e-006,1.61117
,,,-2.42922e-006,1.62371
,,,-2.42902e-006,1.59139
,,,-2.42882e-006,1.58817
,,,-2.42862e-006,1.59469
,,,-2.42842e-006,1.59932
,,,-2.42822e-006,1.6001
,,,-2.42802e-006,1.58817
,,,-2.42782e-006,1.5773
,,,-2.42762e-006,1.57463
,,,-2.42742e-006,1.57571
,,,-2.42722e-006,1.57369
,,,-2.42702e-006,1.55432
,,,-2.42682e-006,1.56187
,,,-2.42662e-006,1.53493
,,,-2.42642e-006,1.5553
,,,-2.42622e-006,1.53698
,,,-2.42602e-006,1.52622
,,,-2.42582e-006,1.5232
,,,-2.42562e-006,1.53549
,,,-2.42542e-006,1.52952
,,,-2.42522e-006,1.54112
,,,-2.42502e-006,1.53493
,,,-2.42482e-006,1.52919
,,,-2.42462e-006,1.52242
,,,-2.42442e-006,1.54112
,,,-2.42422e-006,1.53493
,,,-2.42402e-006,1.5553
,,,-2.42382e-006,1.55432
,,,-2.42362e-006,1.54653
,,,-2.42342e-006,1.5445
,,,-2.42322e-006,1.54847
,,,-2.42302e-006,1.55432
,,,-2.42282e-006,1.54112
,,,-2.42262e-006,1.53493
,,,-2.42242e-006,1.53549
,,,-2.42222e-006,1.54239
,,,-2.42202e-006,1.54112
,,,-2.42182e-006,1.51745
,,,-2.42162e-006,1.52919
,,,-2.42142e-006,1.54239
,,,-2.42122e-006,1.54112
,,,-2.42102e-006,1.5445
,,,-2.42082e-006,1.54234
,,,-2.42062e-006,1.55432
,,,-2.42042e-006,1.57463
,,,-2.42022e-006,1.56673
,,,-2.42002e-006,1.58817
,,,-2.41982e-006,1.59469
,,,-2.41962e-006,1.60668
,,,-2.41942e-006,1.61339
,,,-2.41922e-006,1.62543
,,,-2.41902e-006,1.61733
,,,-2.41882e-006,1.61752
,,,-2.41862e-006,1.62096
,,,-2.41842e-006,1.63087
,,,-2.41822e-006,1.63192
,,,-2.41802e-006,1.63839
,,,-2.41782e-006,1.66086
,,,-2.41762e-006,1.66474
,,,-2.41742e-006,1.65423
,,,-2.41722e-006,1.65992
,,,-2.41702e-006,1.64787
,,,-2.41682e-006,1.64066
,,,-2.41662e-006,1.64072
,,,-2.41642e-006,1.63839
,,,-2.41622e-006,1.63395
,,,-2.41602e-006,1.63087
,,,-2.41582e-006,1.63192
,,,-2.41562e-006,1.62371
,,,-2.41542e-006,1.61339
,,,-2.41522e-006,1.63087
,,,-2.41502e-006,1.62529
,,,-2.41482e-006,1.64402
,,,-2.41462e-006,1.62096
,,,-2.41442e-006,1.64066
,,,-2.41422e-006,1.63192
,,,-2.41402e-006,1.64402
,,,-2.41382e-006,1.64119
,,,-2.41362e-006,1.63087
,,,-2.41342e-006,1.61733
,,,-2.41322e-006,1.61752
,,,-2.41302e-006,1.60829
,,,-2.41282e-006,1.61164
,,,-2.41262e-006,1.60229
,,,-2.41242e-006,1.61752
,,,-2.41222e-006,1.62762
,,,-2.41202e-006,1.61738
,,,-2.41182e-006,1.62529
,,,-2.41162e-006,1.6287
,,,-2.41142e-006,1.62762
,,,-2.41122e-006,1.64066
,,,-2.41102e-006,1.63192
,,,-2.41082e-006,1.63839
,,,-2.41062e-006,1.62096
,,,-2.41042e-006,1.62543
,,,-2.41022e-006,1.61117
,,,-2.41002e-006,1.61752
,,,-2.40982e-006,1.60829
,,,-2.40962e-006,1.58232
,,,-2.40942e-006,1.58626
,,,-2.40922e-006,1.58287
,,,-2.40902e-006,1.56059
,,,-2.40882e-006,1.58817
,,,-2.40862e-006,1.5773
,,,-2.40842e-006,1.591
,,,-2.40822e-006,1.61339
,,,-2.40802e-006,1.61164
,,,-2.40782e-006,1.61117
,,,-2.40762e-006,1.61239
,,,-2.40742e-006,1.59139
,,,-2.40722e-006,1.58817
,,,-2.40702e-006,1.5773
,,,-2.40682e-006,1.58287
,,,-2.40662e-006,1.56673
,,,-2.40642e-006,1.57369
,,,-2.40622e-006,1.5773
,,,-2.40602e-006,1.57463
,,,-2.40582e-006,1.55263
,,,-2.40562e-006,1.56817
,,,-2.40542e-006,1.54872
,,,-2.40522e-006,1.55496
,,,-2.40502e-006,1.55263
,,,-2.40482e-006,1.54234
,,,-2.40462e-006,1.55432
,,,-2.40442e-006,1.55496
,,,-2.40422e-006,1.55263
,,,-2.40402e-006,1.57369
,,,-2.40382e-006,1.55432
,,,-2.40362e-006,1.56187
,,,-2.40342e-006,1.55263
,,,-2.40322e-006,1.56298
,,,-2.40302e-006,1.54872
,,,-2.40282e-006,1.56187
,,,-2.40262e-006,1.55263
,,,-2.40242e-006,1.5553
,,,-2.40222e-006,1.54239
,,,-2.40202e-006,1.54653
,,,-2.40182e-006,1.55263
,,,-2.40162e-006,1.5553
,,,-2.40142e-006,1.56459
,,,-2.40122e-006,1.56187
,,,-2.40102e-006,1.58273
,,,-2.40082e-006,1.58817
,,,-2.40062e-006,1.59469
,,,-2.40042e-006,1.62371
,,,-2.40022e-006,1.61339
,,,-2.40002e-006,1.61738
,,,-2.39982e-006,1.62529
,,,-2.39962e-006,1.6287
,,,-2.39942e-006,1.62096
,,,-2.39922e-006,1.64066
,,,-2.39902e-006,1.63192
,,,-2.39882e-006,1.64402
,,,-2.39862e-006,1.64119
,,,-2.39842e-006,1.66474
,,,-2.39822e-006,1.65423
,,,-2.39802e-006,1.66646
,,,-2.39782e-006,1.67717
,,,-2.39762e-006,1.66474
,,,-2.39742e-006,1.67992
,,,-2.39722e-006,1.67934
,,,-2.39702e-006,1.68533
,,,-2.39682e-006,1.67701
,,,-2.39662e-006,1.66186
,,,-2.39642e-006,1.65992
,,,-2.39622e-006,1.64787
,,,-2.39602e-006,1.64873
,,,-2.39582e-006,1.65423
,,,-2.39562e-006,1.65992
,,,-2.39542e-006,1.65639
,,,-2.39522e-006,1.65717
,,,-2.39502e-006,1.65423
,,,-2.39482e-006,1.63839
,,,-2.39462e-006,1.62762
,,,-2.39442e-006,1.64873
,,,-2.39422e-006,1.62529
,,,-2.39402e-006,1.63839
,,,-2.39382e-006,1.62096
,,,-2.39362e-006,1.64873
,,,-2.39342e-006,1.62529
,,,-2.39322e-006,1.63839
,,,-2.39302e-006,1.63395
,,,-2.39282e-006,1.63087
,,,-2.39262e-006,1.62529
,,,-2.39242e-006,1.6287
,,,-2.39222e-006,1.6001
,,,-2.39202e-006,1.61164
,,,-2.39182e-006,1.59469
,,,-2.39162e-006,1.61752
,,,-2.39142e-006,1.61339
,,,-2.39122e-006,1.61738
,,,-2.39102e-006,1.61733
,,,-2.39082e-006,1.61752
,,,-2.39062e-006,1.6001
,,,-2.39042e-006,1.61738
,,,-2.39022e-006,1.62529
,,,-2.39002e-006,1.62371
,,,-2.38982e-006,1.62096
,,,-2.38962e-006,1.63087
,,,-2.38942e-006,1.63192
,,,-2.38922e-006,1.64402
,,,-2.38902e-006,1.64787
,,,-2.38882e-006,1.64873
,,,-2.38862e-006,1.64713
,,,-2.38842e-006,1.64402
,,,-2.38822e-006,1.64787
,,,-2.38802e-006,1.64066
,,,-2.38782e-006,1.64072
,,,-2.38762e-006,1.65992
,,,-2.38742e-006,1.65639
,,,-2.38722e-006,1.65717
,,,-2.38702e-006,1.66186
,,,-2.38682e-006,1.65992
,,,-2.38662e-006,1.67221
,,,-2.38642e-006,1.68769
,,,-2.38622e-006,1.67992
,,,-2.38602e-006,1.68641
,,,-2.38582e-006,1.7012
,,,-2.38562e-006,1.71352
,,,-2.38542e-006,1.70683
,,,-2.38522e-006,1.69493
,,,-2.38502e-006,1.7012
,,,-2.38482e-006,1.70053
,,,-2.38462e-006,1.69382
,,,-2.38442e-006,1.69493
,,,-2.38422e-006,1.68533
,,,-2.38402e-006,1.69293
,,,-2.38382e-006,1.68561
,,,-2.38362e-006,1.69493
,,,-2.38342e-006,1.67717
,,,-2.38322e-006,1.67701
,,,-2.38302e-006,1.66186
,,,-2.38282e-006,1.67934
,,,-2.38262e-006,1.67221
,,,-2.38242e-006,1.67701
,,,-2.38222e-006,1.66957
,,,-2.38202e-006,1.65992
,,,-2.38182e-006,1.67717
,,,-2.38162e-006,1.66474
,,,-2.38142e-006,1.64072
,,,-2.38122e-006,1.64402
,,,-2.38102e-006,1.64787
,,,-2.38082e-006,1.64873
,,,-2.38062e-006,1.63192
,,,-2.38042e-006,1.64402
,,,-2.38022e-006,1.63395
,,,-2.38002e-006,1.64066
,,,-2.37982e-006,1.64072
,,,-2.37962e-006,1.63839
,,,-2.37942e-006,1.63395
,,,-2.37922e-006,1.63087
,,,-2.37902e-006,1.61733
,,,-2.37882e-006,1.6287
,,,-2.37862e-006,1.63395
,,,-2.37842e-006,1.61164
,,,-2.37822e-006,1.61117
,,,-2.37802e-006,1.58287
,,,-2.37782e-006,1.61339
,,,-2.37762e-006,1.58817
,,,-2.37742e-006,1.60229
,,,-2.37722e-006,1.60668
,,,-2.37702e-006,1.60829
,,,-2.37682e-006,1.61164
,,,-2.37662e-006,1.61117
,,,-2.37642e-006,1.61752
,,,-2.37622e-006,1.6001
,,,-2.37602e-006,1.58817
,,,-2.37582e-006,1.60229
,,,-2.37562e-006,1.59932
,,,-2.37542e-006,1.6001
,,,-2.37522e-006,1.60423
,,,-2.37502e-006,1.60229
,,,-2.37482e-006,1.59932
,,,-2.37462e-006,1.6001
,,,-2.37442e-006,1.63087
,,,-2.37422e-006,1.62529
,,,-2.37402e-006,1.6287
,,,-2.37382e-006,1.62762
,,,-2.37362e-006,1.61738
,,,-2.37342e-006,1.62529
,,,-2.37322e-006,1.62371
,,,-2.37302e-006,1.62096
,,,-2.37282e-006,1.61164
,,,-2.37262e-006,1.62529
,,,-2.37242e-006,1.64402
,,,-2.37222e-006,1.64119
,,,-2.37202e-006,1.64873
,,,-2.37182e-006,1.65423
,,,-2.37162e-006,1.65162
,,,-2.37142e-006,1.67717
,,,-2.37122e-006,1.64873
,,,-2.37102e-006,1.65423
,,,-2.37082e-006,1.64402
,,,-2.37062e-006,1.63395
,,,-2.37042e-006,1.64873
,,,-2.37022e-006,1.62529
,,,-2.37002e-006,1.6287
,,,-2.36982e-006,1.61339
,,,-2.36962e-006,1.61738
,,,-2.36942e-006,1.60229
,,,-2.36922e-006,1.59932
,,,-2.36902e-006,1.60829
,,,-2.36882e-006,1.58817
,,,-2.36862e-006,1.59469
,,,-2.36842e-006,1.60668
,,,-2.36822e-006,1.6001
,,,-2.36802e-006,1.58817
,,,-2.36782e-006,1.59469
,,,-2.36762e-006,1.591
,,,-2.36742e-006,1.58273
,,,-2.36722e-006,1.58817
,,,-2.36702e-006,1.59469
,,,-2.36682e-006,1.591
,,,-2.36662e-006,1.6001
,,,-2.36642e-006,1.58817
,,,-2.36622e-006,1.61117
,,,-2.36602e-006,1.59932
,,,-2.36582e-006,1.61339
,,,-2.36562e-006,1.61738
,,,-2.36542e-006,1.61733
,,,-2.36522e-006,1.61752
,,,-2.36502e-006,1.61339
,,,-2.36482e-006,1.61164
,,,-2.36462e-006,1.61733
,,,-2.36442e-006,1.63839
,,,-2.36422e-006,1.64787
,,,-2.36402e-006,1.63087
,,,-2.36382e-006,1.63192
,,,-2.36362e-006,1.63839
,,,-2.36342e-006,1.62096
,,,-2.36322e-006,1.61738
,,,-2.36302e-006,1.61733
,,,-2.36282e-006,1.62371
,,,-2.36262e-006,1.61339
,,,-2.36242e-006,1.62543
,,,-2.36222e-006,1.61733
,,,-2.36202e-006,1.60668
,,,-2.36182e-006,1.6001
,,,-2.36162e-006,1.61164
,,,-2.36142e-006,1.59469
,,,-2.36122e-006,1.59932
,,,-2.36102e-006,1.58273
,,,-2.36082e-006,1.58817
,,,-2.36062e-006,1.58626
,,,-2.36042e-006,1.591
,,,-2.36022e-006,1.59139
,,,-2.36002e-006,1.59844
,,,-2.35982e-006,1.60229
,,,-2.35962e-006,1.59932
,,,-2.35942e-006,1.57571
,,,-2.35922e-006,1.58817
,,,-2.35902e-006,1.59469
,,,-2.35882e-006,1.59932
,,,-2.35862e-006,1.6001
,,,-2.35842e-006,1.61738
,,,-2.35822e-006,1.59469
,,,-2.35802e-006,1.61752
,,,-2.35782e-006,1.62096
,,,-2.35762e-006,1.61738
,,,-2.35742e-006,1.61733
,,,-2.35722e-006,1.62371
,,,-2.35702e-006,1.61339
,,,-2.35682e-006,1.63087
,,,-2.35662e-006,1.61733
,,,-2.35642e-006,1.63839
,,,-2.35622e-006,1.62096
,,,-2.35602e-006,1.62543
,,,-2.35582e-006,1.61733
,,,-2.35562e-006,1.6287
,,,-2.35542e-006,1.62096
,,,-2.35522e-006,1.60423
,,,-2.35502e-006,1.61117
,,,-2.35482e-006,1.61239
,,,-2.35462e-006,1.61339
,,,-2.35442e-006,1.62543
,,,-2.35422e-006,1.61117
,,,-2.35402e-006,1.61752
,,,-2.35382e-006,1.61339
,,,-2.35362e-006,1.61738
,,,-2.35342e-006,1.61117
,,,-2.35322e-006,1.59932
,,,-2.35302e-006,1.60829
,,,-2.35282e-006,1.61164
,,,-2.35262e-006,1.60229
,,,-2.35242e-006,1.59932
,,,-2.35222e-006,1.6001
,,,-2.35202e-006,1.59844
,,,-2.35182e-006,1.60229
,,,-2.35162e-006,1.62371
,,,-2.35142e-006,1.6001
,,,-2.35122e-006,1.61738
,,,-2.35102e-006,1.61733
,,,-2.35082e-006,1.6287
