data/2013_05_10/NoCapa/C210mVNoCapa00020.txt

"Record Length",25001,"Points",-2.5101e-006,1.64066
"Sample Interval",2e-010,s,-2.5099e-006,1.64072
"Trigger Point",12550,"Samples",-2.5097e-006,1.6287
"Trigger Time",0.509867,s,-2.5095e-006,1.64119
,,,-2.5093e-006,1.64873
"Horizontal Offset",-2.5101e-006,s,-2.5091e-006,1.66186
,,,-2.5089e-006,1.65992
,,,-2.5087e-006,1.65639
,,,-2.5085e-006,1.66474
,,,-2.5083e-006,1.65423
,,,-2.5081e-006,1.66646
,,,-2.5079e-006,1.66435
,,,-2.5077e-006,1.65717
,,,-2.5075e-006,1.66957
,,,-2.5073e-006,1.66646
,,,-2.5071e-006,1.66086
,,,-2.5069e-006,1.67279
,,,-2.5067e-006,1.66957
,,,-2.5065e-006,1.67934
,,,-2.5063e-006,1.67717
,,,-2.5061e-006,1.66474
,,,-2.5059e-006,1.66957
,,,-2.5057e-006,1.66646
,,,-2.5055e-006,1.64119
,,,-2.5053e-006,1.64873
,,,-2.5051e-006,1.64072
,,,-2.5049e-006,1.64402
,,,-2.5047e-006,1.65639
,,,-2.5045e-006,1.65717
,,,-2.5043e-006,1.66186
,,,-2.5041e-006,1.67934
,,,-2.5039e-006,1.67717
,,,-2.5037e-006,1.70827
,,,-2.5035e-006,1.68561
,,,-2.5033e-006,1.70777
,,,-2.5031e-006,1.70736
,,,-2.5029e-006,1.69293
,,,-2.5027e-006,1.69382
,,,-2.5025e-006,1.69493
,,,-2.5023e-006,1.68533
,,,-2.5021e-006,1.67701
,,,-2.5019e-006,1.67515
,,,-2.5017e-006,1.68641
,,,-2.5015e-006,1.67717
,,,-2.5013e-006,1.67701
,,,-2.5011e-006,1.67515
,,,-2.5009e-006,1.67182
,,,-2.5007e-006,1.66435
,,,-2.5005e-006,1.64873
,,,-2.5003e-006,1.65423
,,,-2.5001e-006,1.64402
,,,-2.4999e-006,1.63395
,,,-2.4997e-006,1.64873
,,,-2.4995e-006,1.64072
,,,-2.4993e-006,1.65162
,,,-2.4991e-006,1.64119
,,,-2.4989e-006,1.64066
,,,-2.4987e-006,1.61733
,,,-2.4985e-006,1.62371
,,,-2.4983e-006,1.62762
,,,-2.4981e-006,1.61738
,,,-2.4979e-006,1.63192
,,,-2.4977e-006,1.6287
,,,-2.4975e-006,1.63395
,,,-2.4973e-006,1.64873
,,,-2.4971e-006,1.64072
,,,-2.4969e-006,1.65162
,,,-2.4967e-006,1.65639
,,,-2.4965e-006,1.63087
,,,-2.4963e-006,1.65423
,,,-2.4961e-006,1.66646
,,,-2.4959e-006,1.66086
,,,-2.4957e-006,1.66474
,,,-2.4955e-006,1.65423
,,,-2.4953e-006,1.65992
,,,-2.4951e-006,1.66086
,,,-2.4949e-006,1.65717
,,,-2.4947e-006,1.65423
,,,-2.4945e-006,1.65162
,,,-2.4943e-006,1.64787
,,,-2.4941e-006,1.64066
,,,-2.4939e-006,1.64713
,,,-2.4937e-006,1.65162
,,,-2.4935e-006,1.65639
,,,-2.4933e-006,1.64873
,,,-2.4931e-006,1.64713
,,,-2.4929e-006,1.64402
,,,-2.4927e-006,1.65639
,,,-2.4925e-006,1.64066
,,,-2.4923e-006,1.64072
,,,-2.4921e-006,1.64402
,,,-2.4919e-006,1.63395
,,,-2.4917e-006,1.63087
,,,-2.4915e-006,1.63192
,,,-2.4913e-006,1.63839
,,,-2.4911e-006,1.62096
,,,-2.4909e-006,1.62543
,,,-2.4907e-006,1.62529
,,,-2.4905e-006,1.64402
,,,-2.4903e-006,1.64119
,,,-2.4901e-006,1.64873
,,,-2.4899e-006,1.64072
,,,-2.4897e-006,1.65992
,,,-2.4895e-006,1.64787
,,,-2.4893e-006,1.67279
,,,-2.4891e-006,1.66186
,,,-2.4889e-006,1.65162
,,,-2.4887e-006,1.64787
,,,-2.4885e-006,1.66474
,,,-2.4883e-006,1.64072
,,,-2.4881e-006,1.65992
,,,-2.4879e-006,1.64119
,,,-2.4877e-006,1.64066
,,,-2.4875e-006,1.64072
,,,-2.4873e-006,1.65162
,,,-2.4871e-006,1.64787
,,,-2.4869e-006,1.64066
,,,-2.4867e-006,1.66186
,,,-2.4865e-006,1.64402
,,,-2.4863e-006,1.64787
,,,-2.4861e-006,1.64873
,,,-2.4859e-006,1.64072
,,,-2.4857e-006,1.65162
,,,-2.4855e-006,1.62762
,,,-2.4853e-006,1.64066
,,,-2.4851e-006,1.62529
,,,-2.4849e-006,1.62371
,,,-2.4847e-006,1.62096
,,,-2.4845e-006,1.63087
,,,-2.4843e-006,1.63192
,,,-2.4841e-006,1.64402
,,,-2.4839e-006,1.64787
,,,-2.4837e-006,1.64873
,,,-2.4835e-006,1.64072
,,,-2.4833e-006,1.65162
,,,-2.4831e-006,1.65639
,,,-2.4829e-006,1.65717
,,,-2.4827e-006,1.66186
,,,-2.4825e-006,1.65992
,,,-2.4823e-006,1.64787
,,,-2.4821e-006,1.64873
,,,-2.4819e-006,1.64072
,,,-2.4817e-006,1.64402
,,,-2.4815e-006,1.64119
,,,-2.4813e-006,1.64066
,,,-2.4811e-006,1.64072
,,,-2.4809e-006,1.65992
,,,-2.4807e-006,1.66435
,,,-2.4805e-006,1.67701
,,,-2.4803e-006,1.67515
,,,-2.4801e-006,1.68641
,,,-2.4799e-006,1.67717
,,,-2.4797e-006,1.69293
,,,-2.4795e-006,1.67515
,,,-2.4793e-006,1.67934
,,,-2.4791e-006,1.67717
,,,-2.4789e-006,1.68769
,,,-2.4787e-006,1.69382
,,,-2.4785e-006,1.68641
,,,-2.4783e-006,1.69271
,,,-2.4781e-006,1.70053
,,,-2.4779e-006,1.68561
,,,-2.4777e-006,1.70075
,,,-2.4775e-006,1.69271
,,,-2.4773e-006,1.70053
,,,-2.4771e-006,1.67992
,,,-2.4769e-006,1.67934
,,,-2.4767e-006,1.66435
,,,-2.4765e-006,1.65717
,,,-2.4763e-006,1.64072
,,,-2.4761e-006,1.65162
,,,-2.4759e-006,1.64119
,,,-2.4757e-006,1.64066
,,,-2.4755e-006,1.63192
,,,-2.4753e-006,1.63839
,,,-2.4751e-006,1.62762
,,,-2.4749e-006,1.65717
,,,-2.4747e-006,1.64713
,,,-2.4745e-006,1.65992
,,,-2.4743e-006,1.66435
,,,-2.4741e-006,1.65717
,,,-2.4739e-006,1.66186
,,,-2.4737e-006,1.66646
,,,-2.4735e-006,1.63395
,,,-2.4733e-006,1.66474
,,,-2.4731e-006,1.63192
,,,-2.4729e-006,1.63839
,,,-2.4727e-006,1.64787
,,,-2.4725e-006,1.63087
,,,-2.4723e-006,1.63192
,,,-2.4721e-006,1.64402
,,,-2.4719e-006,1.63395
,,,-2.4717e-006,1.64066
,,,-2.4715e-006,1.62529
,,,-2.4713e-006,1.64402
,,,-2.4711e-006,1.63395
,,,-2.4709e-006,1.63087
,,,-2.4707e-006,1.63192
,,,-2.4705e-006,1.64402
,,,-2.4703e-006,1.63395
,,,-2.4701e-006,1.62543
,,,-2.4699e-006,1.63192
,,,-2.4697e-006,1.64402
,,,-2.4695e-006,1.64119
,,,-2.4693e-006,1.64066
,,,-2.4691e-006,1.63192
,,,-2.4689e-006,1.65162
,,,-2.4687e-006,1.64119
,,,-2.4685e-006,1.62543
,,,-2.4683e-006,1.63192
,,,-2.4681e-006,1.6287
,,,-2.4679e-006,1.61339
,,,-2.4677e-006,1.62543
,,,-2.4675e-006,1.61117
,,,-2.4673e-006,1.60668
,,,-2.4671e-006,1.6001
,,,-2.4669e-006,1.58817
,,,-2.4667e-006,1.5773
,,,-2.4665e-006,1.591
,,,-2.4663e-006,1.57571
,,,-2.4661e-006,1.58232
,,,-2.4659e-006,1.56947
,,,-2.4657e-006,1.591
,,,-2.4655e-006,1.57571
,,,-2.4653e-006,1.58817
,,,-2.4651e-006,1.59469
,,,-2.4649e-006,1.59932
,,,-2.4647e-006,1.60829
,,,-2.4645e-006,1.61164
,,,-2.4643e-006,1.61733
,,,-2.4641e-006,1.61239
,,,-2.4639e-006,1.6001
,,,-2.4637e-006,1.61164
,,,-2.4635e-006,1.59469
,,,-2.4633e-006,1.591
,,,-2.4631e-006,1.59139
,,,-2.4629e-006,1.61164
,,,-2.4627e-006,1.60229
,,,-2.4625e-006,1.60668
,,,-2.4623e-006,1.6001
,,,-2.4621e-006,1.60423
,,,-2.4619e-006,1.61733
,,,-2.4617e-006,1.61239
,,,-2.4615e-006,1.60829
,,,-2.4613e-006,1.64066
,,,-2.4611e-006,1.62529
,,,-2.4609e-006,1.6287
,,,-2.4607e-006,1.64787
,,,-2.4605e-006,1.64066
,,,-2.4603e-006,1.63192
,,,-2.4601e-006,1.65162
,,,-2.4599e-006,1.62762
,,,-2.4597e-006,1.63087
,,,-2.4595e-006,1.61733
,,,-2.4593e-006,1.6287
,,,-2.4591e-006,1.62096
,,,-2.4589e-006,1.62543
,,,-2.4587e-006,1.61733
,,,-2.4585e-006,1.61752
,,,-2.4583e-006,1.61339
,,,-2.4581e-006,1.61738
,,,-2.4579e-006,1.61733
,,,-2.4577e-006,1.62371
,,,-2.4575e-006,1.59139
,,,-2.4573e-006,1.60423
,,,-2.4571e-006,1.60229
,,,-2.4569e-006,1.61239
,,,-2.4567e-006,1.61339
,,,-2.4565e-006,1.61164
,,,-2.4563e-006,1.59469
,,,-2.4561e-006,1.60668
,,,-2.4559e-006,1.59139
,,,-2.4557e-006,1.58817
,,,-2.4555e-006,1.5773
,,,-2.4553e-006,1.59932
,,,-2.4551e-006,1.58273
,,,-2.4549e-006,1.58817
,,,-2.4547e-006,1.5773
,,,-2.4545e-006,1.59932
,,,-2.4543e-006,1.58273
,,,-2.4541e-006,1.60423
,,,-2.4539e-006,1.59469
,,,-2.4537e-006,1.591
,,,-2.4535e-006,1.58273
,,,-2.4533e-006,1.58232
,,,-2.4531e-006,1.55432
,,,-2.4529e-006,1.58287
,,,-2.4527e-006,1.56059
,,,-2.4525e-006,1.58232
,,,-2.4523e-006,1.56947
,,,-2.4521e-006,1.56187
,,,-2.4519e-006,1.58273
,,,-2.4517e-006,1.56817
,,,-2.4515e-006,1.5773
,,,-2.4513e-006,1.57463
,,,-2.4511e-006,1.56673
,,,-2.4509e-006,1.59844
,,,-2.4507e-006,1.58626
,,,-2.4505e-006,1.57463
,,,-2.4503e-006,1.59139
,,,-2.4501e-006,1.60423
,,,-2.4499e-006,1.60229
,,,-2.4497e-006,1.61239
,,,-2.4495e-006,1.58273
,,,-2.4493e-006,1.60423
,,,-2.4491e-006,1.56947
,,,-2.4489e-006,1.58287
,,,-2.4487e-006,1.58273
,,,-2.4485e-006,1.58817
,,,-2.4483e-006,1.56947
,,,-2.4481e-006,1.591
,,,-2.4479e-006,1.57571
,,,-2.4477e-006,1.57369
,,,-2.4475e-006,1.58626
,,,-2.4473e-006,1.57463
,,,-2.4471e-006,1.56673
,,,-2.4469e-006,1.57369
,,,-2.4467e-006,1.55432
,,,-2.4465e-006,1.57061
,,,-2.4463e-006,1.56059
,,,-2.4461e-006,1.56817
,,,-2.4459e-006,1.55432
,,,-2.4457e-006,1.55496
,,,-2.4455e-006,1.5445
,,,-2.4453e-006,1.54847
,,,-2.4451e-006,1.54239
,,,-2.4449e-006,1.54653
,,,-2.4447e-006,1.5445
,,,-2.4445e-006,1.54847
,,,-2.4443e-006,1.54239
,,,-2.4441e-006,1.56187
,,,-2.4439e-006,1.55263
,,,-2.4437e-006,1.56817
,,,-2.4435e-006,1.5773
,,,-2.4433e-006,1.591
,,,-2.4431e-006,1.59139
,,,-2.4429e-006,1.61738
,,,-2.4427e-006,1.62529
,,,-2.4425e-006,1.65162
,,,-2.4423e-006,1.64787
,,,-2.4421e-006,1.67279
,,,-2.4419e-006,1.66957
,,,-2.4417e-006,1.67934
,,,-2.4415e-006,1.68533
,,,-2.4413e-006,1.67701
,,,-2.4411e-006,1.66186
,,,-2.4409e-006,1.67934
,,,-2.4407e-006,1.66086
,,,-2.4405e-006,1.66474
,,,-2.4403e-006,1.66186
,,,-2.4401e-006,1.66646
,,,-2.4399e-006,1.64787
,,,-2.4397e-006,1.66474
,,,-2.4395e-006,1.65423
,,,-2.4393e-006,1.65162
,,,-2.4391e-006,1.65639
,,,-2.4389e-006,1.66474
,,,-2.4387e-006,1.64713
,,,-2.4385e-006,1.67182
,,,-2.4383e-006,1.66435
,,,-2.4381e-006,1.66474
,,,-2.4379e-006,1.66186
,,,-2.4377e-006,1.64402
,,,-2.4375e-006,1.63395
,,,-2.4373e-006,1.65717
,,,-2.4371e-006,1.64072
,,,-2.4369e-006,1.64402
,,,-2.4367e-006,1.64787
,,,-2.4365e-006,1.64066
,,,-2.4363e-006,1.64072
,,,-2.4361e-006,1.6287
,,,-2.4359e-006,1.63395
,,,-2.4357e-006,1.64066
,,,-2.4355e-006,1.63192
,,,-2.4353e-006,1.64402
,,,-2.4351e-006,1.63395
,,,-2.4349e-006,1.66474
,,,-2.4347e-006,1.65423
,,,-2.4345e-006,1.65992
,,,-2.4343e-006,1.66435
,,,-2.4341e-006,1.67279
,,,-2.4339e-006,1.66186
,,,-2.4337e-006,1.65162
,,,-2.4335e-006,1.64787
,,,-2.4333e-006,1.65717
,,,-2.4331e-006,1.63192
,,,-2.4329e-006,1.65162
,,,-2.4327e-006,1.64119
,,,-2.4325e-006,1.64873
,,,-2.4323e-006,1.63192
,,,-2.4321e-006,1.64402
,,,-2.4319e-006,1.62762
,,,-2.4317e-006,1.61738
,,,-2.4315e-006,1.61733
,,,-2.4313e-006,1.62371
,,,-2.4311e-006,1.6001
,,,-2.4309e-006,1.61164
,,,-2.4307e-006,1.58626
,,,-2.4305e-006,1.591
,,,-2.4303e-006,1.59139
,,,-2.4301e-006,1.59844
,,,-2.4299e-006,1.61117
,,,-2.4297e-006,1.61752
,,,-2.4295e-006,1.60829
,,,-2.4293e-006,1.59844
,,,-2.4291e-006,1.59469
,,,-2.4289e-006,1.60668
,,,-2.4287e-006,1.58273
,,,-2.4285e-006,1.61164
,,,-2.4283e-006,1.60229
,,,-2.4281e-006,1.6287
,,,-2.4279e-006,1.6001
,,,-2.4277e-006,1.61164
,,,-2.4275e-006,1.61117
,,,-2.4273e-006,1.6287
,,,-2.4271e-006,1.62096
,,,-2.4269e-006,1.64066
,,,-2.4267e-006,1.63192
,,,-2.4265e-006,1.65992
,,,-2.4263e-006,1.66435
,,,-2.4261e-006,1.65717
,,,-2.4259e-006,1.64713
,,,-2.4257e-006,1.65992
,,,-2.4255e-006,1.65639
,,,-2.4253e-006,1.64873
,,,-2.4251e-006,1.64713
,,,-2.4249e-006,1.65162
,,,-2.4247e-006,1.65639
,,,-2.4245e-006,1.65717
,,,-2.4243e-006,1.66186
,,,-2.4241e-006,1.66646
,,,-2.4239e-006,1.67717
,,,-2.4237e-006,1.67701
,,,-2.4235e-006,1.69382
,,,-2.4233e-006,1.70075
,,,-2.4231e-006,1.69271
,,,-2.4229e-006,1.68769
,,,-2.4227e-006,1.69876
,,,-2.4225e-006,1.69493
,,,-2.4223e-006,1.68533
,,,-2.4221e-006,1.68769
,,,-2.4219e-006,1.66957
,,,-2.4217e-006,1.69493
,,,-2.4215e-006,1.69271
,,,-2.4213e-006,1.70827
,,,-2.4211e-006,1.70683
,,,-2.4209e-006,1.71338
,,,-2.4207e-006,1.69271
,,,-2.4205e-006,1.70827
,,,-2.4203e-006,1.69876
,,,-2.4201e-006,1.70075
,,,-2.4199e-006,1.69271
,,,-2.4197e-006,1.69293
,,,-2.4195e-006,1.67992
,,,-2.4193e-006,1.68641
,,,-2.4191e-006,1.67221
,,,-2.4189e-006,1.67279
,,,-2.4187e-006,1.66957
,,,-2.4185e-006,1.67934
,,,-2.4183e-006,1.66435
,,,-2.4181e-006,1.67279
,,,-2.4179e-006,1.66957
,,,-2.4177e-006,1.68641
,,,-2.4175e-006,1.67717
,,,-2.4173e-006,1.67701
,,,-2.4171e-006,1.67992
,,,-2.4169e-006,1.67934
,,,-2.4167e-006,1.66086
,,,-2.4165e-006,1.67279
,,,-2.4163e-006,1.66957
,,,-2.4161e-006,1.67934
,,,-2.4159e-006,1.66435
,,,-2.4157e-006,1.65717
,,,-2.4155e-006,1.64713
,,,-2.4153e-006,1.66646
,,,-2.4151e-006,1.66435
,,,-2.4149e-006,1.66474
,,,-2.4147e-006,1.66186
,,,-2.4145e-006,1.67934
,,,-2.4143e-006,1.66435
,,,-2.4141e-006,1.65717
,,,-2.4139e-006,1.65423
,,,-2.4137e-006,1.65992
,,,-2.4135e-006,1.66435
,,,-2.4133e-006,1.64873
,,,-2.4131e-006,1.66186
,,,-2.4129e-006,1.65992
,,,-2.4127e-006,1.65639
,,,-2.4125e-006,1.64873
,,,-2.4123e-006,1.64072
,,,-2.4121e-006,1.64402
,,,-2.4119e-006,1.64787
,,,-2.4117e-006,1.66474
,,,-2.4115e-006,1.65423
,,,-2.4113e-006,1.67182
,,,-2.4111e-006,1.65639
,,,-2.4109e-006,1.69293
,,,-2.4107e-006,1.67992
,,,-2.4105e-006,1.67934
,,,-2.4103e-006,1.66086
,,,-2.4101e-006,1.67701
,,,-2.4099e-006,1.65423
,,,-2.4097e-006,1.66646
,,,-2.4095e-006,1.66435
,,,-2.4093e-006,1.64066
,,,-2.4091e-006,1.64713
,,,-2.4089e-006,1.64402
,,,-2.4087e-006,1.63395
,,,-2.4085e-006,1.64066
,,,-2.4083e-006,1.64072
,,,-2.4081e-006,1.6287
,,,-2.4079e-006,1.62762
,,,-2.4077e-006,1.60423
,,,-2.4075e-006,1.61733
,,,-2.4073e-006,1.60668
,,,-2.4071e-006,1.61339
,,,-2.4069e-006,1.61164
,,,-2.4067e-006,1.61117
,,,-2.4065e-006,1.64402
,,,-2.4063e-006,1.64119
,,,-2.4061e-006,1.64873
,,,-2.4059e-006,1.64072
,,,-2.4057e-006,1.66646
,,,-2.4055e-006,1.67221
,,,-2.4053e-006,1.67701
,,,-2.4051e-006,1.66186
,,,-2.4049e-006,1.68641
,,,-2.4047e-006,1.67221
,,,-2.4045e-006,1.66474
,,,-2.4043e-006,1.66186
,,,-2.4041e-006,1.67182
,,,-2.4039e-006,1.66435
,,,-2.4037e-006,1.67701
,,,-2.4035e-006,1.66957
,,,-2.4033e-006,1.65992
,,,-2.4031e-006,1.66435
,,,-2.4029e-006,1.66474
,,,-2.4027e-006,1.64713
,,,-2.4025e-006,1.63839
,,,-2.4023e-006,1.63395
,,,-2.4021e-006,1.62543
,,,-2.4019e-006,1.63192
,,,-2.4017e-006,1.6287
,,,-2.4015e-006,1.61339
,,,-2.4013e-006,1.61164
,,,-2.4011e-006,1.60229
,,,-2.4009e-006,1.59932
,,,-2.4007e-006,1.61339
,,,-2.4005e-006,1.61164
,,,-2.4003e-006,1.60229
,,,-2.4001e-006,1.60668
,,,-2.3999e-006,1.61339
,,,-2.3997e-006,1.61738
,,,-2.3995e-006,1.61117
,,,-2.3993e-006,1.61752
,,,-2.3991e-006,1.62762
,,,-2.3989e-006,1.63087
,,,-2.3987e-006,1.61117
,,,-2.3985e-006,1.6287
,,,-2.3983e-006,1.63395
,,,-2.3981e-006,1.64873
,,,-2.3979e-006,1.65423
,,,-2.3977e-006,1.67934
,,,-2.3975e-006,1.67717
,,,-2.3973e-006,1.67701
,,,-2.3971e-006,1.67992
,,,-2.3969e-006,1.68641
,,,-2.3967e-006,1.69271
,,,-2.3965e-006,1.66474
,,,-2.3963e-006,1.67515
,,,-2.3961e-006,1.67182
,,,-2.3959e-006,1.66086
,,,-2.3957e-006,1.64873
,,,-2.3955e-006,1.64713
,,,-2.3953e-006,1.65162
,,,-2.3951e-006,1.64787
,,,-2.3949e-006,1.64873
,,,-2.3947e-006,1.63192
,,,-2.3945e-006,1.62371
,,,-2.3943e-006,1.61339
,,,-2.3941e-006,1.61164
,,,-2.3939e-006,1.61733
,,,-2.3937e-006,1.59932
,,,-2.3935e-006,1.60829
,,,-2.3933e-006,1.62543
,,,-2.3931e-006,1.61733
,,,-2.3929e-006,1.61752
,,,-2.3927e-006,1.62762
,,,-2.3925e-006,1.63087
,,,-2.3923e-006,1.60229
,,,-2.3921e-006,1.6287
,,,-2.3919e-006,1.61339
,,,-2.3917e-006,1.61164
,,,-2.3915e-006,1.61117
,,,-2.3913e-006,1.61752
,,,-2.3911e-006,1.61339
,,,-2.3909e-006,1.62543
,,,-2.3907e-006,1.61733
,,,-2.3905e-006,1.6287
,,,-2.3903e-006,1.62096
,,,-2.3901e-006,1.63087
,,,-2.3899e-006,1.64072
,,,-2.3897e-006,1.64402
,,,-2.3895e-006,1.64119
,,,-2.3893e-006,1.64066
,,,-2.3891e-006,1.64713
,,,-2.3889e-006,1.64402
,,,-2.3887e-006,1.64787
,,,-2.3885e-006,1.64873
,,,-2.3883e-006,1.64713
,,,-2.3881e-006,1.65992
,,,-2.3879e-006,1.64787
,,,-2.3877e-006,1.64066
,,,-2.3875e-006,1.64072
,,,-2.3873e-006,1.64402
,,,-2.3871e-006,1.62762
,,,-2.3869e-006,1.64066
,,,-2.3867e-006,1.64072
,,,-2.3865e-006,1.6287
,,,-2.3863e-006,1.64119
,,,-2.3861e-006,1.63087
,,,-2.3859e-006,1.63192
,,,-2.3857e-006,1.6287
,,,-2.3855e-006,1.61339
,,,-2.3853e-006,1.61738
,,,-2.3851e-006,1.60229
,,,-2.3849e-006,1.61239
,,,-2.3847e-006,1.60829
,,,-2.3845e-006,1.62543
,,,-2.3843e-006,1.61733
,,,-2.3841e-006,1.63839
,,,-2.3839e-006,1.62096
,,,-2.3837e-006,1.63087
,,,-2.3835e-006,1.63192
,,,-2.3833e-006,1.64402
,,,-2.3831e-006,1.63395
,,,-2.3829e-006,1.64066
,,,-2.3827e-006,1.63192
,,,-2.3825e-006,1.6287
,,,-2.3823e-006,1.61339
,,,-2.3821e-006,1.63087
,,,-2.3819e-006,1.61733
,,,-2.3817e-006,1.6287
,,,-2.3815e-006,1.63395
,,,-2.3813e-006,1.63087
,,,-2.3811e-006,1.63192
,,,-2.3809e-006,1.64402
,,,-2.3807e-006,1.63395
,,,-2.3805e-006,1.64066
,,,-2.3803e-006,1.63192
,,,-2.3801e-006,1.64402
,,,-2.3799e-006,1.63395
,,,-2.3797e-006,1.65717
,,,-2.3795e-006,1.64713
,,,-2.3793e-006,1.65992
,,,-2.3791e-006,1.65639
,,,-2.3789e-006,1.64066
,,,-2.3787e-006,1.64072
,,,-2.3785e-006,1.64402
,,,-2.3783e-006,1.64787
,,,-2.3781e-006,1.63087
,,,-2.3779e-006,1.64713
,,,-2.3777e-006,1.6287
,,,-2.3775e-006,1.63395
,,,-2.3773e-006,1.62543
,,,-2.3771e-006,1.60229
,,,-2.3769e-006,1.62371
,,,-2.3767e-006,1.62096
,,,-2.3765e-006,1.63087
,,,-2.3763e-006,1.61733
,,,-2.3761e-006,1.62371
,,,-2.3759e-006,1.62762
,,,-2.3757e-006,1.64066
,,,-2.3755e-006,1.62529
,,,-2.3753e-006,1.64402
,,,-2.3751e-006,1.64787
,,,-2.3749e-006,1.64066
,,,-2.3747e-006,1.65423
,,,-2.3745e-006,1.65162
,,,-2.3743e-006,1.63395
,,,-2.3741e-006,1.64873
,,,-2.3739e-006,1.64713
,,,-2.3737e-006,1.64402
,,,-2.3735e-006,1.64787
,,,-2.3733e-006,1.64873
,,,-2.3731e-006,1.64072
,,,-2.3729e-006,1.65162
,,,-2.3727e-006,1.62762
,,,-2.3725e-006,1.64066
,,,-2.3723e-006,1.63192
,,,-2.3721e-006,1.64402
,,,-2.3719e-006,1.62762
,,,-2.3717e-006,1.64873
,,,-2.3715e-006,1.64072
,,,-2.3713e-006,1.63839
,,,-2.3711e-006,1.64119
,,,-2.3709e-006,1.64873
,,,-2.3707e-006,1.62529
,,,-2.3705e-006,1.64402
,,,-2.3703e-006,1.62096
,,,-2.3701e-006,1.64066
,,,-2.3699e-006,1.61733
,,,-2.3697e-006,1.61752
,,,-2.3695e-006,1.62096
,,,-2.3693e-006,1.62543
,,,-2.3691e-006,1.63192
,,,-2.3689e-006,1.63839
,,,-2.3687e-006,1.64119
,,,-2.3685e-006,1.63087
,,,-2.3683e-006,1.63192
,,,-2.3681e-006,1.63839
,,,-2.3679e-006,1.63395
,,,-2.3677e-006,1.64066
,,,-2.3675e-006,1.63192
,,,-2.3673e-006,1.64402
,,,-2.3671e-006,1.63395
,,,-2.3669e-006,1.62543
,,,-2.3667e-006,1.61117
,,,-2.3665e-006,1.62371
,,,-2.3663e-006,1.6001
,,,-2.3661e-006,1.60423
,,,-2.3659e-006,1.58626
,,,-2.3657e-006,1.59932
,,,-2.3655e-006,1.58273
,,,-2.3653e-006,1.60423
,,,-2.3651e-006,1.61117
,,,-2.3649e-006,1.61239
,,,-2.3647e-006,1.62096
,,,-2.3645e-006,1.63087
,,,-2.3643e-006,1.61733
,,,-2.3641e-006,1.6287
,,,-2.3639e-006,1.62762
,,,-2.3637e-006,1.63087
,,,-2.3635e-006,1.65423
,,,-2.3633e-006,1.65992
,,,-2.3631e-006,1.64787
,,,-2.3629e-006,1.65717
,,,-2.3627e-006,1.66957
,,,-2.3625e-006,1.66646
,,,-2.3623e-006,1.67221
,,,-2.3621e-006,1.67279
,,,-2.3619e-006,1.67515
,,,-2.3617e-006,1.67934
,,,-2.3615e-006,1.67717
,,,-2.3613e-006,1.68769
,,,-2.3611e-006,1.67515
,,,-2.3609e-006,1.70777
,,,-2.3607e-006,1.7012
,,,-2.3605e-006,1.70827
,,,-2.3603e-006,1.71368
,,,-2.3601e-006,1.74259
,,,-2.3599e-006,1.74789
,,,-2.3597e-006,1.7417
,,,-2.3595e-006,1.75191
,,,-2.3593e-006,1.74936
,,,-2.3591e-006,1.77261
,,,-2.3589e-006,1.77244
,,,-2.3587e-006,1.75951
,,,-2.3585e-006,1.73687
,,,-2.3583e-006,1.73341
,,,-2.3581e-006,1.74703
,,,-2.3579e-006,1.7285
,,,-2.3577e-006,1.71338
,,,-2.3575e-006,1.70736
,,,-2.3573e-006,1.70827
,,,-2.3571e-006,1.71368
,,,-2.3569e-006,1.72203
,,,-2.3567e-006,1.7237
,,,-2.3565e-006,1.71352
,,,-2.3563e-006,1.70683
,,,-2.3561e-006,1.70075
,,,-2.3559e-006,1.69271
,,,-2.3557e-006,1.70053
,,,-2.3555e-006,1.68561
,,,-2.3553e-006,1.68641
,,,-2.3551e-006,1.67221
,,,-2.3549e-006,1.67701
,,,-2.3547e-006,1.66957
,,,-2.3545e-006,1.66646
,,,-2.3543e-006,1.67221
,,,-2.3541e-006,1.66474
,,,-2.3539e-006,1.66186
,,,-2.3537e-006,1.67934
,,,-2.3535e-006,1.67717
,,,-2.3533e-006,1.66474
,,,-2.3531e-006,1.66186
,,,-2.3529e-006,1.66646
,,,-2.3527e-006,1.67717
,,,-2.3525e-006,1.66474
,,,-2.3523e-006,1.65423
,,,-2.3521e-006,1.67182
,,,-2.3519e-006,1.66086
,,,-2.3517e-006,1.67279
,,,-2.3515e-006,1.67515
,,,-2.3513e-006,1.67934
,,,-2.3511e-006,1.69271
,,,-2.3509e-006,1.71352
,,,-2.3507e-006,1.70683
,,,-2.3505e-006,1.70777
,,,-2.3503e-006,1.7012
,,,-2.3501e-006,1.72095
,,,-2.3499e-006,1.68561
,,,-2.3497e-006,1.70075
,,,-2.3495e-006,1.70736
,,,-2.3493e-006,1.70827
,,,-2.3491e-006,1.69876
,,,-2.3489e-006,1.70075
,,,-2.3487e-006,1.7012
,,,-2.3485e-006,1.70827
,,,-2.3483e-006,1.68561
,,,-2.3481e-006,1.70777
,,,-2.3479e-006,1.69271
,,,-2.3477e-006,1.69293
,,,-2.3475e-006,1.71368
,,,-2.3473e-006,1.70075
,,,-2.3471e-006,1.69271
,,,-2.3469e-006,1.69293
,,,-2.3467e-006,1.68561
,,,-2.3465e-006,1.69493
,,,-2.3463e-006,1.67221
,,,-2.3461e-006,1.65717
,,,-2.3459e-006,1.65423
,,,-2.3457e-006,1.65162
,,,-2.3455e-006,1.64787
,,,-2.3453e-006,1.63087
,,,-2.3451e-006,1.63192
,,,-2.3449e-006,1.61239
,,,-2.3447e-006,1.62762
,,,-2.3445e-006,1.60423
