data/2013_05_10/NoCapa/C210mVNoCapa00011.txt

"Record Length",25001,"Points",-2.51016e-006,1.60668
"Sample Interval",2e-010,s,-2.50996e-006,1.59139
"Trigger Point",12550,"Samples",-2.50976e-006,1.59844
"Trigger Time",0.810803,s,-2.50956e-006,1.58626
,,,-2.50936e-006,1.59932
"Horizontal Offset",-2.51016e-006,s,-2.50916e-006,1.59139
,,,-2.50896e-006,1.58817
,,,-2.50876e-006,1.58626
,,,-2.50856e-006,1.591
,,,-2.50836e-006,1.58273
,,,-2.50816e-006,1.58817
,,,-2.50796e-006,1.59469
,,,-2.50776e-006,1.58287
,,,-2.50756e-006,1.57571
,,,-2.50736e-006,1.59844
,,,-2.50716e-006,1.59469
,,,-2.50696e-006,1.61752
,,,-2.50676e-006,1.61339
,,,-2.50656e-006,1.58817
,,,-2.50636e-006,1.59469
,,,-2.50616e-006,1.59932
,,,-2.50596e-006,1.60829
,,,-2.50576e-006,1.58817
,,,-2.50556e-006,1.56947
,,,-2.50536e-006,1.591
,,,-2.50516e-006,1.57571
,,,-2.50496e-006,1.58817
,,,-2.50476e-006,1.60229
,,,-2.50456e-006,1.60668
,,,-2.50436e-006,1.60829
,,,-2.50416e-006,1.60423
,,,-2.50396e-006,1.61117
,,,-2.50376e-006,1.61239
,,,-2.50356e-006,1.6001
,,,-2.50336e-006,1.61164
,,,-2.50316e-006,1.62529
,,,-2.50296e-006,1.61752
,,,-2.50276e-006,1.64119
,,,-2.50256e-006,1.64066
,,,-2.50236e-006,1.66186
,,,-2.50216e-006,1.66646
,,,-2.50196e-006,1.67717
,,,-2.50176e-006,1.68769
,,,-2.50156e-006,1.69876
,,,-2.50136e-006,1.70777
,,,-2.50116e-006,1.69271
,,,-2.50096e-006,1.70053
,,,-2.50076e-006,1.69876
,,,-2.50056e-006,1.70075
,,,-2.50036e-006,1.69271
,,,-2.50016e-006,1.70053
,,,-2.49996e-006,1.69382
,,,-2.49976e-006,1.71338
,,,-2.49956e-006,1.7237
,,,-2.49936e-006,1.72095
,,,-2.49916e-006,1.72139
,,,-2.49896e-006,1.72203
,,,-2.49876e-006,1.73341
,,,-2.49856e-006,1.71352
,,,-2.49836e-006,1.71368
,,,-2.49816e-006,1.72203
,,,-2.49796e-006,1.7237
,,,-2.49776e-006,1.72095
,,,-2.49756e-006,1.71368
,,,-2.49736e-006,1.71338
,,,-2.49716e-006,1.70736
,,,-2.49696e-006,1.70053
,,,-2.49676e-006,1.70683
,,,-2.49656e-006,1.71338
,,,-2.49636e-006,1.67717
,,,-2.49616e-006,1.69293
,,,-2.49596e-006,1.66957
,,,-2.49576e-006,1.67934
,,,-2.49556e-006,1.65639
,,,-2.49536e-006,1.67279
,,,-2.49516e-006,1.64713
,,,-2.49496e-006,1.65162
,,,-2.49476e-006,1.63395
,,,-2.49456e-006,1.64066
,,,-2.49436e-006,1.63192
,,,-2.49416e-006,1.61752
,,,-2.49396e-006,1.62762
,,,-2.49376e-006,1.62543
,,,-2.49356e-006,1.63192
,,,-2.49336e-006,1.62371
,,,-2.49316e-006,1.62096
,,,-2.49296e-006,1.63087
,,,-2.49276e-006,1.64072
,,,-2.49256e-006,1.64402
,,,-2.49236e-006,1.64119
,,,-2.49216e-006,1.64066
,,,-2.49196e-006,1.64713
,,,-2.49176e-006,1.64402
,,,-2.49156e-006,1.64787
,,,-2.49136e-006,1.64873
,,,-2.49116e-006,1.64072
,,,-2.49096e-006,1.64402
,,,-2.49076e-006,1.64787
,,,-2.49056e-006,1.65717
,,,-2.49036e-006,1.65423
,,,-2.49016e-006,1.66646
,,,-2.48996e-006,1.66435
,,,-2.48976e-006,1.66474
,,,-2.48956e-006,1.64713
,,,-2.48936e-006,1.65162
,,,-2.48916e-006,1.66086
,,,-2.48896e-006,1.64873
,,,-2.48876e-006,1.65423
,,,-2.48856e-006,1.65162
,,,-2.48836e-006,1.66086
,,,-2.48816e-006,1.64873
,,,-2.48796e-006,1.66186
,,,-2.48776e-006,1.65162
,,,-2.48756e-006,1.64787
,,,-2.48736e-006,1.64873
,,,-2.48716e-006,1.64713
,,,-2.48696e-006,1.64402
,,,-2.48676e-006,1.62096
,,,-2.48656e-006,1.63087
,,,-2.48636e-006,1.62529
,,,-2.48616e-006,1.6287
,,,-2.48596e-006,1.61339
,,,-2.48576e-006,1.61738
,,,-2.48556e-006,1.61117
,,,-2.48536e-006,1.61752
,,,-2.48516e-006,1.59139
,,,-2.48496e-006,1.58817
,,,-2.48476e-006,1.56947
,,,-2.48456e-006,1.57463
,,,-2.48436e-006,1.56673
,,,-2.48416e-006,1.56817
,,,-2.48396e-006,1.55432
,,,-2.48376e-006,1.56187
,,,-2.48356e-006,1.56673
,,,-2.48336e-006,1.56298
,,,-2.48316e-006,1.5773
,,,-2.48296e-006,1.57061
,,,-2.48276e-006,1.57571
,,,-2.48256e-006,1.58232
,,,-2.48236e-006,1.5773
,,,-2.48216e-006,1.58287
,,,-2.48196e-006,1.56673
,,,-2.48176e-006,1.57369
,,,-2.48156e-006,1.54872
,,,-2.48136e-006,1.57463
,,,-2.48116e-006,1.58273
,,,-2.48096e-006,1.57369
,,,-2.48076e-006,1.56459
,,,-2.48056e-006,1.58287
,,,-2.48036e-006,1.57571
,,,-2.48016e-006,1.5553
,,,-2.47996e-006,1.56947
,,,-2.47976e-006,1.56187
,,,-2.47956e-006,1.56059
,,,-2.47936e-006,1.57369
,,,-2.47916e-006,1.55432
,,,-2.47896e-006,1.56187
,,,-2.47876e-006,1.56673
,,,-2.47856e-006,1.57369
,,,-2.47836e-006,1.58626
,,,-2.47816e-006,1.59932
,,,-2.47796e-006,1.59139
,,,-2.47776e-006,1.61164
,,,-2.47756e-006,1.59469
,,,-2.47736e-006,1.59932
,,,-2.47716e-006,1.61339
,,,-2.47696e-006,1.63087
,,,-2.47676e-006,1.64713
,,,-2.47656e-006,1.66646
,,,-2.47636e-006,1.68533
,,,-2.47616e-006,1.67701
,,,-2.47596e-006,1.69876
,,,-2.47576e-006,1.68641
,,,-2.47556e-006,1.71568
,,,-2.47536e-006,1.70827
,,,-2.47516e-006,1.70683
,,,-2.47496e-006,1.70777
,,,-2.47476e-006,1.69271
,,,-2.47456e-006,1.66474
,,,-2.47436e-006,1.67992
,,,-2.47416e-006,1.67934
,,,-2.47396e-006,1.67221
,,,-2.47376e-006,1.67279
,,,-2.47356e-006,1.66186
,,,-2.47336e-006,1.67182
,,,-2.47316e-006,1.67717
,,,-2.47296e-006,1.66474
,,,-2.47276e-006,1.65423
,,,-2.47256e-006,1.65162
,,,-2.47236e-006,1.64119
,,,-2.47216e-006,1.63087
,,,-2.47196e-006,1.62529
,,,-2.47176e-006,1.6287
,,,-2.47156e-006,1.62096
,,,-2.47136e-006,1.62543
,,,-2.47116e-006,1.60229
,,,-2.47096e-006,1.62371
,,,-2.47076e-006,1.6001
,,,-2.47056e-006,1.59844
,,,-2.47036e-006,1.61117
,,,-2.47016e-006,1.61752
,,,-2.46996e-006,1.59139
,,,-2.46976e-006,1.60423
,,,-2.46956e-006,1.61733
,,,-2.46936e-006,1.59932
,,,-2.46916e-006,1.6001
,,,-2.46896e-006,1.60423
,,,-2.46876e-006,1.60229
,,,-2.46856e-006,1.61752
,,,-2.46836e-006,1.60829
,,,-2.46816e-006,1.61164
,,,-2.46796e-006,1.58626
,,,-2.46776e-006,1.61239
,,,-2.46756e-006,1.59139
,,,-2.46736e-006,1.60423
,,,-2.46716e-006,1.60229
,,,-2.46696e-006,1.61239
,,,-2.46676e-006,1.59139
,,,-2.46656e-006,1.61164
,,,-2.46636e-006,1.61733
,,,-2.46616e-006,1.60668
,,,-2.46596e-006,1.61339
,,,-2.46576e-006,1.63087
,,,-2.46556e-006,1.62529
,,,-2.46536e-006,1.6287
,,,-2.46516e-006,1.61339
,,,-2.46496e-006,1.62543
,,,-2.46476e-006,1.63192
,,,-2.46456e-006,1.6287
,,,-2.46436e-006,1.64119
,,,-2.46416e-006,1.64066
,,,-2.46396e-006,1.64072
,,,-2.46376e-006,1.65162
,,,-2.46356e-006,1.63395
,,,-2.46336e-006,1.64873
,,,-2.46316e-006,1.64713
,,,-2.46296e-006,1.63839
,,,-2.46276e-006,1.63395
,,,-2.46256e-006,1.64066
,,,-2.46236e-006,1.64072
,,,-2.46216e-006,1.65992
,,,-2.46196e-006,1.66435
,,,-2.46176e-006,1.66474
,,,-2.46156e-006,1.66186
,,,-2.46136e-006,1.67934
,,,-2.46116e-006,1.68533
,,,-2.46096e-006,1.70053
,,,-2.46076e-006,1.69382
,,,-2.46056e-006,1.71338
,,,-2.46036e-006,1.7381
,,,-2.46016e-006,1.7341
,,,-2.45996e-006,1.74312
,,,-2.45976e-006,1.74936
,,,-2.45956e-006,1.74789
,,,-2.45936e-006,1.74703
,,,-2.45916e-006,1.73793
,,,-2.45896e-006,1.72808
,,,-2.45876e-006,1.7237
,,,-2.45856e-006,1.7283
,,,-2.45836e-006,1.72139
,,,-2.45816e-006,1.70075
,,,-2.45796e-006,1.71568
,,,-2.45776e-006,1.68769
,,,-2.45756e-006,1.66186
,,,-2.45736e-006,1.66646
,,,-2.45716e-006,1.66435
,,,-2.45696e-006,1.64066
,,,-2.45676e-006,1.64072
,,,-2.45656e-006,1.6287
,,,-2.45636e-006,1.62096
,,,-2.45616e-006,1.60423
,,,-2.45596e-006,1.58626
,,,-2.45576e-006,1.59932
,,,-2.45556e-006,1.57571
,,,-2.45536e-006,1.58232
,,,-2.45516e-006,1.58626
,,,-2.45496e-006,1.591
,,,-2.45476e-006,1.58273
,,,-2.45456e-006,1.59844
,,,-2.45436e-006,1.5773
,,,-2.45416e-006,1.59932
,,,-2.45396e-006,1.59139
,,,-2.45376e-006,1.58817
,,,-2.45356e-006,1.5773
,,,-2.45336e-006,1.57061
,,,-2.45316e-006,1.55263
,,,-2.45296e-006,1.56817
,,,-2.45276e-006,1.56947
,,,-2.45256e-006,1.56187
,,,-2.45236e-006,1.5445
,,,-2.45216e-006,1.54847
,,,-2.45196e-006,1.53698
,,,-2.45176e-006,1.53407
,,,-2.45156e-006,1.5445
,,,-2.45136e-006,1.53549
,,,-2.45116e-006,1.54872
,,,-2.45096e-006,1.54112
,,,-2.45076e-006,1.5445
,,,-2.45056e-006,1.54234
,,,-2.45036e-006,1.52242
,,,-2.45016e-006,1.52622
,,,-2.44996e-006,1.53074
,,,-2.44976e-006,1.53549
,,,-2.44956e-006,1.52242
,,,-2.44936e-006,1.54653
,,,-2.44916e-006,1.53493
,,,-2.44896e-006,1.53549
,,,-2.44876e-006,1.54239
,,,-2.44856e-006,1.55496
,,,-2.44836e-006,1.5445
,,,-2.44816e-006,1.5553
,,,-2.44796e-006,1.55432
,,,-2.44776e-006,1.57061
,,,-2.44756e-006,1.56673
,,,-2.44736e-006,1.56298
,,,-2.44716e-006,1.5773
,,,-2.44696e-006,1.57463
,,,-2.44676e-006,1.59139
,,,-2.44656e-006,1.58232
,,,-2.44636e-006,1.56947
,,,-2.44616e-006,1.591
,,,-2.44596e-006,1.6001
,,,-2.44576e-006,1.60423
,,,-2.44556e-006,1.59469
,,,-2.44536e-006,1.59932
,,,-2.44516e-006,1.61339
,,,-2.44496e-006,1.61164
,,,-2.44476e-006,1.61117
,,,-2.44456e-006,1.591
,,,-2.44436e-006,1.59139
,,,-2.44416e-006,1.60423
,,,-2.44396e-006,1.58626
,,,-2.44376e-006,1.591
,,,-2.44356e-006,1.6001
,,,-2.44336e-006,1.59844
,,,-2.44316e-006,1.61117
,,,-2.44296e-006,1.60668
,,,-2.44276e-006,1.62096
,,,-2.44256e-006,1.61738
,,,-2.44236e-006,1.61733
,,,-2.44216e-006,1.61752
,,,-2.44196e-006,1.62096
,,,-2.44176e-006,1.61738
,,,-2.44156e-006,1.61733
,,,-2.44136e-006,1.6287
,,,-2.44116e-006,1.6001
,,,-2.44096e-006,1.60423
,,,-2.44076e-006,1.5773
,,,-2.44056e-006,1.59932
,,,-2.44036e-006,1.6001
,,,-2.44016e-006,1.60423
,,,-2.43996e-006,1.58626
,,,-2.43976e-006,1.59932
,,,-2.43956e-006,1.59139
,,,-2.43936e-006,1.58817
,,,-2.43916e-006,1.56947
,,,-2.43896e-006,1.57463
,,,-2.43876e-006,1.55263
,,,-2.43856e-006,1.5553
,,,-2.43836e-006,1.55432
,,,-2.43816e-006,1.56187
,,,-2.43796e-006,1.55263
,,,-2.43776e-006,1.56817
,,,-2.43756e-006,1.56947
,,,-2.43736e-006,1.57463
,,,-2.43716e-006,1.58273
,,,-2.43696e-006,1.58232
,,,-2.43676e-006,1.56947
,,,-2.43656e-006,1.58287
,,,-2.43636e-006,1.59139
,,,-2.43616e-006,1.59844
,,,-2.43596e-006,1.61733
,,,-2.43576e-006,1.61239
,,,-2.43556e-006,1.62096
,,,-2.43536e-006,1.62543
,,,-2.43516e-006,1.62529
,,,-2.43496e-006,1.64402
,,,-2.43476e-006,1.64787
,,,-2.43456e-006,1.65717
,,,-2.43436e-006,1.66186
,,,-2.43416e-006,1.67182
,,,-2.43396e-006,1.66435
,,,-2.43376e-006,1.67701
,,,-2.43356e-006,1.65423
,,,-2.43336e-006,1.65992
,,,-2.43316e-006,1.66086
,,,-2.43296e-006,1.64066
,,,-2.43276e-006,1.62529
,,,-2.43256e-006,1.6287
,,,-2.43236e-006,1.62096
,,,-2.43216e-006,1.62543
,,,-2.43196e-006,1.59469
,,,-2.43176e-006,1.61239
,,,-2.43156e-006,1.60829
,,,-2.43136e-006,1.61164
,,,-2.43116e-006,1.61117
,,,-2.43096e-006,1.61239
,,,-2.43076e-006,1.62096
,,,-2.43056e-006,1.61164
,,,-2.43036e-006,1.64713
,,,-2.43016e-006,1.61239
,,,-2.42996e-006,1.62762
,,,-2.42976e-006,1.61164
,,,-2.42956e-006,1.61733
,,,-2.42936e-006,1.6287
,,,-2.42916e-006,1.62096
,,,-2.42896e-006,1.61164
,,,-2.42876e-006,1.61733
,,,-2.42856e-006,1.63839
,,,-2.42836e-006,1.62762
,,,-2.42816e-006,1.64066
,,,-2.42796e-006,1.63192
,,,-2.42776e-006,1.63839
,,,-2.42756e-006,1.64787
,,,-2.42736e-006,1.64066
,,,-2.42716e-006,1.65423
,,,-2.42696e-006,1.66646
,,,-2.42676e-006,1.67221
,,,-2.42656e-006,1.70053
,,,-2.42636e-006,1.71368
,,,-2.42616e-006,1.70075
,,,-2.42596e-006,1.70736
,,,-2.42576e-006,1.70053
,,,-2.42556e-006,1.70683
,,,-2.42536e-006,1.69493
,,,-2.42516e-006,1.69271
,,,-2.42496e-006,1.67701
,,,-2.42476e-006,1.67515
,,,-2.42456e-006,1.67934
,,,-2.42436e-006,1.66435
,,,-2.42416e-006,1.67279
,,,-2.42396e-006,1.66957
,,,-2.42376e-006,1.66646
,,,-2.42356e-006,1.67221
,,,-2.42336e-006,1.66474
,,,-2.42316e-006,1.67992
,,,-2.42296e-006,1.67182
,,,-2.42276e-006,1.67717
,,,-2.42256e-006,1.67701
,,,-2.42236e-006,1.67992
,,,-2.42216e-006,1.67934
,,,-2.42196e-006,1.67221
,,,-2.42176e-006,1.67701
,,,-2.42156e-006,1.66186
,,,-2.42136e-006,1.67934
,,,-2.42116e-006,1.67717
,,,-2.42096e-006,1.69293
,,,-2.42076e-006,1.69382
,,,-2.42056e-006,1.72203
,,,-2.42036e-006,1.71568
,,,-2.42016e-006,1.7417
,,,-2.41996e-006,1.71368
,,,-2.41976e-006,1.73687
,,,-2.41956e-006,1.71568
,,,-2.41936e-006,1.72095
,,,-2.41916e-006,1.71368
,,,-2.41896e-006,1.71338
,,,-2.41876e-006,1.70736
,,,-2.41856e-006,1.69293
,,,-2.41836e-006,1.68561
,,,-2.41816e-006,1.67934
,,,-2.41796e-006,1.67221
,,,-2.41776e-006,1.66474
,,,-2.41756e-006,1.67515
,,,-2.41736e-006,1.66646
,,,-2.41716e-006,1.66435
,,,-2.41696e-006,1.63087
,,,-2.41676e-006,1.64713
,,,-2.41656e-006,1.63839
,,,-2.41636e-006,1.61339
,,,-2.41616e-006,1.62543
,,,-2.41596e-006,1.62529
,,,-2.41576e-006,1.63839
,,,-2.41556e-006,1.62762
,,,-2.41536e-006,1.63087
,,,-2.41516e-006,1.64072
,,,-2.41496e-006,1.63839
,,,-2.41476e-006,1.62762
,,,-2.41456e-006,1.62543
,,,-2.41436e-006,1.61733
,,,-2.41416e-006,1.61752
,,,-2.41396e-006,1.61339
,,,-2.41376e-006,1.62543
,,,-2.41356e-006,1.61117
,,,-2.41336e-006,1.6287
,,,-2.41316e-006,1.61339
,,,-2.41296e-006,1.61738
,,,-2.41276e-006,1.60229
,,,-2.41256e-006,1.61239
,,,-2.41236e-006,1.6001
,,,-2.41216e-006,1.61164
,,,-2.41196e-006,1.59469
,,,-2.41176e-006,1.60668
,,,-2.41156e-006,1.6001
,,,-2.41136e-006,1.59844
,,,-2.41116e-006,1.59469
,,,-2.41096e-006,1.59932
,,,-2.41076e-006,1.59139
,,,-2.41056e-006,1.60423
,,,-2.41036e-006,1.60229
,,,-2.41016e-006,1.59932
,,,-2.40996e-006,1.59139
,,,-2.40976e-006,1.58817
,,,-2.40956e-006,1.59469
,,,-2.40936e-006,1.59932
,,,-2.40916e-006,1.59139
,,,-2.40896e-006,1.60423
,,,-2.40876e-006,1.59469
,,,-2.40856e-006,1.61239
,,,-2.40836e-006,1.61339
,,,-2.40816e-006,1.59844
,,,-2.40796e-006,1.61733
,,,-2.40776e-006,1.61239
,,,-2.40756e-006,1.61339
,,,-2.40736e-006,1.64066
,,,-2.40716e-006,1.62529
,,,-2.40696e-006,1.62371
,,,-2.40676e-006,1.61339
,,,-2.40656e-006,1.63087
,,,-2.40636e-006,1.61733
,,,-2.40616e-006,1.61752
,,,-2.40596e-006,1.62096
,,,-2.40576e-006,1.63087
,,,-2.40556e-006,1.63192
,,,-2.40536e-006,1.63839
,,,-2.40516e-006,1.62762
,,,-2.40496e-006,1.64066
,,,-2.40476e-006,1.63192
,,,-2.40456e-006,1.6287
,,,-2.40436e-006,1.63395
,,,-2.40416e-006,1.62543
,,,-2.40396e-006,1.66186
,,,-2.40376e-006,1.65162
,,,-2.40356e-006,1.66086
,,,-2.40336e-006,1.65717
,,,-2.40316e-006,1.65423
,,,-2.40296e-006,1.65992
,,,-2.40276e-006,1.65639
,,,-2.40256e-006,1.63087
,,,-2.40236e-006,1.63192
,,,-2.40216e-006,1.6287
,,,-2.40196e-006,1.63395
,,,-2.40176e-006,1.63087
,,,-2.40156e-006,1.61733
,,,-2.40136e-006,1.61752
,,,-2.40116e-006,1.59139
,,,-2.40096e-006,1.59844
,,,-2.40076e-006,1.59469
,,,-2.40056e-006,1.591
,,,-2.40036e-006,1.6001
,,,-2.40016e-006,1.58817
,,,-2.39996e-006,1.60229
,,,-2.39976e-006,1.60668
,,,-2.39956e-006,1.60829
,,,-2.39936e-006,1.61738
,,,-2.39916e-006,1.59469
,,,-2.39896e-006,1.62371
,,,-2.39876e-006,1.62762
,,,-2.39856e-006,1.63087
,,,-2.39836e-006,1.64713
,,,-2.39816e-006,1.64402
,,,-2.39796e-006,1.64787
,,,-2.39776e-006,1.66474
,,,-2.39756e-006,1.65423
,,,-2.39736e-006,1.67182
,,,-2.39716e-006,1.64787
,,,-2.39696e-006,1.64873
,,,-2.39676e-006,1.63192
,,,-2.39656e-006,1.64402
,,,-2.39636e-006,1.64787
,,,-2.39616e-006,1.64066
,,,-2.39596e-006,1.64713
,,,-2.39576e-006,1.65162
,,,-2.39556e-006,1.64787
,,,-2.39536e-006,1.64066
,,,-2.39516e-006,1.64713
,,,-2.39496e-006,1.65162
,,,-2.39476e-006,1.63395
,,,-2.39456e-006,1.64066
,,,-2.39436e-006,1.63192
,,,-2.39416e-006,1.64402
,,,-2.39396e-006,1.64119
,,,-2.39376e-006,1.64066
,,,-2.39356e-006,1.62529
,,,-2.39336e-006,1.64402
,,,-2.39316e-006,1.62096
,,,-2.39296e-006,1.63087
,,,-2.39276e-006,1.61117
,,,-2.39256e-006,1.6287
,,,-2.39236e-006,1.61339
,,,-2.39216e-006,1.61738
,,,-2.39196e-006,1.61733
,,,-2.39176e-006,1.61752
,,,-2.39156e-006,1.60829
,,,-2.39136e-006,1.63087
,,,-2.39116e-006,1.60229
,,,-2.39096e-006,1.61752
,,,-2.39076e-006,1.59139
,,,-2.39056e-006,1.58817
,,,-2.39036e-006,1.58626
,,,-2.39016e-006,1.57463
,,,-2.38996e-006,1.56059
,,,-2.38976e-006,1.59844
,,,-2.38956e-006,1.59469
,,,-2.38936e-006,1.60668
,,,-2.38916e-006,1.61339
,,,-2.38896e-006,1.61738
,,,-2.38876e-006,1.60229
,,,-2.38856e-006,1.61239
,,,-2.38836e-006,1.61339
,,,-2.38816e-006,1.59844
,,,-2.38796e-006,1.59469
,,,-2.38776e-006,1.58287
,,,-2.38756e-006,1.57571
,,,-2.38736e-006,1.58817
,,,-2.38716e-006,1.56947
,,,-2.38696e-006,1.57463
,,,-2.38676e-006,1.56673
,,,-2.38656e-006,1.5553
,,,-2.38636e-006,1.56947
,,,-2.38616e-006,1.56187
,,,-2.38596e-006,1.56673
,,,-2.38576e-006,1.57369
,,,-2.38556e-006,1.56947
,,,-2.38536e-006,1.58287
,,,-2.38516e-006,1.56673
,,,-2.38496e-006,1.57369
,,,-2.38476e-006,1.56947
,,,-2.38456e-006,1.57463
,,,-2.38436e-006,1.56673
,,,-2.38416e-006,1.57369
,,,-2.38396e-006,1.5773
,,,-2.38376e-006,1.58287
,,,-2.38356e-006,1.58273
,,,-2.38336e-006,1.59844
,,,-2.38316e-006,1.59469
,,,-2.38296e-006,1.61752
,,,-2.38276e-006,1.63395
,,,-2.38256e-006,1.64066
,,,-2.38236e-006,1.64713
,,,-2.38216e-006,1.67182
,,,-2.38196e-006,1.66435
,,,-2.38176e-006,1.67279
,,,-2.38156e-006,1.67992
,,,-2.38136e-006,1.68641
,,,-2.38116e-006,1.67717
,,,-2.38096e-006,1.69293
,,,-2.38076e-006,1.69382
,,,-2.38056e-006,1.70075
,,,-2.38036e-006,1.71568
,,,-2.38016e-006,1.71352
,,,-2.37996e-006,1.70683
,,,-2.37976e-006,1.69493
,,,-2.37956e-006,1.70736
,,,-2.37936e-006,1.67701
,,,-2.37916e-006,1.67515
,,,-2.37896e-006,1.67934
,,,-2.37876e-006,1.68533
,,,-2.37856e-006,1.68769
,,,-2.37836e-006,1.66186
,,,-2.37816e-006,1.67934
,,,-2.37796e-006,1.66435
,,,-2.37776e-006,1.67701
,,,-2.37756e-006,1.69382
,,,-2.37736e-006,1.67934
,,,-2.37716e-006,1.67717
,,,-2.37696e-006,1.69293
,,,-2.37676e-006,1.66957
,,,-2.37656e-006,1.67934
,,,-2.37636e-006,1.67717
,,,-2.37616e-006,1.68769
,,,-2.37596e-006,1.66957
,,,-2.37576e-006,1.68641
,,,-2.37556e-006,1.66435
,,,-2.37536e-006,1.69293
,,,-2.37516e-006,1.68561
,,,-2.37496e-006,1.70075
,,,-2.37476e-006,1.69271
,,,-2.37456e-006,1.70827
,,,-2.37436e-006,1.69876
,,,-2.37416e-006,1.72203
,,,-2.37396e-006,1.68533
,,,-2.37376e-006,1.68769
,,,-2.37356e-006,1.67515
,,,-2.37336e-006,1.67182
,,,-2.37316e-006,1.65639
,,,-2.37296e-006,1.65717
,,,-2.37276e-006,1.66186
,,,-2.37256e-006,1.65992
,,,-2.37236e-006,1.66435
,,,-2.37216e-006,1.66474
,,,-2.37196e-006,1.68561
,,,-2.37176e-006,1.66646
,,,-2.37156e-006,1.68533
,,,-2.37136e-006,1.68769
,,,-2.37116e-006,1.67515
,,,-2.37096e-006,1.68641
,,,-2.37076e-006,1.68533
,,,-2.37056e-006,1.69293
,,,-2.37036e-006,1.68561
,,,-2.37016e-006,1.69493
,,,-2.36996e-006,1.68533
,,,-2.36976e-006,1.67701
,,,-2.36956e-006,1.69382
,,,-2.36936e-006,1.67934
,,,-2.36916e-006,1.66435
,,,-2.36896e-006,1.67701
,,,-2.36876e-006,1.66957
,,,-2.36856e-006,1.67182
,,,-2.36836e-006,1.66435
,,,-2.36816e-006,1.67701
,,,-2.36796e-006,1.69876
,,,-2.36776e-006,1.69493
,,,-2.36756e-006,1.71568
,,,-2.36736e-006,1.70827
,,,-2.36716e-006,1.69876
,,,-2.36696e-006,1.72203
,,,-2.36676e-006,1.71568
,,,-2.36656e-006,1.72095
,,,-2.36636e-006,1.72139
,,,-2.36616e-006,1.72808
,,,-2.36596e-006,1.71568
,,,-2.36576e-006,1.70827
,,,-2.36556e-006,1.71368
,,,-2.36536e-006,1.71338
,,,-2.36516e-006,1.71568
,,,-2.36496e-006,1.72095
,,,-2.36476e-006,1.69876
,,,-2.36456e-006,1.70075
,,,-2.36436e-006,1.69271
,,,-2.36416e-006,1.70827
,,,-2.36396e-006,1.69382
,,,-2.36376e-006,1.68641
,,,-2.36356e-006,1.67717
,,,-2.36336e-006,1.69293
,,,-2.36316e-006,1.67515
,,,-2.36296e-006,1.65992
,,,-2.36276e-006,1.67717
,,,-2.36256e-006,1.66474
,,,-2.36236e-006,1.67515
,,,-2.36216e-006,1.68641
,,,-2.36196e-006,1.68533
,,,-2.36176e-006,1.68769
,,,-2.36156e-006,1.67992
,,,-2.36136e-006,1.67182
,,,-2.36116e-006,1.67717
,,,-2.36096e-006,1.67279
,,,-2.36076e-006,1.66957
,,,-2.36056e-006,1.64402
,,,-2.36036e-006,1.64119
,,,-2.36016e-006,1.63087
,,,-2.35996e-006,1.62529
,,,-2.35976e-006,1.64402
,,,-2.35956e-006,1.62096
,,,-2.35936e-006,1.63087
,,,-2.35916e-006,1.61117
,,,-2.35896e-006,1.60668
,,,-2.35876e-006,1.60829
,,,-2.35856e-006,1.61738
,,,-2.35836e-006,1.60229
,,,-2.35816e-006,1.591
,,,-2.35796e-006,1.59139
,,,-2.35776e-006,1.58232
,,,-2.35756e-006,1.56947
,,,-2.35736e-006,1.57463
,,,-2.35716e-006,1.56673
,,,-2.35696e-006,1.57369
,,,-2.35676e-006,1.5773
,,,-2.35656e-006,1.59932
,,,-2.35636e-006,1.6001
,,,-2.35616e-006,1.61738
,,,-2.35596e-006,1.63192
,,,-2.35576e-006,1.64402
,,,-2.35556e-006,1.62762
,,,-2.35536e-006,1.64066
,,,-2.35516e-006,1.63192
,,,-2.35496e-006,1.6287
,,,-2.35476e-006,1.62762
,,,-2.35456e-006,1.63087
,,,-2.35436e-006,1.64713
,,,-2.35416e-006,1.65162
,,,-2.35396e-006,1.64787
,,,-2.35376e-006,1.65717
,,,-2.35356e-006,1.62529
,,,-2.35336e-006,1.63839
,,,-2.35316e-006,1.64119
,,,-2.35296e-006,1.64873
,,,-2.35276e-006,1.63192
,,,-2.35256e-006,1.65162
,,,-2.35236e-006,1.64787
,,,-2.35216e-006,1.64066
,,,-2.35196e-006,1.64713
,,,-2.35176e-006,1.65162
,,,-2.35156e-006,1.64787
,,,-2.35136e-006,1.63087
,,,-2.35116e-006,1.64072
,,,-2.35096e-006,1.63839
